<?xml version="1.0" encoding="utf-8"?>
<!-- Generator: Adobe Illustrator 19.2.1, SVG Export Plug-In . SVG Version: 6.00 Build 0)  -->
<svg version="1.1" id="Layer_1" xmlns="http://www.w3.org/2000/svg" xmlns:xlink="http://www.w3.org/1999/xlink" x="0px" y="0px"
	 viewBox="0 0 512 435" style="enable-background:new 0 0 512 435;" xml:space="preserve">
<style type="text/css">
	.st0{fill:none;stroke:#FFFFFF;stroke-width:15.9943;stroke-linecap:round;stroke-miterlimit:10;}
	.st1{fill:none;stroke:#FFFFFF;stroke-width:15.9943;stroke-miterlimit:10;}
</style>
<polyline class="st0" points="288,263.8 256,231.8 224,263.8 "/>
<path class="st1" d="M256,235.1v40c0,30.9-25.1,56-56,56h-96c-53,0-96-44.2-96-97.2s43-97.2,96-97.2C104,66.1,161.3,9.7,232,9.7
	c48.2,0,90.2,25.6,112,65.6h8c48,0,72,31.1,72,71.1c48,0,80,39.6,80,87.1c0,53-43,97.6-96,97.6h-96h0.1c-30.9,0-56,25.1-56,56v-0.4
	v40"/>
<polyline class="st0" points="224.1,391.3 256.1,423.3 288.1,391.3 "/>
<path class="st1" d="M152,143.9c0-48.6,40-87.9,80-87.9"/>
</svg>
