<?xml version="1.0" encoding="utf-8"?>
<!-- Generator: Adobe Illustrator 20.1.0, SVG Export Plug-In . SVG Version: 6.00 Build 0)  -->
<svg version="1.1" id="Layer_1" xmlns="http://www.w3.org/2000/svg" xmlns:xlink="http://www.w3.org/1999/xlink" x="0px" y="0px"
	 viewBox="0 0 512 512" style="enable-background:new 0 0 512 512;" xml:space="preserve">
<style type="text/css">
	.st0{fill:#ABBBC1;}
</style>
<path class="st0" d="M265.2,375.4h44.7v-44.7h-44.7V375.4L265.2,375.4z M202.1,375.4h44.7v-44.7h-44.7V375.4L202.1,375.4z
	 M139,375.4h44.7v-44.7H139V375.4L139,375.4z M328.2,314.6h44.7v-44.7h-44.7V314.6L328.2,314.6z M265.2,314.6h44.7v-44.7h-44.7
	V314.6L265.2,314.6z M202.1,314.6h44.7v-44.7h-44.7V314.6L202.1,314.6z M139,314.6h44.7v-44.7H139V314.6L139,314.6z M328.2,253.7
	h44.7V209h-44.7V253.7L328.2,253.7z M265.2,253.7h44.7V209h-44.7V253.7L265.2,253.7z M202.1,253.7h44.7V209h-44.7V253.7L202.1,253.7
	z M139,253.7h44.7V209H139V253.7L139,253.7z M118.8,66h18v25.4c-7.8,3.4-13.3,8.8-13.3,18.7s9.6,21.2,22.6,21.2s24.7-11.3,24.7-21.2
	c0-10-5.6-15.6-13.8-19V66h50.8v24.7c-8.7,3-13.9,9.2-13.9,19.4s10.9,20.8,24,20.8s22.4-10.8,22.4-20.5s-5-16.1-12.3-19.6V66H276
	v26.5c-6.6,3.7-12,8.2-12,17.6s8.8,21.2,23.4,20.8c14.5-0.3,23.1-7.1,23.9-18.7c0.7-11.6-5.5-17.8-14.8-20.7V66H355v24
	c-9.1,2.7-12.9,9.5-12.9,20.1s10.6,20.8,23.7,20.8s22.6-10.6,22.6-20.8c0-10.3-4.6-18.8-13-19.2V66h18c23.4,0,42.6,19.2,42.6,42.6
	v213.5h-33.8V176.5h-291v230h224.7v-68.7l100-0.1c-10.4,56.7-34.6,89.4-95.7,108.3H118.8c-23.4,0-42.6-19.2-42.6-42.6V108.6
	C76.2,85.2,95.3,66,118.8,66z"/>
</svg>
