<?xml version="1.0" encoding="utf-8"?>
<!-- Generator: Adobe Illustrator 21.0.2, SVG Export Plug-In . SVG Version: 6.00 Build 0)  -->
<svg version="1.1" id="Layer_1" xmlns="http://www.w3.org/2000/svg" xmlns:xlink="http://www.w3.org/1999/xlink" x="0px" y="0px"
	 viewBox="0 0 512 512" style="enable-background:new 0 0 512 512;" xml:space="preserve">
<style type="text/css">
	.st0{fill:#3C76F7;stroke:#3C76F7;stroke-width:5;stroke-miterlimit:10;}
	.st1{fill:#3C76F7;stroke:#FFFFFF;stroke-miterlimit:10;}
	.st2{fill:#3C76F7;stroke:#FFFFFF;stroke-width:14;stroke-miterlimit:10;}
</style>
<title>feat</title>
<path class="st0" d="M131,113.9v284.2h250V113.9H131z M135.1,146.6v-3.5l0,0V118h241.8v25.1l0,0v3.5L135.1,146.6L135.1,146.6z
	 M376.9,390.6v3.4H135.2V150.7H377v239.9H376.9L376.9,390.6z"/>
<polygon class="st0" points="138.5,146.6 373.5,146.6 376.9,146.6 376.9,146.6 135.1,146.6 135.1,146.6 "/>
<rect x="153.8" y="130.3" class="st0" width="4.1" height="4.1"/>
<rect x="175.6" y="130.3" class="st0" width="4.1" height="4.1"/>
<rect x="197.4" y="130.3" class="st0" width="4.1" height="4.1"/>
<path class="st1" d="M263.9,315.2v21.2l-13.1-19.7c-0.7-1.2-2.2-1.8-3.5-1.3c-1.4,0.4-2.3,1.6-2.3,3v31.8h6.4v-21.2l13.1,19.7
	c0.8,1.2,2.3,1.7,3.7,1.3c1.4-0.4,2.3-1.6,2.3-3v-31.8H263.9z"/>
<polygon class="st1" points="328,315.2 326.8,315.2 325.6,315.2 319.1,315.2 318.1,315.2 317,315.2 309.7,315.2 309.7,321.6 
	317,321.6 318.1,321.6 319.1,321.6 319.1,350.2 325.6,350.2 325.6,321.6 326.8,321.6 328,321.6 335.2,321.6 335.2,315.2 "/>
<path class="st1" d="M283.7,326.3v-4.7h19.1v-6.4h-22.2c-1.8,0-3.2,1.4-3.2,3.2c0,0,0,0,0,0v28.8c0,1.8,1.4,3.2,3.2,3.2c0,0,0,0,0,0
	h22.3v-6.4h-19.1v-8h9.6v-6.4h-9.6L283.7,326.3L283.7,326.3z"/>
<rect x="229.2" y="343.8" class="st1" width="6.4" height="6.4"/>
<path class="st1" d="M301.3,273.2c-0.2-0.3-0.5-0.6-0.6-1c-0.1-0.1-0.2-0.2-0.3-0.3c1-1.4,2.5-2.8,2.5-7.6c0-2.7-1.1-5.4-3-7.4
	c-1.9-2-4.6-3.1-7.4-3h-11.9c-1.8,0-3.2,1.4-3.2,3.2c0,0,0,0,0,0v14.4l0,0v17.3h6.4v-14.2h8.7c0.9,0,1.8,0.3,2.5,0.9
	c0.1,0.1,0.2,0.2,0.3,0.3c0.2,0.2,0.4,0.4,0.5,0.6c0.4,0.6,0.6,1.4,0.6,2.1v10.4h6.5v-10.4C302.8,276.6,302.2,274.8,301.3,273.2z
	 M292.4,260.2c1,0,2,0.4,2.8,1.1c0.8,0.7,1.2,1.7,1.1,2.7c0,2.5-0.7,3.7-1.3,4.3c-0.8-0.2-1.7-0.4-2.6-0.3h-8.7v-7.8H292.4z"/>
<path class="st1" d="M328.5,263.1h6.6c-0.3-2.3-1.3-4.5-2.9-6.2c-1.9-2-4.6-3.1-7.4-3h-4.8c-2.8,0-5.4,1.1-7.4,3c-2,1.9-3,4.6-3,7.4
	v14.3c0,2.7,1.1,5.4,3,7.4c1.9,2,4.6,3,7.4,3h4.8c2.7,0,5.4-1.1,7.3-3c2-1.9,3.1-4.6,3-7.4v-5c0-1.8-1.4-3.2-3.2-3.2c0,0,0,0,0,0
	h-8.4v6.4h5.2v1.8c0,1-0.4,2-1.1,2.8c-0.7,0.7-1.7,1.1-2.7,1.1h-4.8c-1,0-2-0.4-2.7-1.1c-0.7-0.7-1.2-1.7-1.1-2.8v-14.3
	c0-1,0.4-2,1.1-2.7c0.7-0.7,1.7-1.1,2.7-1.1h4.8c1,0,2,0.4,2.8,1.1C328.2,261.9,328.4,262.5,328.5,263.1z"/>
<path class="st1" d="M267.3,256.8c-1.9-2-4.6-3.1-7.4-3h-4.8c-2.7,0-5.4,1.1-7.4,3c-2,1.9-3.1,4.6-3,7.4v14.3c0,2.7,1.1,5.4,3,7.4
	c1.9,2,4.6,3,7.4,3h4.8c2.7,0,5.4-1.1,7.4-3c2-1.9,3-4.6,3-7.4v-14.4C270.4,261.4,269.3,258.7,267.3,256.8z M263.9,278.5
	c0,1-0.4,2-1.1,2.8c-0.7,0.8-1.7,1.2-2.7,1.1h-4.8c-1,0-2-0.4-2.7-1.1c-0.7-0.7-1.1-1.7-1.1-2.7v-14.3c0-1,0.4-2,1.1-2.8
	c0.4-0.5,1-0.8,1.7-1v-0.2h5.9c1,0,2.1,0.4,2.8,1.1c0.7,0.7,1.1,1.7,1.1,2.7L263.9,278.5L263.9,278.5z"/>
<rect x="229.2" y="282.4" class="st1" width="6.4" height="6.4"/>
<path class="st1" d="M297.5,195.4c-1.9-2-4.6-3-7.4-3h-4.7c-2.8,0-5.4,1.1-7.4,3c-2,1.9-3,4.6-3,7.4v14.3c0,2.8,1.1,5.4,3,7.4
	c1.9,2,4.6,3,7.4,3h4.8c2.7,0,5.4-1.1,7.4-3c2-1.9,3-4.6,3-7.4v-14.3C300.6,200.1,299.5,197.4,297.5,195.4z M294.1,217
	c0,1-0.4,2-1.1,2.7c-0.7,0.7-1.7,1.2-2.8,1.1h-4.7c-1,0-2-0.4-2.7-1.1c-0.7-0.7-1.2-1.7-1.1-2.8v-14.3c0-1,0.4-2,1.1-2.7
	c0.7-0.7,1.7-1.2,2.8-1.1h4.8c1,0,2,0.4,2.7,1.1c0.7,0.7,1.2,1.7,1.1,2.8L294.1,217L294.1,217z"/>
<path class="st1" d="M253,227.4h4.8c2.7,0,5.4-1.1,7.3-3c2-1.9,3.1-4.6,3-7.4v-3.2h-6.4v3.2c0,1-0.4,2-1.1,2.7
	c-0.7,0.7-1.7,1.1-2.7,1.1h-4.8c-1,0-2-0.4-2.7-1.1c-0.7-0.7-1.1-1.7-1.1-2.7v-14.3c0-1,0.4-2,1.1-2.7c0.7-0.7,1.7-1.1,2.7-1.1h4.8
	c1,0,2,0.4,2.7,1.1c0.7,0.7,1.2,1.7,1.1,2.8v3.2h6.4v-3.2c0-2.8-1.1-5.4-3-7.4c-1.9-2-4.6-3-7.4-3H253c-2.7,0-5.4,1.1-7.4,3
	c-2,1.9-3,4.6-3,7.4v14.3c0,2.7,1.1,5.4,3,7.4C247.6,226.3,250.3,227.4,253,227.4z"/>
<path class="st1" d="M335.6,192.6c-1.3-0.5-2.7-0.1-3.5,1l-9.5,11.3l-9.5-11.3c-0.9-1-2.3-1.4-3.5-1c-1.3,0.4-2.1,1.6-2.1,3v31.8
	h6.4v-23l6.2,7.5c1.2,1.4,3.3,1.5,4.7,0.3c0.1-0.1,0.2-0.2,0.3-0.3l6.2-7.5v22.9h6.4v-31.8C337.7,194.3,336.9,193.1,335.6,192.6z"/>
<rect x="229.5" y="221" class="st1" width="6.4" height="6.4"/>
<rect x="167.8" y="193.3" class="st2" width="32.6" height="32.6"/>
<rect x="170.4" y="195.9" class="st1" width="27.5" height="27.5"/>
<rect x="167.8" y="254.6" class="st2" width="32.6" height="32.6"/>
<rect x="167.8" y="316.1" class="st2" width="32.6" height="32.6"/>
<rect x="170.4" y="256" class="st1" width="27.5" height="27.5"/>
<rect x="170.4" y="318.5" class="st1" width="27.5" height="27.5"/>
</svg>
