<?xml version="1.0" encoding="utf-8"?>
<!-- Generator: Adobe Illustrator 21.0.2, SVG Export Plug-In . SVG Version: 6.00 Build 0)  -->
<svg version="1.1" id="Layer_1" xmlns="http://www.w3.org/2000/svg" xmlns:xlink="http://www.w3.org/1999/xlink" x="0px" y="0px"
	 viewBox="0 0 512 512" style="enable-background:new 0 0 512 512;" xml:space="preserve">
<style type="text/css">
	.st0{fill:#3C76F7;stroke:#3C76F7;stroke-width:5;stroke-miterlimit:10;}
</style>
<title>feat</title>
<rect x="132" y="117.7" class="st0" width="8.5" height="8.5"/>
<rect x="149.3" y="117.7" class="st0" width="8.5" height="8.5"/>
<rect x="166.3" y="117.7" class="st0" width="8.5" height="8.5"/>
<path class="st0" d="M276,255.3l31-31.1c-12.1-27-43.9-39.1-70.9-26.9c-19.2,8.6-31.6,27.8-31.6,48.8c0,2.8,0.2,5.5,0.7,8.2l35-35.1
	L276,255.3z"/>
<path class="st0" d="M276,272.9L240,237L209,268.1c12.1,27,43.8,39.1,70.8,27c19.3-8.6,31.7-27.8,31.7-48.9c0-2.8-0.2-5.5-0.7-8.2
	L276,272.9z"/>
<polygon class="st0" points="410,250.5 405.2,250.5 405.2,345.5 405.2,349.3 401.3,349.3 303.4,349.3 303.4,354.1 410,354.1 "/>
<path class="st0" d="M156.2,236.8L106,287.1v67.1h106.7v-4.7H110.8v-60.3l1.1-1.1l41.6-41.6l2.7-2.7l2.7,2.7l24.4,24.3
	c-1-3-1.8-6-2.4-9.1L156.2,236.8z"/>
<path class="st0" d="M106,100.8v141.1h4.8v-95.1l0,0v-4h294.5v4l0,0v56.5l-1.1,1.1l-41.6,41.6l-2.7,2.7l-2.7-2.7l-24.4-24.4
	c1,3,1.8,6,2.4,9.1l24.7,24.7l49.6-49.6l0.8-0.8V100.8H106z M405.2,136.3v2H110.8v-32.7h294.4v28.8L405.2,136.3L405.2,136.3z"/>
<path class="st0" d="M260.4,324.8v-2c0.7,0,1.3-0.1,2-0.1v-2c0.7-0.1,1.3-0.1,2-0.2c38.7-3.3,68.4-35.6,68.5-74.4
	c0-4.5-0.4-9-1.2-13.4c-0.2-1.2-0.4-2.3-0.8-3.4c-0.3-1.2-0.6-2.5-1-3.7c-0.8-2.5-1.6-5-2.5-7.3c-0.2-0.7-0.5-1.3-0.8-2
	c-0.3-0.7-0.6-1.3-0.8-1.9c-17.5-37.4-62-53.5-99.3-36c-26.3,12.3-43,38.7-43,67.7c0,4.5,0.4,9,1.2,13.4c0.2,1.2,0.4,2.3,0.8,3.4
	c0.3,1.2,0.6,2.5,1,3.7c0.8,2.5,1.6,5,2.5,7.3c0.2,0.7,0.5,1.3,0.8,2s0.6,1.3,0.8,1.9c11.4,24.2,34.8,40.5,61.5,42.8
	c0.7,0.1,1.3,0.1,2,0.2v2c0.7,0.1,1.3,0.1,2,0.1v24.8h-2v2h-12.7v55.1c-0.1,4.5,1.7,8.8,5,11.9c3.2,3.2,7.4,5,11.9,5
	c4.5,0,8.8-1.8,11.9-5c3.2-3.1,4.9-7.4,5-11.8v-55.2h-12.6v-2h-2v-2L260.4,324.8z M266.2,354.1h3.8v50.4c0,3.2-1.2,6.2-3.4,8.5
	c-4.8,4.6-12.3,4.6-17.1,0c-2.3-2.2-3.5-5.3-3.5-8.5v-50.4H266.2L266.2,354.1z M258,316.1c-27.7,0-52.8-16.4-64-41.7
	c-0.2-0.7-0.6-1.3-0.8-2s-0.6-1.5-0.9-2.2c-0.5-1.3-1-2.6-1.3-4c-11-37,10-75.9,47-86.9c33.8-10,69.7,6.6,83.9,38.8
	c0.2,0.7,0.6,1.3,0.8,2c0.2,0.7,0.6,1.5,0.9,2.2c0.5,1.3,1,2.6,1.3,4c1.9,6.4,2.9,13.1,2.9,19.9C327.9,284.7,296.6,316,258,316.1z"
	/>
</svg>
