<?xml version="1.0" encoding="utf-8"?>
<!-- Generator: Adobe Illustrator 21.0.0, SVG Export Plug-In . SVG Version: 6.00 Build 0)  -->
<svg version="1.1" id="Layer_1" xmlns="http://www.w3.org/2000/svg" xmlns:xlink="http://www.w3.org/1999/xlink" x="0px" y="0px"
	 viewBox="0 0 64 64.1" style="enable-background:new 0 0 64 64.1;" xml:space="preserve">
<style type="text/css">
	.st0{fill:#F47422;}
</style>
<g>
	<g>
		<path class="st0" d="M60.8,47.9L40,39.8v-3.6c0.7-0.7,1.3-1.5,1.6-2.2l-1.9-0.7c-0.4,1-2.2,2.5-3.4,3.5l-0.6,0.5
			c-0.6,0.5-1.4,0.8-2.3,0.8h-3c-0.8,0-1.6-0.3-2.2-0.8c-0.3-0.3-0.6-0.5-1-0.8c-1.2-1-2.8-2.3-3.2-3.2l-2.4-5.1H22V16.4l0,0v-0.2
			c0-5.5,4.5-10,10-10s10,4.5,10,10v1.4l0,0V28h3.7c0.2,0,0.3,0,0.5,0v1c0,0.6-0.4,1-1,1H32v2h13.2c1.7,0,3-1.3,3-3v-1.5
			c2-0.9,3.4-3,3.4-5.3c0-2.4-1.5-4.5-3.6-5.4V16c0-8.8-7.2-16-16-16S16,7.2,16,16v0.8c-2.3,0.8-3.9,3-3.9,5.5
			c0,3.2,2.6,5.9,5.9,5.9h0.8l0.8,0.5l2.6,5.4c0.3,0.8,1,1.6,1.9,2.4v3.4l-20.9,8C1.3,48.7,0,50.5,0,52.6v11.5h2V52.6
			c0-1.2,0.8-2.4,1.9-2.8l18-7.1v5.4h5.8l0.8,4.6L26,61.6v2.5h2V62l2.6-9.1l-0.8-4.7h4.6l-0.9,4.7L36,62v2.1h2v-2.3l-2.5-9l0.8-4.6
			H42v-5.4l18.1,7.1c1.1,0.4,1.9,1.6,1.9,2.8v11.5h2V52.6C64,50.5,62.7,48.7,60.8,47.9z M49.6,22.3c0,2.1-1.7,3.9-3.9,3.9H44v-7.7
			h1.7C47.8,18.4,49.6,20.2,49.6,22.3z M18,16c0-7.7,6.3-14,14-14s14,6.3,14,14v0.4c-0.1,0-0.2,0-0.3,0H44v-0.2c0-6.6-5.4-12-12-12
			s-12,5.4-12,12v0.2h-2V16z M20,26.1h-0.7H18c-0.6,0-1.2-0.2-1.7-0.4c-1.3-0.6-2.2-1.9-2.2-3.4c0-2.1,1.7-3.9,3.9-3.9h2V26.1z
			 M24,46.2V42l0.8-0.3l5.1,4.5H24z M26,40v-1.9c0.3,0.2,0.6,0.5,0.8,0.7c1,0.8,2.2,1.3,3.5,1.3h3c0,0,0,0,0.1,0
			c1.3,0,2.6-0.4,3.5-1.3l0.6-0.5c0.1-0.1,0.3-0.2,0.4-0.3v2l-6,5.3L26,40z M40,46.2h-6l5.2-4.5L40,42V46.2z"/>
		<rect x="12" y="58.1" class="st0" width="2" height="6"/>
		<rect x="50" y="58.1" class="st0" width="2" height="6"/>
	</g>
</g>
</svg>
