<?xml version="1.0" encoding="utf-8"?>
<!-- Generator: Adobe Illustrator 21.0.0, SVG Export Plug-In . SVG Version: 6.00 Build 0)  -->
<svg version="1.1" id="Layer_1" xmlns="http://www.w3.org/2000/svg" xmlns:xlink="http://www.w3.org/1999/xlink" x="0px" y="0px"
	 viewBox="0 0 512 512" style="enable-background:new 0 0 512 512;" xml:space="preserve">
<style type="text/css">
	.st0{fill:#FFFFFF;}
	.st1{fill:#FFFFFF;stroke:#FFFFFF;stroke-width:5;stroke-miterlimit:10;}
</style>
<title>cs</title>
<path class="st0" d="M408.6,314.8c43.6,0,78.9,35.3,78.9,78.9s-35.3,78.9-78.9,78.9s-78.9-35.3-78.9-78.9S365,314.9,408.6,314.8
	 M408.6,302.4c-50.5,0-91.4,40.9-91.4,91.4s40.9,91.4,91.4,91.4s91.4-40.9,91.4-91.4S459,302.4,408.6,302.4L408.6,302.4z"/>
<polygon class="st0" points="375.2,423.1 363.6,411.8 384.1,391.5 363.6,371.1 375.2,359.7 407,391.5 "/>
<polygon class="st0" points="461.4,408 461.4,424.2 412.6,424.2 412.6,408.1 "/>
<rect x="209.1" y="191.7" class="st1" width="34" height="6.6"/>
<rect x="252.7" y="247" class="st1" width="37.1" height="6.6"/>
<rect x="252.7" y="274.8" class="st1" width="37.1" height="6.6"/>
<rect x="252.7" y="357.9" class="st1" width="37.1" height="6.6"/>
<rect x="252.7" y="385.6" class="st1" width="37.1" height="6.6"/>
<rect x="209.1" y="219.3" class="st1" width="80.7" height="6.6"/>
<rect x="209.1" y="302.7" class="st1" width="34" height="6.6"/>
<rect x="209.1" y="330.1" class="st1" width="80.7" height="6.6"/>
<rect x="317.8" y="247" class="st1" width="37.1" height="6.6"/>
<rect x="317.8" y="274.8" class="st1" width="80.7" height="6.6"/>
<rect x="317.8" y="219.3" class="st1" width="37.1" height="6.6"/>
<rect x="195.5" y="127.5" class="st1" width="6.6" height="6.6"/>
<rect x="227.8" y="127.5" class="st1" width="6.6" height="6.6"/>
<rect x="260.1" y="127.5" class="st1" width="6.6" height="6.6"/>
<path class="st1" d="M444.4,151.8v-48.4H163.2V432h126.7v-6.6H169.9V163.1l0,0v-5h268v5l0,0v117.7h6.6L444.4,151.8L444.4,151.8z
	 M437.9,114.7v37.1H169.7v-42h268.2V114.7L437.9,114.7z"/>
<path class="st1" d="M87.5,423.3c-13.7,0-24.6,11-24.6,24.7c0,13.7,11,24.7,24.7,24.7s24.6-11,24.6-24.7
	C112.2,434.3,101.1,423.4,87.5,423.3L87.5,423.3z M87.5,466.1c-9.9,0-18.1-8.1-18.1-18.1c0-9.9,8.1-18.1,18.1-18.1
	s18.1,8.1,18.1,18.1C105.5,457.9,97.4,466.1,87.5,466.1z"/>
<rect x="129.8" y="423.3" class="st1" width="6.6" height="49.1"/>
<path class="st1" d="M387.4,76.2c13.7,0,24.7-11,24.7-24.7s-11-24.6-24.7-24.6c-13.7,0-24.7,11-24.7,24.7
	C362.7,65.1,373.7,76.2,387.4,76.2C387.2,76.2,387.4,76.2,387.4,76.2z M387.4,33.5c9.9,0,18.1,8.1,18.1,18.1s-8.1,18.1-18.1,18.1
	c-9.9,0-18.1-8.1-18.1-18.1l0,0C369.3,41.5,377.4,33.5,387.4,33.5z"/>
<rect x="338.5" y="26.9" class="st1" width="6.6" height="49.1"/>
<rect x="314.2" y="26.9" class="st1" width="6.6" height="49.1"/>
<path class="st1" d="M121.4,240.5c2.2,2.2,3.5,5.2,3.5,8.4v60.9c0,6.6-5.4,11.9-11.9,11.9l0,0h-3.3v6.6h3.3c5,0,9.7-1.9,13.1-5.4
	c3.5-3.5,5.4-8.1,5.4-13.1V249c0-5-1.9-9.7-5.4-13.1c-3.5-3.5-8.1-5.4-13.1-5.4h-3.3v6.6h3.3C116.2,237,119.1,238.3,121.4,240.5z"/>
<path class="st1" d="M18.7,310v-61c0-3.2,1.2-6.2,3.5-8.4c2.2-2.2,5.2-3.6,8.4-3.5h3.3v-6.6h-3.3c-5,0-9.7,1.9-13.1,5.4
	c-3.5,3.5-5.4,8.1-5.4,13.1v61c0,5,1.9,9.7,5.4,13.1c3.5,3.5,8.1,5.4,13.1,5.4h3.3V322h-3.3c-3.2,0-6.2-1.2-8.4-3.5
	C20,316.3,18.7,313.3,18.7,310z"/>
<rect x="37.9" y="276.2" class="st1" width="6.6" height="6.6"/>
<rect x="67" y="276.2" class="st1" width="6.6" height="6.6"/>
<rect x="96" y="276.2" class="st1" width="6.6" height="6.6"/>
</svg>
