<?xml version="1.0" encoding="utf-8"?>
<!-- Generator: Adobe Illustrator 21.0.0, SVG Export Plug-In . SVG Version: 6.00 Build 0)  -->
<svg version="1.1" id="Layer_1" xmlns="http://www.w3.org/2000/svg" xmlns:xlink="http://www.w3.org/1999/xlink" x="0px" y="0px"
	 viewBox="0 0 458 458" style="enable-background:new 0 0 458 458;" xml:space="preserve">
<style type="text/css">
	.st0{fill:none;stroke:#F37422;stroke-width:14;stroke-linecap:round;stroke-linejoin:round;stroke-miterlimit:10;}
	.st1{fill:#F37422;stroke:#F37422;stroke-width:2;stroke-miterlimit:10;}
</style>
<g id="Layer_2">
</g>
<g>
	<path class="st0" d="M60,116.4c-7.1,4.1-13,14.3-13,22.5v180.2c0,8.3,5.8,18.4,13,22.5l156,90.1c7.1,4.1,18.8,4.1,26,0l156-90.1
		c7.1-4.1,13-14.3,13-22.5V138.9c0-8.3-5.8-18.4-13-22.5L242,26.3c-7.1-4.1-18.8-4.1-26,0L60,116.4z"/>
</g>
<g id="g4524" transform="matrix(0.98576358,0,0,0.98576358,-3215.9336,-569.9921)">
	<path id="path4522" class="st1" d="M3415.8,722.4c-2.9,0-5.3,2.4-5.3,5.3v39c0,2.9,2.4,5.3,5.3,5.3h157.8c2.9,0,5.3-2.4,5.3-5.3
		v-39c0-2.9-2.4-5.3-5.3-5.3H3415.8L3415.8,722.4z M3429.2,731h5.1c1.5,0,2.8,1.3,2.8,2.8v26.5c0,1.5-1.3,2.8-2.8,2.8h-5.1
		c-1.5,0-2.8-1.3-2.8-2.8v-26.5C3426.3,732.3,3427.6,731,3429.2,731z M3449.6,731h5.1c1.5,0,2.8,1.3,2.8,2.8v26.5
		c0,1.5-1.3,2.8-2.8,2.8h-5.1c-1.5,0-2.8-1.3-2.8-2.8v-26.5C3446.9,732.3,3448.1,731,3449.6,731z M3470.2,731h5.1
		c1.5,0,2.8,1.3,2.8,2.8v26.5c0,1.5-1.3,2.8-2.8,2.8h-5.1c-1.5,0-2.8-1.3-2.8-2.8v-26.5C3467.4,732.3,3468.7,731,3470.2,731z
		 M3490.9,731h5.1c1.5,0,2.8,1.3,2.8,2.8v26.5c0,1.5-1.3,2.8-2.8,2.8h-5.1c-1.5,0-2.8-1.3-2.8-2.8v-26.5
		C3488,732.3,3489.3,731,3490.9,731z M3511.4,731h5.1c1.5,0,2.8,1.3,2.8,2.8v26.5c0,1.5-1.3,2.8-2.8,2.8h-5.1
		c-1.5,0-2.8-1.3-2.8-2.8v-26.5C3508.6,732.3,3509.9,731,3511.4,731z M3553.9,738.9c4.6,0,8.2,3.7,8.2,8.2c0,4.6-3.7,8.2-8.2,8.2
		s-8.2-3.7-8.2-8.2C3545.6,742.5,3549.3,738.9,3553.9,738.9L3553.9,738.9z"/>
</g>
<g>
	<g>
		<path class="st1" d="M306.8,242.3h-10.3l-0.3-1.7c-0.7-4.5-5-8.3-9.4-8.3c-6.1,0-25.2-0.1-31.3-0.1h-21.2v10H224v-10.1h-52.8
			c-5.9,0-9.8,3.4-10.7,9.2c0,0.3-0.1,0.5-0.2,0.8h-10.5l0.1-0.4c0.1-0.6,0.3-1.3,0.3-1.9c0.3-1.4,0.5-2.9,1-4.4
			c2.8-8.2,10.6-13.7,19.3-13.7h53.6v-10.5h10v10.5h51.7c10.2,0,18.5,6.7,20.5,16.7c0.2,0.8,0.2,1.6,0.3,2.4c0,0.3,0,0.7,0.1,1.1
			L306.8,242.3z"/>
		<path class="st1" d="M181.8,317.8c-0.4-1.1-1.2-2.5-2.8-3.7c-1-0.7-2.2-1.4-3.6-1.8c-1.5-0.5-3-1.1-4.6-1.7
			c-2.2-0.8-4.9-1.4-6.7-2.8c-0.8-0.7-1.5-1.4-2.2-2.1c-1-1-1.3-2.3-0.8-3.7c0-0.1,0.1-0.3,0.2-0.4c0.6-1.3,1.6-2.4,2.2-3.7
			c0.3-0.8,0.6-2.5,1.4-3c1.4-0.7,2-2.1,2.2-3.6c0.1-0.7,0.2-1.4,0.3-2c0-0.3,0-0.7,0-1V288c0-0.4-0.1-1-0.4-1.4
			c-0.1-0.1-0.1-0.1-0.2-0.2c-0.2-0.3-0.5-0.6-0.8-0.7s-0.6,0-0.8-0.2c0-0.7,0.1-1.4,0.3-2.1c0.1-0.5,0.2-0.9,0.2-1.4
			c0-0.3,0-0.7,0.1-1c0.1-0.7,0.2-1.4,0.2-2.1c0.1-3.6-1.6-6.6-4.9-8c-0.3-0.1-0.6-0.2-0.9-0.4l-0.1-0.1c-0.1-0.1-0.3-0.2-0.4-0.2
			c-1.5-0.7-3.2-0.8-4.8-0.9c-0.5,0-1,0-1.4,0c0,0,0,0-0.1,0c-0.5,0-1,0-1.5,0c-0.1,0-0.3,0-0.4,0c-1.5,0.1-3.1,0.2-4.4,0.9
			c-0.1,0.1-0.3,0.1-0.4,0.2c-0.6,0.3-1,0.8-1.4,1.4s-0.5,0.9-1,1.3s-0.9,0.7-1.4,0.9c-0.5,0.2-0.9,0.5-1.1,1
			c-0.5,0.9-0.7,2-0.7,3.1l0,0c-0.1,1.3,0,2.6,0.1,4c0,0.5,0.1,0.9,0.2,1.4c0.1,0.7,0.3,1.4,0.3,2.1l0,0c0,0,0,0-0.1,0
			c-0.2,0-0.5,0-0.7,0.1c-0.4,0.1-0.7,0.4-0.8,0.7c-0.1,0.1-0.1,0.1-0.2,0.2c-0.3,0.4-0.4,0.9-0.4,1.4v0.1c0,0.3,0,0.7,0,1
			c0,0.7,0.2,1.4,0.3,2c0.2,1.5,0.9,2.9,2.2,3.6c0.8,0.4,1.1,2.2,1.4,3c0.5,1.4,1.6,2.4,2.2,3.7c0.1,0.1,0.1,0.3,0.2,0.4
			c0.5,1.4,0.2,2.6-0.8,3.7c-0.7,0.7-1.4,1.5-2.2,2.1c-1.8,1.5-4.5,2-6.7,2.8c-1.5,0.6-3,1.2-4.6,1.7c-1.4,0.5-2.6,1.1-3.6,1.8
			c-1.6,1.2-2.4,2.6-2.8,3.7c-0.4,1.2-0.3,2-0.3,2.1v7.5c0.1,0.9,0.3,1.7,0.6,2.4c0.2,0.4,0.3,0.7,0.6,1.1c1.3,2.1,3.4,2.8,5,2.8
			h22.8H176c1.6,0,3.7-0.8,5-2.8c0.2-0.3,0.4-0.7,0.6-1.1c0.3-0.7,0.5-1.5,0.6-2.4v-7.5C182.1,319.8,182.2,318.9,181.8,317.8z"/>
		<path class="st1" d="M257.7,317.8c-0.4-1.1-1.2-2.5-2.8-3.7c-1-0.7-2.2-1.4-3.6-1.8c-1.5-0.5-3-1.1-4.6-1.7
			c-2.2-0.8-4.9-1.4-6.7-2.8c-0.8-0.7-1.5-1.4-2.2-2.1c-1-1-1.3-2.3-0.8-3.7c0-0.1,0.1-0.3,0.2-0.4c0.6-1.3,1.6-2.4,2.2-3.7
			c0.3-0.8,0.6-2.5,1.4-3c1.4-0.7,2-2.1,2.2-3.6c0.1-0.7,0.2-1.4,0.3-2c0-0.3,0-0.7,0-1V288c0-0.4-0.1-1-0.4-1.4
			c-0.1-0.1-0.1-0.1-0.2-0.2c-0.2-0.3-0.5-0.6-0.8-0.7s-0.6,0-0.8-0.2c0-0.7,0.1-1.4,0.3-2.1c0.1-0.5,0.2-0.9,0.2-1.4
			c0-0.3,0-0.7,0.1-1c0.1-0.7,0.2-1.4,0.2-2.1c0.1-3.6-1.6-6.6-4.9-8c-0.3-0.1-0.6-0.2-0.9-0.4l-0.1-0.1c-0.1-0.1-0.3-0.2-0.4-0.2
			c-1.5-0.7-3.2-0.8-4.8-0.9c-0.5,0-1,0-1.4,0c0,0,0,0-0.1,0c-0.5,0-1,0-1.5,0c-0.1,0-0.3,0-0.4,0c-1.5,0.1-3.1,0.2-4.4,0.9
			c-0.1,0.1-0.3,0.1-0.4,0.2c-0.6,0.3-1,0.8-1.4,1.4s-0.5,0.9-1,1.3s-0.9,0.7-1.4,0.9c-0.5,0.2-0.9,0.5-1.1,1
			c-0.5,0.9-0.7,2-0.7,3.1l0,0c-0.1,1.3,0,2.6,0.1,4c0,0.5,0.1,0.9,0.2,1.4c0.1,0.7,0.3,1.4,0.3,2.1l0,0c0,0,0,0-0.1,0
			c-0.2,0-0.5,0-0.7,0.1c-0.4,0.1-0.7,0.4-0.8,0.7c-0.1,0.1-0.1,0.1-0.2,0.2c-0.3,0.4-0.4,0.9-0.4,1.4v0.1c0,0.3,0,0.7,0,1
			c0,0.7,0.2,1.4,0.3,2c0.2,1.5,0.9,2.9,2.2,3.6c0.8,0.4,1.1,2.2,1.4,3c0.5,1.4,1.6,2.4,2.2,3.7c0.1,0.1,0.1,0.3,0.2,0.4
			c0.5,1.4,0.2,2.6-0.8,3.7c-0.7,0.7-1.4,1.5-2.2,2.1c-1.8,1.5-4.5,2-6.7,2.8c-1.5,0.6-3,1.2-4.6,1.7c-1.4,0.5-2.6,1.1-3.6,1.8
			c-1.6,1.2-2.4,2.6-2.8,3.7c-0.4,1.2-0.3,2-0.3,2.1v7.5c0.1,0.9,0.3,1.7,0.6,2.4c0.2,0.4,0.3,0.7,0.6,1.1c1.3,2.1,3.4,2.8,5,2.8
			H229h22.8c1.6,0,3.7-0.8,5-2.8c0.2-0.3,0.4-0.7,0.6-1.1c0.3-0.7,0.5-1.5,0.6-2.4v-7.5C258,319.8,258,318.9,257.7,317.8z"/>
		<path class="st1" d="M333.4,317.8c-0.4-1.1-1.2-2.5-2.8-3.7c-1-0.7-2.2-1.4-3.6-1.8c-1.5-0.5-3-1.1-4.6-1.7
			c-2.2-0.8-4.9-1.4-6.7-2.8c-0.8-0.7-1.5-1.4-2.2-2.1c-1-1-1.3-2.3-0.8-3.7c0-0.1,0.1-0.3,0.2-0.4c0.6-1.3,1.6-2.4,2.2-3.7
			c0.3-0.8,0.6-2.5,1.4-3c1.4-0.7,2-2.1,2.2-3.6c0.1-0.7,0.2-1.4,0.3-2c0-0.3,0-0.7,0-1V288c0-0.4-0.1-1-0.4-1.4
			c-0.1-0.1-0.1-0.1-0.2-0.2c-0.2-0.3-0.5-0.6-0.8-0.7s-0.6,0-0.8-0.2c0-0.7,0.1-1.4,0.3-2.1c0.1-0.5,0.2-0.9,0.2-1.4
			c0-0.3,0-0.7,0.1-1c0.1-0.7,0.2-1.4,0.2-2.1c0.1-3.6-1.6-6.6-4.9-8c-0.3-0.1-0.6-0.2-0.9-0.4l-0.1-0.1c-0.1-0.1-0.3-0.2-0.4-0.2
			c-1.5-0.7-3.2-0.8-4.8-0.9c-0.5,0-1,0-1.4,0c0,0,0,0-0.1,0c-0.5,0-1,0-1.5,0c-0.1,0-0.3,0-0.4,0c-1.5,0.1-3.1,0.2-4.4,0.9
			c-0.1,0.1-0.3,0.1-0.4,0.2c-0.6,0.3-1,0.8-1.4,1.4s-0.5,0.9-1,1.3s-0.9,0.7-1.4,0.9c-0.5,0.2-0.9,0.5-1.1,1
			c-0.5,0.9-0.7,2-0.7,3.1l0,0c-0.1,1.3,0,2.6,0.1,4c0,0.5,0.1,0.9,0.2,1.4c0.1,0.7,0.3,1.4,0.3,2.1l0,0c0,0,0,0-0.1,0
			c-0.2,0-0.5,0-0.7,0.1c-0.4,0.1-0.7,0.4-0.8,0.7c-0.1,0.1-0.1,0.1-0.2,0.2c-0.3,0.4-0.4,0.9-0.4,1.4v0.1c0,0.3,0,0.7,0,1
			c0,0.7,0.2,1.4,0.3,2c0.2,1.5,0.9,2.9,2.2,3.6c0.8,0.4,1.1,2.2,1.4,3c0.5,1.4,1.6,2.4,2.2,3.7c0.1,0.1,0.1,0.3,0.2,0.4
			c0.5,1.4,0.2,2.6-0.8,3.7c-0.7,0.7-1.4,1.5-2.2,2.1c-1.8,1.5-4.5,2-6.7,2.8c-1.5,0.6-3,1.2-4.6,1.7c-1.4,0.5-2.6,1.1-3.6,1.8
			c-1.6,1.2-2.4,2.6-2.8,3.7c-0.4,1.2-0.3,2-0.3,2.1v7.5c0.1,0.9,0.3,1.7,0.6,2.4c0.2,0.4,0.3,0.7,0.6,1.1c1.3,2.1,3.4,2.8,5,2.8
			h22.8h22.8c1.6,0,3.7-0.8,5-2.8c0.2-0.3,0.4-0.7,0.6-1.1c0.3-0.7,0.5-1.5,0.6-2.4v-7.5C333.7,319.8,333.8,318.9,333.4,317.8z"/>
	</g>
</g>
</svg>
