<?xml version="1.0" encoding="utf-8"?>
<!-- Generator: Adobe Illustrator 21.0.0, SVG Export Plug-In . SVG Version: 6.00 Build 0)  -->
<svg version="1.1" id="Layer_1" xmlns="http://www.w3.org/2000/svg" xmlns:xlink="http://www.w3.org/1999/xlink" x="0px" y="0px"
	 viewBox="0 0 458 458" style="enable-background:new 0 0 458 458;" xml:space="preserve">
<style type="text/css">
	.st0{fill:#FFFFFF;}
	.st1{fill:none;stroke:#FFFFFF;stroke-width:14;stroke-linecap:round;stroke-linejoin:round;stroke-miterlimit:10;}
</style>
<g id="Layer_2">
</g>
<g>
	<polygon class="st0" points="134.9,223.8 133.1,223.8 133.1,225.7 133.1,282.8 133.1,284.4 134.7,284.7 204.2,294.2 206.4,294.5 
		206.4,292.4 206.4,225.7 206.4,223.8 204.4,223.8 	"/>
	<path class="st0" d="M232,278.2c1.3-20.9,18.7-37.5,39.9-37.5c12.2,0,23.7,5.6,31.2,15c2.5-0.7,5-1,7.7-1v-29v-1.9h-1.9h-92.8h-1.8
		v1.9v68.1v1.7l1.6,0.2l3.2,0.5C220.9,288.8,225.6,282.4,232,278.2z"/>
	<polygon class="st0" points="308.8,216 310.7,216 310.7,214.1 310.7,132.9 310.7,130.7 308.6,131 215.8,144.5 214.2,144.8 
		214.2,146.4 214.2,214.1 214.2,216 216,216 	"/>
	<polygon class="st0" points="134.7,155.7 133,155.8 133,157.5 133.1,214.1 133.1,216 134.9,216 204.4,216 206.4,216 206.4,214.1 
		206.4,148.1 206.4,145.9 204.2,146.2 	"/>
	<path class="st0" d="M336.5,282.4c-2.4-11.6-12.7-20.3-25.1-20.3c-0.2,0-0.5,0-0.7,0c-3.8,0.1-7.3,1-10.5,2.6
		c-5.6-9.9-16.2-16.5-28.4-16.5c-18,0-32.6,14.6-32.6,32.6c0,0.6,0,1.3,0.1,1.9c-6.2,2.7-11,8-13,14.6c-0.7,2.2-1,4.4-1,6.8
		c0,12.9,10.4,23.3,23.3,23.3h79.2c12.9,0,23.3-10.5,23.3-23.3C351,294.2,345,285.9,336.5,282.4z"/>
</g>
<g>
	<path class="st1" d="M60,116.4c-7.1,4.1-13,14.3-13,22.5v180.2c0,8.3,5.8,18.4,13,22.5l156,90.1c7.1,4.1,18.8,4.1,26,0l156-90.1
		c7.1-4.1,13-14.3,13-22.5V138.9c0-8.3-5.8-18.4-13-22.5L242,26.3c-7.1-4.1-18.8-4.1-26,0L60,116.4z"/>
</g>
</svg>
