<?xml version="1.0" encoding="utf-8"?>
<!-- Generator: Adobe Illustrator 21.0.0, SVG Export Plug-In . SVG Version: 6.00 Build 0)  -->
<svg version="1.1" id="Layer_1" xmlns="http://www.w3.org/2000/svg" xmlns:xlink="http://www.w3.org/1999/xlink" x="0px" y="0px"
	 viewBox="0 0 655 475" style="enable-background:new 0 0 655 475;" xml:space="preserve">
<style type="text/css">
	.st0{fill:url(#SVGID_1_);}
	.st1{fill:url(#SVGID_2_);}
	.st2{fill:url(#SVGID_3_);}
	.st3{fill:url(#SVGID_4_);}
	.st4{fill:url(#SVGID_5_);}
	
		.st5{fill:none;stroke:url(#SVGID_6_);stroke-width:6;stroke-linecap:round;stroke-linejoin:round;stroke-miterlimit:10;stroke-dasharray:12,20;}
	.st6{fill:#FFFFFF;}
</style>
<g>
	<linearGradient id="SVGID_1_" gradientUnits="userSpaceOnUse" x1="326.5" y1="34.6457" x2="326.5" y2="439.2543">
		<stop  offset="0" style="stop-color:#4AC9ED"/>
		<stop  offset="1" style="stop-color:#3C76F7"/>
	</linearGradient>
	<path class="st0" d="M159.2,127.4c-6.1,3.5-11.2,12.4-11.2,19.5V327c0,7.2,5,15.9,11.2,19.5l156,90.1c6.1,3.5,16.3,3.5,22.5,0
		l156-90.1c6.1-3.5,11.2-12.4,11.2-19.5V146.9c0-7.2-5-15.9-11.2-19.5l-156-90.1c-6.1-3.5-16.3-3.5-22.5,0L159.2,127.4z"/>
</g>
<g>
	
		<linearGradient id="SVGID_2_" gradientUnits="userSpaceOnUse" x1="595.35" y1="459.525" x2="595.35" y2="430.527" gradientTransform="matrix(1 0 0 -1 0 476)">
		<stop  offset="0" style="stop-color:#4AC9ED"/>
		<stop  offset="1" style="stop-color:#3C76F7"/>
	</linearGradient>
	<path class="st1" d="M606.7,22.4c1,0.6,1.7,1.9,1.7,3v11.1c0,1.1-0.8,2.4-1.7,3l-9.6,5.5c-1,0.5-2.5,0.5-3.5,0l-9.6-5.5
		c-1-0.5-1.7-1.9-1.7-3V25.4c0-1.1,0.8-2.4,1.7-3l9.6-5.5c1-0.6,2.5-0.6,3.5,0L606.7,22.4z"/>
</g>
<g>
	
		<linearGradient id="SVGID_3_" gradientUnits="userSpaceOnUse" x1="590.3" y1="408.85" x2="590.3" y2="333.5351" gradientTransform="matrix(1 0 0 -1 0 476)">
		<stop  offset="0" style="stop-color:#4AC9ED"/>
		<stop  offset="1" style="stop-color:#3C76F7"/>
	</linearGradient>
	<path class="st2" d="M560.8,126.9c-2.4-1.4-4.3-4.8-4.3-7.5V90.3c0-2.8,1.9-6.1,4.3-7.5L586,68.2c2.4-1.4,6.3-1.4,8.7,0l25.2,14.6
		c2.4,1.4,4.3,4.8,4.3,7.5v29.1c0,2.8-1.9,6.1-4.3,7.5l-25.2,14.6c-2.4,1.4-6.3,1.4-8.7,0L560.8,126.9z"/>
</g>
<g>
	
		<linearGradient id="SVGID_4_" gradientUnits="userSpaceOnUse" x1="526.9" y1="456.75" x2="526.9" y2="404.5145" gradientTransform="matrix(1 0 0 -1 0 476)">
		<stop  offset="0" style="stop-color:#4AC9ED"/>
		<stop  offset="1" style="stop-color:#3C76F7"/>
	</linearGradient>
	<path class="st3" d="M507.4,61.7c-2.4-1.4-4.3-4.8-4.3-7.5V36.6c0-2.7,1.9-6.1,4.3-7.5l15.2-8.8c2.4-1.4,6.3-1.4,8.7,0l15.2,8.8
		c2.4,1.4,4.3,4.8,4.3,7.5v17.6c0,2.8-1.9,6.1-4.3,7.5l-15.2,8.8c-2.4,1.4-6.3,1.4-8.7,0L507.4,61.7z"/>
</g>
<g>
	
		<linearGradient id="SVGID_5_" gradientUnits="userSpaceOnUse" x1="583.8" y1="313.8011" x2="583.8" y2="284.8011" gradientTransform="matrix(1 0 0 -1 0 476)">
		<stop  offset="0" style="stop-color:#4AC9ED"/>
		<stop  offset="1" style="stop-color:#3C76F7"/>
	</linearGradient>
	<path class="st4" d="M572.4,185.2c-1-0.6-1.7-1.9-1.7-3v-11.1c0-1.1,0.8-2.4,1.7-3l9.6-5.5c1-0.6,2.5-0.6,3.5,0l9.6,5.5
		c1,0.6,1.7,1.9,1.7,3v11.1c0,1.1-0.8,2.4-1.7,3l-9.6,5.5c-1,0.6-2.5,0.6-3.5,0L572.4,185.2z"/>
</g>
<g>
	
		<linearGradient id="SVGID_6_" gradientUnits="userSpaceOnUse" x1="326.5" y1="475.975" x2="326.5" y2="2.125" gradientTransform="matrix(1 0 0 -1 0 476)">
		<stop  offset="0" style="stop-color:#4AC9ED"/>
		<stop  offset="1" style="stop-color:#3C76F7"/>
	</linearGradient>
	<path class="st5" d="M133.1,110.3c-7.1,4.1-13,14.3-13,22.5v208.3c0,8.3,5.8,18.4,13,22.5l180.4,104.2c7.1,4.1,18.8,4.1,26,0
		l180.4-104.2c7.1-4.1,13-14.3,13-22.5V132.8c0-8.3-5.8-18.4-13-22.5L339.5,6.1c-7.1-4.1-18.8-4.1-26,0L133.1,110.3z"/>
</g>
<g id="Layer_2">
</g>
<path id="path14-1_1_" class="st6" d="M401.6,226.1c0.2,6.4-1.9,9.6-3.8,15.2l-3.5,1.7c-2.8,5.5,0.2,3.5-1.8,7.9
	c-4.4,3.9-13.4,12.3-16.3,13.1c-2.1,0,1.5-2.5,1.9-3.4c-6,4.1-4.7,6.1-13.9,8.6l-0.2-0.6c-22.3,10.5-53.3-10.3-53-38.8
	c-0.2,1.8-0.7,1.4-1.1,2c-1.1-14.6,6.8-29.3,20.1-35.3c13.1-6.4,28.3-3.8,37.6,4.8c-5.1-6.8-15.3-13.9-27.4-13.2
	c-11.8,0.2-23,7.8-26.6,15.9c-6.1,3.8-6.8,14.8-9.5,16.7c-3.6,26.1,6.6,37.4,24,50.7c2.7,1.8,0.8,2.1,1.1,3.5
	c-5.7-2.7-11-6.8-15.3-11.7c2.3,3.4,4.7,6.6,8,9.2c-5.4-1.8-12.7-13.2-14.8-13.6c9.4,16.8,38,29.4,53,23.1c-7,0.2-15.8,0.1-23.6-2.7
	c-3.3-1.7-7.8-5.2-7-5.9c20.5,7.7,41.6,5.7,59.3-8.5c4.5-3.5,9.5-9.5,10.8-9.6c-2.1,3.3,0.3,1.6-1.2,4.4c4.5-7.2-1.9-2.9,4.6-12.5
	l2.5,3.4c-0.9-6,7.4-13.3,6.6-22.8c1.9-2.9,2.1,3.2,0.1,9.8c2.8-7.4,0.8-8.6,1.5-14.8c0.8,2,1.8,4.3,2.4,6.4
	c-1.8-7.2,1.9-12.1,2.8-16.2c-0.9-0.5-2.8,3.2-3.3-5.3c0.1-3.7,1-1.9,1.4-2.8c-0.7-0.5-2.6-3.3-3.7-8.7c0.8-1.2,2.3,3.3,3.4,3.5
	c-0.7-4.3-2-7.5-2-10.8c-3.3-7-1.1,0.9-3.8-2.9c-3.5-11,2.9-2.6,3.4-7.5c5.4,7.8,8.5,19.8,9.8,24.8c-1.1-6.1-2.8-11.9-5-17.7
	c1.6,0.7-2.6-12.5,2.1-3.7c-5.1-18.6-21.6-36.1-37-44.2c1.9,1.7,4.2,3.8,3.4,4.2c-7.5-4.5-6.3-4.8-7.3-6.8c-6.2-2.5-6.5,0.2-10.7,0
	c-11.6-6.2-13.9-5.5-24.7-9.4l0.5,2.3c-7.8-2.6-9,1-17.4,0c-0.5-0.3,2.7-1.5,5.3-1.8c-7.4,1-7.1-1.5-14.4,0.2
	c1.8-1.2,3.7-2.1,5.6-3.2c-6.1,0.3-14.5,3.5-11.9,0.7c-9.9,4.4-27.6,10.7-37.4,19.9l-0.3-2c-4.5,5.4-19.7,16.2-21,23.3l-1.2,0.2
	c-2.4,3.9-3.8,8.6-5.7,12.6c-3,5.3-4.5,2-4.1,2.8c-6.1,12.3-9.1,22.6-11.7,31.1c1.8,2.8,0,16.7,0.8,27.8
	c-3,55.1,38.6,108.5,84.2,120.8c6.6,2.4,16.6,2.3,25,2.6c-9.9-2.8-11.3-1.5-21-4.8c-7-3.3-8.6-7.1-13.5-11.4l1.9,3.5
	c-9.7-3.5-5.6-4.3-13.5-6.8l2.1-2.7c-3.2-0.2-8.3-5.3-9.8-8.1l-3.5,0.1c-4.2-5.1-6.3-8.8-6.2-11.6l-1.1,2c-1.2-2.1-15.2-19.2-8-15.2
	c-1.4-1.2-3.2-2-5.1-5.5l1.5-1.7c-3.5-4.5-6.4-10.3-6.2-12.2c1.9,2.5,3.2,2.9,4.4,3.4c-8.8-21.9-9.4-1.2-16-22.3l1.5-0.1
	c-1.1-1.7-1.7-3.4-2.6-5.2l0.6-6.1c-6.3-7.3-1.8-31.2-0.9-44.3c0.7-5.3,5.3-11,8.8-19.8l-2.1-0.3c4.2-7.2,23.6-29,32.6-27.8
	c4.4-5.5-0.9,0-1.7-1.4c9.6-9.9,12.6-7,19-8.8c7-4.2-6,1.6-2.7-1.6c12.1-3,8.6-7,24.3-8.6c1.7,0.9-3.8,1.5-5.2,2.7
	c10-5,31.8-3.8,46,2.7c16.3,7.7,34.8,30.3,35.6,51.6l0.8,0.2c-0.5,8.5,1.4,18.3-1.7,27.3L401.6,226.1"/>
</svg>
