<?xml version="1.0" encoding="utf-8"?>
<!-- Generator: Adobe Illustrator 21.0.0, SVG Export Plug-In . SVG Version: 6.00 Build 0)  -->
<svg version="1.1"
	 id="Layer_1" xmlns:cc="http://creativecommons.org/ns#" xmlns:dc="http://purl.org/dc/elements/1.1/" xmlns:inkscape="http://www.inkscape.org/namespaces/inkscape" xmlns:rdf="http://www.w3.org/1999/02/22-rdf-syntax-ns#" xmlns:sodipodi="http://sodipodi.sourceforge.net/DTD/sodipodi-0.dtd" xmlns:svg="http://www.w3.org/2000/svg"
	 xmlns="http://www.w3.org/2000/svg" xmlns:xlink="http://www.w3.org/1999/xlink" x="0px" y="0px" viewBox="0 0 512 512"
	 style="enable-background:new 0 0 512 512;" xml:space="preserve">
<style type="text/css">
	.st0{fill:#FFFFFF;}
	.st1{fill:#F47421;}
</style>
<g id="g6920" transform="translate(-353.24162,-137.45047)">
	<path id="path5072" class="st0" d="M865.2,393.5c0,141.4-114.6,256-256,256s-256-114.6-256-256s114.6-256,256-256
		C750.6,137.5,865.2,252.1,865.2,393.5L865.2,393.5z"/>
	<path id="circle-of-friends" class="st1" d="M668.4,296.4c13.1,7.6,29.8,3.1,37.4-10c7.6-13.1,3.1-29.8-10-37.4
		c-13.1-7.6-29.8-3.1-37.4,10C650.8,272.1,655.3,288.8,668.4,296.4z M612.3,473.4c-12,0-23.4-2.7-33.7-7.4l-19,34.1
		c15.9,7.9,33.8,12.3,52.7,12.3c11,0,21.7-1.5,31.8-4.3c1.8-11,8.3-21.1,18.7-27.1c10.4-6,22.4-6.6,32.8-2.7
		c20.2-19.9,33.4-47,35.3-77.1l-39-0.6C688.4,441.4,654.1,473.4,612.3,473.4L612.3,473.4z M612.3,313.5c41.8,0,76.1,32,79.6,72.9
		l39-0.6c-1.9-30.2-15.1-57.2-35.3-77.1c-10.4,3.9-22.4,3.3-32.8-2.7c-10.4-6-16.9-16.1-18.7-27.1c-10.1-2.8-20.8-4.3-31.8-4.3
		c-18.9,0-36.8,4.4-52.7,12.3l19,34.1C588.9,316.1,600.3,313.5,612.3,313.5L612.3,313.5z M532.3,393.5c0-27.1,13.4-51,34-65.4
		l-20-33.5c-24,16-41.8,40.5-49.2,69.1c8.6,7,14.2,17.8,14.2,29.8c0,12-5.5,22.8-14.2,29.8c7.4,28.7,25.2,53.1,49.2,69.1l20-33.5
		C545.8,444.4,532.3,420.5,532.3,393.5L532.3,393.5z M668.4,490.5c-13.1,7.6-17.6,24.3-10,37.4c7.6,13.1,24.3,17.6,37.4,10
		c13.1-7.6,17.6-24.3,10-37.4C698.2,487.4,681.4,483,668.4,490.5z M472.9,366.1c-15.1,0-27.4,12.3-27.4,27.4
		c0,15.1,12.3,27.4,27.4,27.4c15.1,0,27.4-12.3,27.4-27.4C500.3,378.3,488,366.1,472.9,366.1"/>
</g>
</svg>
