<?xml version="1.0" encoding="utf-8"?>
<!-- Generator: Adobe Illustrator 21.0.0, SVG Export Plug-In . SVG Version: 6.00 Build 0)  -->
<svg version="1.1"
	 id="Layer_1" xmlns:cc="http://creativecommons.org/ns#" xmlns:dc="http://purl.org/dc/elements/1.1/" xmlns:inkscape="http://www.inkscape.org/namespaces/inkscape" xmlns:rdf="http://www.w3.org/1999/02/22-rdf-syntax-ns#" xmlns:sodipodi="http://sodipodi.sourceforge.net/DTD/sodipodi-0.dtd" xmlns:svg="http://www.w3.org/2000/svg"
	 xmlns="http://www.w3.org/2000/svg" xmlns:xlink="http://www.w3.org/1999/xlink" x="0px" y="0px" viewBox="0 0 512 512"
	 style="enable-background:new 0 0 512 512;" xml:space="preserve">
<style type="text/css">
	.st0{fill:#FFFFFF;}
	.st1{fill:#00A1F1;}
</style>
<g id="g4492" transform="translate(136.1786,108.25001)">
	<path id="path5022" class="st0" d="M375.8,147.7c0,141.4-114.6,256-256,256s-256-114.6-256-256s114.6-256,256-256
		C261.2-108.3,375.8,6.4,375.8,147.7L375.8,147.7z"/>
	<g id="g4390" transform="matrix(1.192917,0,0,1.192917,-2136.5766,-1759.935)">
		<polygon id="polygon15467" class="st1" points="1885.6,1593.3 1885.6,1520 1985.4,1505.3 1985.4,1593.3 		"/>
		<polygon id="polygon15469" class="st1" points="1797.6,1593.3 1797.6,1532.9 1873.9,1521.7 1873.9,1593.3 		"/>
		<polygon id="polygon15471" class="st1" points="1885.6,1605.1 1885.6,1678.4 1985.4,1693.1 1985.4,1605.1 		"/>
		<polygon id="polygon15473" class="st1" points="1797.6,1605.1 1797.6,1665.5 1873.9,1676.6 1873.9,1605.1 		"/>
	</g>
</g>
</svg>
