<?xml version="1.0" encoding="utf-8"?>
<!-- Generator: Adobe Illustrator 21.0.2, SVG Export Plug-In . SVG Version: 6.00 Build 0)  -->
<svg version="1.1" id="Layer_1" xmlns="http://www.w3.org/2000/svg" xmlns:xlink="http://www.w3.org/1999/xlink" x="0px" y="0px"
	 viewBox="0 0 773.9 425.2" style="enable-background:new 0 0 773.9 425.2;" xml:space="preserve">
<style type="text/css">
	.st0{fill:none;stroke:#222829;stroke-width:4;stroke-miterlimit:10;}
	.st1{fill:none;stroke:#222829;stroke-width:4;stroke-miterlimit:10;stroke-dasharray:12.33,12.33;}
	.st2{fill:none;stroke:#222829;stroke-width:4;stroke-linejoin:round;}
	.st3{fill:#F47422;}
</style>
<title>feat</title>
<line class="st0" x1="566.3" y1="332.2" x2="566.3" y2="327.2"/>
<path class="st1" d="M566.3,317V59.8c0-14.7-11.9-26.5-26.6-26.6h-3.2"/>
<line class="st0" x1="531.5" y1="33.2" x2="526.5" y2="33.2"/>
<line class="st0" x1="267.3" y1="392" x2="272.3" y2="392"/>
<path class="st1" d="M282.5,392h257.2c14.7,0,26.5-11.9,26.6-26.6v-3.2"/>
<line class="st0" x1="566.3" y1="357.1" x2="566.3" y2="352.1"/>
<line class="st0" x1="207.5" y1="93" x2="207.5" y2="98"/>
<path class="st1" d="M207.5,108.2v257.3c0,14.7,11.9,26.5,26.6,26.6h3.2"/>
<line class="st0" x1="242.4" y1="392" x2="247.4" y2="392"/>
<line class="st0" x1="506.5" y1="33.2" x2="501.6" y2="33.2"/>
<path class="st1" d="M491.3,33.2H234.1c-14.7,0-26.5,11.9-26.6,26.6v3.2"/>
<line class="st0" x1="207.5" y1="68.1" x2="207.5" y2="73"/>
<polyline class="st2" points="480,59.8 506.5,33.2 480,6.6 "/>
<polyline class="st2" points="293.9,418.6 267.3,392 293.9,365.4 "/>
<polyline class="st2" points="539.8,305.6 566.3,332.2 592.9,305.6 "/>
<polyline class="st2" points="180.9,119.6 207.5,93 234.1,119.6 "/>
<path class="st2" d="M278.2,248.8c-1.9-7.5-3-15.1-3.3-22.8l28.2-12.9c0.2-2.4,0.6-4.7,1.1-7l-23.6-20.4c2.5-7.3,5.7-14.4,9.6-21
	l30.8,4.5c1.4-1.8,3-3.6,4.6-5.2l-8.8-29.9c6-4.8,12.5-9,19.5-12.5l23.5,20.4c2.2-0.8,4.4-1.4,6.7-1.9l8.8-30
	c7.7-0.8,15.4-0.8,23.1,0l8.8,30c2.2,0.6,4.5,1.2,6.7,1.9l23.5-20.4c6.9,3.5,13.4,7.6,19.4,12.4l-8.8,29.9c1.6,1.7,3.1,3.4,4.6,5.2
	l30.8-4.5c3.9,6.6,7.2,13.7,9.6,21L469.6,206c0.4,2.3,0.8,4.6,1.1,7l28.3,12.9c-0.3,7.7-1.4,15.4-3.2,22.8l-30.8,4.4
	c-0.9,2.2-1.9,4.3-2.9,6.3l16.9,26.3c-4.4,6.3-9.5,12.1-15.1,17.4l-28.3-13c-1.9,1.3-3.9,2.6-5.9,3.7v31.2
	c-7.1,2.9-14.6,5.1-22.2,6.5l-16.9-26.3c-1.2,0.1-2.3,0.2-3.5,0.2s-2.3-0.1-3.5-0.2l-16.9,26.3c-7.6-1.4-15-3.6-22.2-6.5v-31.2
	c-2-1.2-4-2.4-5.9-3.7l-28.3,13c-5.6-5.3-10.7-11.1-15.1-17.4l16.9-26.3c-1.1-2-2.1-4.2-2.9-6.3L278.2,248.8z"/>
<circle class="st2" cx="386.9" cy="220.6" r="48.2"/>
<circle class="st3" cx="386.9" cy="220.6" r="27.4"/>
</svg>
