<?xml version="1.0" encoding="utf-8"?>
<!-- Generator: Adobe Illustrator 21.0.0, SVG Export Plug-In . SVG Version: 6.00 Build 0)  -->
<svg version="1.1" id="Layer_1" xmlns="http://www.w3.org/2000/svg" xmlns:xlink="http://www.w3.org/1999/xlink" x="0px" y="0px"
	 viewBox="0 0 510 280" style="enable-background:new 0 0 510 280;" xml:space="preserve">
<style type="text/css">
	.st0{fill:none;stroke:#000000;stroke-width:2;stroke-linejoin:round;stroke-dasharray:8;}
	.st1{fill:#F47422;}
	.st2{fill:#231F20;}
</style>
<g id="Layer_2">
</g>
<g id="Layer_2_1_">
</g>
<g id="path4518_2_">
	<g>
		<path class="st0" d="M107.5,92c-1.7,0-3,1.3-3,3v21.8c0,1.7,1.3,3,3,3h88.1c1.7,0,3-1.3,3-3V95c0-1.7-1.3-3-3-3H107.5z"/>
	</g>
</g>
<g id="path4518_7_">
	<g>
		<path class="st0" d="M107.5,57.5c-1.7,0-3,1.3-3,3v21.8c0,1.7,1.3,3,3,3h88.1c1.7,0,3-1.3,3-3V60.5c0-1.7-1.3-3-3-3H107.5z"/>
	</g>
</g>
<g id="path4518_1_">
	<g>
		<path class="st0" d="M107.5,22.9c-1.7,0-3,1.3-3,3v21.8c0,1.7,1.3,3,3,3h88.1c1.7,0,3-1.3,3-3V25.9c0-1.7-1.3-3-3-3H107.5z"/>
	</g>
</g>
<path id="path4520_1_" class="st1" d="M107.5,195.8c-1.7,0-3,1.3-3,3v21.8c0,1.7,1.3,3,3,3h88.1c1.7,0,3-1.3,3-3v-21.8
	c0-1.7-1.3-3-3-3H107.5z M114.9,200.6h2.9c0.9,0,1.6,0.7,1.6,1.6V217c0,0.9-0.7,1.6-1.6,1.6h-2.9c-0.9,0-1.6-0.7-1.6-1.6v-14.8
	C113.4,201.3,114.1,200.6,114.9,200.6z M126.5,200.6h2.9c0.9,0,1.6,0.7,1.6,1.6V217c0,0.9-0.7,1.6-1.6,1.6h-2.9
	c-0.9,0-1.6-0.7-1.6-1.6v-14.8C124.9,201.3,125.6,200.6,126.5,200.6z M138,200.6h2.9c0.9,0,1.6,0.7,1.6,1.6V217
	c0,0.9-0.7,1.6-1.6,1.6H138c-0.9,0-1.6-0.7-1.6-1.6v-14.8C136.4,201.3,137.2,200.6,138,200.6z M149.4,200.6h2.9
	c0.9,0,1.6,0.7,1.6,1.6V217c0,0.9-0.7,1.6-1.6,1.6h-2.9c-0.9,0-1.6-0.7-1.6-1.6v-14.8C147.9,201.3,148.6,200.6,149.4,200.6z
	 M160.9,200.6h2.9c0.9,0,1.6,0.7,1.6,1.6V217c0,0.9-0.7,1.6-1.6,1.6h-2.9c-0.9,0-1.6-0.7-1.6-1.6v-14.8
	C159.4,201.3,160.1,200.6,160.9,200.6z M184.7,205c2.5,0,4.6,2.1,4.6,4.6s-2.1,4.6-4.6,4.6s-4.6-2.1-4.6-4.6
	C180,207.1,182.1,205,184.7,205z"/>
<path id="path4522_1_" class="st1" d="M107.5,230.4c-1.7,0-3,1.3-3,3V255c0,1.7,1.3,3,3,3h88.1c1.7,0,3-1.3,3-3v-21.8
	c0-1.7-1.3-3-3-3L107.5,230.4L107.5,230.4z M114.9,235.3h2.9c0.9,0,1.6,0.7,1.6,1.6v14.8c0,0.9-0.7,1.6-1.6,1.6h-2.9
	c-0.9,0-1.6-0.7-1.6-1.6v-14.8C113.4,235.9,114.1,235.3,114.9,235.3z M126.5,235.3h2.9c0.9,0,1.6,0.7,1.6,1.6v14.8
	c0,0.9-0.7,1.6-1.6,1.6h-2.9c-0.9,0-1.6-0.7-1.6-1.6v-14.8C124.9,235.9,125.6,235.3,126.5,235.3z M138,235.3h2.9
	c0.9,0,1.6,0.7,1.6,1.6v14.8c0,0.9-0.7,1.6-1.6,1.6H138c-0.9,0-1.6-0.7-1.6-1.6v-14.8C136.4,235.9,137.2,235.3,138,235.3z
	 M149.4,235.3h2.9c0.9,0,1.6,0.7,1.6,1.6v14.8c0,0.9-0.7,1.6-1.6,1.6h-2.9c-0.9,0-1.6-0.7-1.6-1.6v-14.8
	C147.9,235.9,148.6,235.3,149.4,235.3z M160.9,235.3h2.9c0.9,0,1.6,0.7,1.6,1.6v14.8c0,0.9-0.7,1.6-1.6,1.6h-2.9
	c-0.9,0-1.6-0.7-1.6-1.6v-14.8C159.4,235.9,160.1,235.3,160.9,235.3z M184.7,239.7c2.5,0,4.6,2.1,4.6,4.6s-2.1,4.6-4.6,4.6
	s-4.6-2.1-4.6-4.6C180,241.6,182.1,239.7,184.7,239.7L184.7,239.7z"/>
<path id="path4520_4_" class="st1" d="M107.5,126.6c-1.7,0-3,1.3-3,3v21.8c0,1.7,1.3,3,3,3h88.1c1.7,0,3-1.3,3-3v-21.8
	c0-1.7-1.3-3-3-3C195.6,126.6,107.5,126.6,107.5,126.6z M114.9,131.6h2.9c0.9,0,1.6,0.7,1.6,1.6V148c0,0.9-0.7,1.6-1.6,1.6h-2.9
	c-0.9,0-1.6-0.7-1.6-1.6v-14.8C113.4,132.1,114.1,131.6,114.9,131.6z M126.5,131.6h2.9c0.9,0,1.6,0.7,1.6,1.6V148
	c0,0.9-0.7,1.6-1.6,1.6h-2.9c-0.9,0-1.6-0.7-1.6-1.6v-14.8C124.9,132.1,125.6,131.6,126.5,131.6z M138,131.6h2.9
	c0.9,0,1.6,0.7,1.6,1.6V148c0,0.9-0.7,1.6-1.6,1.6H138c-0.9,0-1.6-0.7-1.6-1.6v-14.8C136.4,132.1,137.2,131.6,138,131.6z
	 M149.4,131.6h2.9c0.9,0,1.6,0.7,1.6,1.6V148c0,0.9-0.7,1.6-1.6,1.6h-2.9c-0.9,0-1.6-0.7-1.6-1.6v-14.8
	C147.9,132.1,148.6,131.6,149.4,131.6z M160.9,131.6h2.9c0.9,0,1.6,0.7,1.6,1.6V148c0,0.9-0.7,1.6-1.6,1.6h-2.9
	c-0.9,0-1.6-0.7-1.6-1.6v-14.8C159.4,132.1,160.1,131.6,160.9,131.6z M184.7,136c2.5,0,4.6,2.1,4.6,4.6s-2.1,4.6-4.6,4.6
	s-4.6-2.1-4.6-4.6C180,137.9,182.1,136,184.7,136z"/>
<path id="path4522_3_" class="st1" d="M107.5,161.2c-1.7,0-3,1.3-3,3v21.7c0,1.7,1.3,3,3,3h88.1c1.7,0,3-1.3,3-3v-21.8
	c0-1.7-1.3-3-3-3L107.5,161.2L107.5,161.2z M114.9,166.1h2.9c0.9,0,1.6,0.7,1.6,1.6v14.8c0,0.9-0.7,1.6-1.6,1.6h-2.9
	c-0.9,0-1.6-0.7-1.6-1.6v-14.8C113.4,166.7,114.1,166.1,114.9,166.1z M126.5,166.1h2.9c0.9,0,1.6,0.7,1.6,1.6v14.8
	c0,0.9-0.7,1.6-1.6,1.6h-2.9c-0.9,0-1.6-0.7-1.6-1.6v-14.8C124.9,166.7,125.6,166.1,126.5,166.1z M138,166.1h2.9
	c0.9,0,1.6,0.7,1.6,1.6v14.8c0,0.9-0.7,1.6-1.6,1.6H138c-0.9,0-1.6-0.7-1.6-1.6v-14.8C136.4,166.7,137.2,166.1,138,166.1z
	 M149.4,166.1h2.9c0.9,0,1.6,0.7,1.6,1.6v14.8c0,0.9-0.7,1.6-1.6,1.6h-2.9c-0.9,0-1.6-0.7-1.6-1.6v-14.8
	C147.9,166.7,148.6,166.1,149.4,166.1z M160.9,166.1h2.9c0.9,0,1.6,0.7,1.6,1.6v14.8c0,0.9-0.7,1.6-1.6,1.6h-2.9
	c-0.9,0-1.6-0.7-1.6-1.6v-14.8C159.4,166.7,160.1,166.1,160.9,166.1z M184.7,170.5c2.5,0,4.6,2.1,4.6,4.6s-2.1,4.6-4.6,4.6
	s-4.6-2.1-4.6-4.6C180,172.6,182.1,170.5,184.7,170.5L184.7,170.5z"/>
<g id="path4518_17_">
	<g>
		<path class="st0" d="M210,126.6c-1.7,0-3,1.3-3,3v21.8c0,1.7,1.3,3,3,3h88.1c1.7,0,3-1.3,3-3v-21.8c0-1.7-1.3-3-3-3
			C298.1,126.6,210,126.6,210,126.6z"/>
	</g>
</g>
<g id="path4518_15_">
	<g>
		<path class="st0" d="M210,92c-1.7,0-3,1.3-3,3v21.8c0,1.7,1.3,3,3,3h88.1c1.7,0,3-1.3,3-3V95c0-1.7-1.3-3-3-3H210z"/>
	</g>
</g>
<g id="path4518_13_">
	<g>
		<path class="st0" d="M210,57.5c-1.7,0-3,1.3-3,3v21.8c0,1.7,1.3,3,3,3h88.1c1.7,0,3-1.3,3-3V60.5c0-1.7-1.3-3-3-3
			C298.2,57.5,210,57.5,210,57.5z"/>
	</g>
</g>
<g id="path4518_3_">
	<g>
		<path class="st0" d="M210,22.9c-1.7,0-3,1.3-3,3v21.8c0,1.7,1.3,3,3,3h88.1c1.7,0,3-1.3,3-3V25.9c0-1.7-1.3-3-3-3H210z"/>
	</g>
</g>
<path id="path4520_2_" class="st1" d="M210,195.8c-1.7,0-3,1.3-3,3v21.8c0,1.7,1.3,3,3,3h88.1c1.7,0,3-1.3,3-3v-21.8
	c0-1.7-1.3-3-3-3H210z M217.6,200.6h2.9c0.9,0,1.6,0.7,1.6,1.6V217c0,0.9-0.7,1.6-1.6,1.6h-2.9c-0.9,0-1.6-0.7-1.6-1.6v-14.8
	C216,201.3,216.7,200.6,217.6,200.6z M229.1,200.6h2.9c0.9,0,1.6,0.7,1.6,1.6V217c0,0.9-0.7,1.6-1.6,1.6h-2.9
	c-0.9,0-1.6-0.7-1.6-1.6v-14.8C227.5,201.3,228.2,200.6,229.1,200.6z M240.5,200.6h2.9c0.9,0,1.6,0.7,1.6,1.6V217
	c0,0.9-0.7,1.6-1.6,1.6h-2.9c-0.9,0-1.6-0.7-1.6-1.6v-14.8C239,201.3,239.7,200.6,240.5,200.6z M252,200.6h2.9
	c0.9,0,1.6,0.7,1.6,1.6V217c0,0.9-0.7,1.6-1.6,1.6H252c-0.9,0-1.6-0.7-1.6-1.6v-14.8C250.5,201.3,251.2,200.6,252,200.6z
	 M263.5,200.6h2.9c0.9,0,1.6,0.7,1.6,1.6V217c0,0.9-0.7,1.6-1.6,1.6h-2.9c-0.9,0-1.6-0.7-1.6-1.6v-14.8
	C262,201.3,262.7,200.6,263.5,200.6z M287.3,205c2.5,0,4.6,2.1,4.6,4.6s-2.1,4.6-4.6,4.6s-4.6-2.1-4.6-4.6
	C282.6,207.1,284.6,205,287.3,205z"/>
<path id="path4520_3_" class="st1" d="M210,161.2c-1.7,0-3,1.3-3,3V186c0,1.7,1.3,3,3,3h88.1c1.7,0,3-1.3,3-3v-21.8c0-1.7-1.3-3-3-3
	H210z M217.6,166h2.9c0.9,0,1.6,0.7,1.6,1.6v14.8c0,0.9-0.7,1.6-1.6,1.6h-2.9c-0.9,0-1.6-0.7-1.6-1.6v-14.8
	C216,166.7,216.7,166,217.6,166z M229.1,166h2.9c0.9,0,1.6,0.7,1.6,1.6v14.8c0,0.9-0.7,1.6-1.6,1.6h-2.9c-0.9,0-1.6-0.7-1.6-1.6
	v-14.8C227.5,166.7,228.2,166,229.1,166z M240.5,166h2.9c0.9,0,1.6,0.7,1.6,1.6v14.8c0,0.9-0.7,1.6-1.6,1.6h-2.9
	c-0.9,0-1.6-0.7-1.6-1.6v-14.8C239,166.7,239.7,166,240.5,166z M252,166h2.9c0.9,0,1.6,0.7,1.6,1.6v14.8c0,0.9-0.7,1.6-1.6,1.6H252
	c-0.9,0-1.6-0.7-1.6-1.6v-14.8C250.5,166.7,251.2,166,252,166z M263.5,166h2.9c0.9,0,1.6,0.7,1.6,1.6v14.8c0,0.9-0.7,1.6-1.6,1.6
	h-2.9c-0.9,0-1.6-0.7-1.6-1.6v-14.8C262,166.7,262.7,166,263.5,166z M287.3,170.4c2.5,0,4.6,2.1,4.6,4.6s-2.1,4.6-4.6,4.6
	s-4.6-2.1-4.6-4.6C282.6,172.6,284.6,170.4,287.3,170.4z"/>
<path id="path4522_2_" class="st1" d="M210,230.4c-1.7,0-3,1.3-3,3V255c0,1.7,1.3,3,3,3h88.1c1.7,0,3-1.3,3-3v-21.8c0-1.7-1.3-3-3-3
	L210,230.4L210,230.4z M217.6,235.3h2.9c0.9,0,1.6,0.7,1.6,1.6v14.8c0,0.9-0.7,1.6-1.6,1.6h-2.9c-0.9,0-1.6-0.7-1.6-1.6v-14.8
	C216,235.9,216.7,235.3,217.6,235.3z M229.1,235.3h2.9c0.9,0,1.6,0.7,1.6,1.6v14.8c0,0.9-0.7,1.6-1.6,1.6h-2.9
	c-0.9,0-1.6-0.7-1.6-1.6v-14.8C227.5,235.9,228.2,235.3,229.1,235.3z M240.5,235.3h2.9c0.9,0,1.6,0.7,1.6,1.6v14.8
	c0,0.9-0.7,1.6-1.6,1.6h-2.9c-0.9,0-1.6-0.7-1.6-1.6v-14.8C239,235.9,239.7,235.3,240.5,235.3z M252,235.3h2.9
	c0.9,0,1.6,0.7,1.6,1.6v14.8c0,0.9-0.7,1.6-1.6,1.6H252c-0.9,0-1.6-0.7-1.6-1.6v-14.8C250.5,235.9,251.2,235.3,252,235.3z
	 M263.5,235.3h2.9c0.9,0,1.6,0.7,1.6,1.6v14.8c0,0.9-0.7,1.6-1.6,1.6h-2.9c-0.9,0-1.6-0.7-1.6-1.6v-14.8
	C262,235.9,262.7,235.3,263.5,235.3z M287.3,239.7c2.5,0,4.6,2.1,4.6,4.6s-2.1,4.6-4.6,4.6s-4.6-2.1-4.6-4.6
	C282.6,241.6,284.6,239.7,287.3,239.7L287.3,239.7z"/>
<g id="path4518_21_">
	<g>
		<path class="st0" d="M312.6,126.6c-1.7,0-3,1.3-3,3v21.8c0,1.7,1.3,3,3,3h88.1c1.7,0,3-1.3,3-3v-21.8c0-1.7-1.3-3-3-3
			C400.8,126.6,312.6,126.6,312.6,126.6z"/>
	</g>
</g>
<g id="path4518_12_">
	<g>
		<path class="st0" d="M312.6,161.2c-1.7,0-3,1.3-3,3V186c0,1.7,1.3,3,3,3h88.1c1.7,0,3-1.3,3-3v-21.8c0-1.7-1.3-3-3-3H312.6z"/>
	</g>
</g>
<g id="path4518_19_">
	<g>
		<path class="st0" d="M312.6,92c-1.7,0-3,1.3-3,3v21.8c0,1.7,1.3,3,3,3h88.1c1.7,0,3-1.3,3-3V95c0-1.7-1.3-3-3-3H312.6z"/>
	</g>
</g>
<g id="path4518_8_">
	<g>
		<path class="st0" d="M312.6,57.5c-1.7,0-3,1.3-3,3v21.8c0,1.7,1.3,3,3,3h88.1c1.7,0,3-1.3,3-3V60.5c0-1.7-1.3-3-3-3
			C400.8,57.5,312.6,57.5,312.6,57.5z"/>
	</g>
</g>
<g id="path4518_4_">
	<g>
		<path class="st0" d="M312.6,22.9c-1.7,0-3,1.3-3,3v21.8c0,1.7,1.3,3,3,3h88.1c1.7,0,3-1.3,3-3V25.9c0-1.7-1.3-3-3-3
			C400.8,22.9,312.6,22.9,312.6,22.9z"/>
	</g>
</g>
<path id="path4520_6_" class="st1" d="M312.6,195.8c-1.7,0-3,1.3-3,3v21.8c0,1.7,1.3,3,3,3h88.1c1.7,0,3-1.3,3-3v-21.8
	c0-1.7-1.3-3-3-3H312.6z M320.2,200.6h2.9c0.9,0,1.6,0.7,1.6,1.6V217c0,0.9-0.7,1.6-1.6,1.6h-2.9c-0.9,0-1.6-0.7-1.6-1.6v-14.8
	C318.6,201.3,319.2,200.6,320.2,200.6z M331.6,200.6h2.9c0.9,0,1.6,0.7,1.6,1.6V217c0,0.9-0.7,1.6-1.6,1.6h-2.9
	c-0.9,0-1.6-0.7-1.6-1.6v-14.8C330,201.3,330.8,200.6,331.6,200.6z M343,200.6h2.9c0.9,0,1.6,0.7,1.6,1.6V217c0,0.9-0.7,1.6-1.6,1.6
	H343c-0.9,0-1.6-0.7-1.6-1.6v-14.8C341.6,201.3,342.2,200.6,343,200.6z M354.6,200.6h2.9c0.9,0,1.6,0.7,1.6,1.6V217
	c0,0.9-0.7,1.6-1.6,1.6h-2.9c-0.9,0-1.6-0.7-1.6-1.6v-14.8C353.1,201.3,353.8,200.6,354.6,200.6z M366.1,200.6h2.9
	c0.9,0,1.6,0.7,1.6,1.6V217c0,0.9-0.7,1.6-1.6,1.6h-2.9c-0.9,0-1.6-0.7-1.6-1.6v-14.8C364.5,201.3,365.3,200.6,366.1,200.6z
	 M389.8,205c2.5,0,4.6,2.1,4.6,4.6s-2.1,4.6-4.6,4.6s-4.6-2.1-4.6-4.6C385.2,207.1,387.3,205,389.8,205z"/>
<path id="path4522_4_" class="st1" d="M312.6,230.4c-1.7,0-3,1.3-3,3V255c0,1.7,1.3,3,3,3h88.1c1.7,0,3-1.3,3-3v-21.8
	c0-1.7-1.3-3-3-3L312.6,230.4L312.6,230.4z M320.2,235.3h2.9c0.9,0,1.6,0.7,1.6,1.6v14.8c0,0.9-0.7,1.6-1.6,1.6h-2.9
	c-0.9,0-1.6-0.7-1.6-1.6v-14.8C318.6,235.9,319.2,235.3,320.2,235.3z M331.6,235.3h2.9c0.9,0,1.6,0.7,1.6,1.6v14.8
	c0,0.9-0.7,1.6-1.6,1.6h-2.9c-0.9,0-1.6-0.7-1.6-1.6v-14.8C330,235.9,330.8,235.3,331.6,235.3z M343,235.3h2.9
	c0.9,0,1.6,0.7,1.6,1.6v14.8c0,0.9-0.7,1.6-1.6,1.6H343c-0.9,0-1.6-0.7-1.6-1.6v-14.8C341.6,235.9,342.2,235.3,343,235.3z
	 M354.6,235.3h2.9c0.9,0,1.6,0.7,1.6,1.6v14.8c0,0.9-0.7,1.6-1.6,1.6h-2.9c-0.9,0-1.6-0.7-1.6-1.6v-14.8
	C353.1,235.9,353.8,235.3,354.6,235.3z M366.1,235.3h2.9c0.9,0,1.6,0.7,1.6,1.6v14.8c0,0.9-0.7,1.6-1.6,1.6h-2.9
	c-0.9,0-1.6-0.7-1.6-1.6v-14.8C364.5,235.9,365.3,235.3,366.1,235.3z M389.8,239.7c2.5,0,4.6,2.1,4.6,4.6s-2.1,4.6-4.6,4.6
	s-4.6-2.1-4.6-4.6C385.2,241.6,387.3,239.7,389.8,239.7L389.8,239.7z"/>
<g>
	<g>
		<path class="st2" d="M453.8,118.4c-11.9,0-21.7,9.7-21.7,21.7c0,11.9,9.7,21.7,21.7,21.7s21.7-9.7,21.7-21.7
			C475.4,128.2,465.6,118.4,453.8,118.4z M453.8,158.2c-9.9,0-18-8.1-18-18s8.1-18,18-18s18,8.1,18,18
			C471.8,150.1,463.7,158.2,453.8,158.2z"/>
		<path class="st2" d="M461.4,138.2h-5.9v-5.9c0-0.4-0.2-1.2-1.2-1.2h-1.4c-1,0-1.1,1-1.1,1.3v5.8H446c-1.1,0-1.2,0.9-1.2,1.1v1.7
			c0,0.3,0.1,1,1.2,1h5.9v5.9c0,1.1,0.9,1.2,1.1,1.2h1.7c0.3,0,1-0.1,1-1.2V142h5.9c0.4,0,1.2-0.2,1.2-1.2v-1.4
			C462.7,138.3,461.6,138.2,461.4,138.2z"/>
	</g>
	<g>
		<path class="st2" d="M56.3,118.4c-12,0-21.7,9.8-21.7,21.7s9.8,21.7,21.7,21.7S78,152.2,78,140.1C78,128.2,68.3,118.4,56.3,118.4z
			 M56.3,158.2c-9.9,0-18-8.1-18-18s8.1-18,18-18s18,8.1,18,18C74.4,150.1,66.3,158.2,56.3,158.2z"/>
		<path class="st2" d="M64.3,142.1c0.4,0,1.2-0.2,1.2-1.2v-1.4c0-1-1-1.1-1.3-1.1H48.5c-1.1,0-1.2,0.9-1.2,1.1v1.7
			c0,0.3,0.1,1,1.2,1C48.5,142.1,64.3,142.1,64.3,142.1z"/>
	</g>
</g>
</svg>
