<?xml version="1.0" encoding="utf-8"?>
<!-- Generator: Adobe Illustrator 21.0.0, SVG Export Plug-In . SVG Version: 6.00 Build 0)  -->
<svg version="1.1" id="Layer_1" xmlns="http://www.w3.org/2000/svg" xmlns:xlink="http://www.w3.org/1999/xlink" x="0px" y="0px"
	 viewBox="0 0 1038.8 660.2" style="enable-background:new 0 0 1038.8 660.2;" xml:space="preserve">
<style type="text/css">
	.st0{fill:#FF8334;}
	.st1{fill:#A2CD3D;}
	.st2{fill:#4AC9ED;}
	.st3{fill:#233269;}
	.st4{fill:#FFFFFF;}
	.st5{fill:none;stroke:#2D3841;stroke-width:2;stroke-miterlimit:10;stroke-dasharray:6.0333,8.0444;}
	.st6{fill:none;stroke:#2D3841;stroke-width:2;stroke-miterlimit:10;stroke-dasharray:5.8877,7.8502;}
	.st7{enable-background:new    ;}
	.st8{fill:none;stroke:#2D3841;stroke-width:2;stroke-miterlimit:10;stroke-dasharray:6.0174,8.0233;}
	.st9{fill:#2D3841;}
	.st10{fill:#3C76F7;}
	.st11{fill:#77A540;}
</style>
<g>
	<g>
		<path class="st0" d="M666.9,134.8c6.1,0,13.3-1.4,20.7-5.8l6.3-3.1c1-0.5,1.3-1.8,0.8-2.7c-0.5-1-1.8-1.3-2.7-0.8l-6.4,3.1
			c-16.8,10.1-32.4,2.8-34.1,2c-5.7-2.9-79.1-45.4-108.9-62.9c-23.5-13.9-45-2.4-49,0c-4.9,3-32.7,19.8-33,20
			c-0.9,0.6-1.2,1.8-0.7,2.7c0.6,0.9,1.8,1.2,2.7,0.7c0.3-0.2,28.1-17,33-20c3.7-2.2,23.4-12.7,45,0
			c27.9,16.5,102.8,59.9,109.1,63.1C650.8,131.7,657.6,134.8,666.9,134.8z"/>
	</g>
	<g>
		<circle class="st0" cx="461.1" cy="86.8" r="4.5"/>
		<path class="st0" d="M454.6,86.8c0-3.6,2.9-6.5,6.5-6.5s6.5,2.9,6.5,6.5s-2.9,6.5-6.5,6.5S454.6,90.4,454.6,86.8z M458.6,86.8
			c0,1.4,1.1,2.5,2.5,2.5s2.5-1.1,2.5-2.5s-1.1-2.5-2.5-2.5S458.6,85.4,458.6,86.8z"/>
	</g>
	<g>
		<circle class="st0" cx="692.3" cy="124.8" r="4.5"/>
		<path class="st0" d="M685.8,124.8c0-3.6,2.9-6.5,6.5-6.5s6.5,2.9,6.5,6.5s-2.9,6.5-6.5,6.5S685.8,128.4,685.8,124.8z M689.8,124.8
			c0,1.4,1.1,2.5,2.5,2.5s2.5-1.1,2.5-2.5s-1.1-2.5-2.5-2.5S689.8,123.4,689.8,124.8z"/>
	</g>
</g>
<g>
	<g>
		<g>
			<path class="st0" d="M515.6,563.8c-9.3,0-16-3.2-17.2-3.8c-6.4-3.2-81.3-46.6-109.1-63.1c-21.6-12.7-41.2-2.2-45,0
				c-4.9,3-32.7,19.8-33,20c-0.9,0.6-2.2,0.3-2.7-0.7c-0.6-0.9-0.3-2.2,0.7-2.7c0.3-0.2,28.1-17,33-20c4.1-2.4,25.5-13.9,49,0
				c29.7,17.6,103.1,60.1,108.9,62.9c1.7,0.9,17.3,8.1,34.1-1.9l32-18c1-0.5,2.2-0.2,2.7,0.8s0.2,2.2-0.8,2.7l-32,18
				C528.9,562.5,521.7,563.8,515.6,563.8z"/>
		</g>
		<g>
			<circle class="st0" cx="309.7" cy="515.8" r="4.5"/>
			<path class="st0" d="M309.7,522.3c-3.6,0-6.5-2.9-6.5-6.5s2.9-6.5,6.5-6.5s6.5,2.9,6.5,6.5S313.3,522.3,309.7,522.3z
				 M309.7,513.3c-1.4,0-2.5,1.1-2.5,2.5s1.1,2.5,2.5,2.5s2.5-1.1,2.5-2.5S311.1,513.3,309.7,513.3z"/>
		</g>
		<g>
			<circle class="st0" cx="567.2" cy="538.3" r="4.5"/>
			<path class="st0" d="M567.2,544.8c-3.6,0-6.5-2.9-6.5-6.5s2.9-6.5,6.5-6.5s6.5,2.9,6.5,6.5S570.8,544.8,567.2,544.8z
				 M567.2,535.8c-1.4,0-2.5,1.1-2.5,2.5s1.1,2.5,2.5,2.5s2.5-1.1,2.5-2.5S568.6,535.8,567.2,535.8z"/>
		</g>
	</g>
</g>
<g>
	<g>
		<path class="st1" d="M728.1,511.9c-6.4-3.2-7.5-5.2-35.3-21.6c-21.6-12.7-41.2-2.2-45,0c-4.9,3-32.7,19.8-33,20
			c-0.9,0.6-2.2,0.3-2.7-0.7c-0.6-0.9-0.3-2.2,0.7-2.7c0.3-0.2,28.1-17,33-20c4.1-2.4,25.5-13.9,49,0c29.7,17.6,29.3,18.6,35.1,21.5
			"/>
	</g>
	<g>
		<circle class="st1" cx="613.3" cy="509" r="4.5"/>
		<path class="st1" d="M613.3,515.5c-3.6,0-6.5-2.9-6.5-6.5s2.9-6.5,6.5-6.5s6.5,2.9,6.5,6.5S616.9,515.5,613.3,515.5z M613.3,506.5
			c-1.4,0-2.5,1.1-2.5,2.5s1.1,2.5,2.5,2.5s2.5-1.1,2.5-2.5S614.7,506.5,613.3,506.5z"/>
	</g>
	<g>
		<circle class="st1" cx="728.1" cy="509" r="4.5"/>
		<path class="st1" d="M728.1,515.5c-3.6,0-6.5-2.9-6.5-6.5s2.9-6.5,6.5-6.5s6.5,2.9,6.5,6.5S731.7,515.5,728.1,515.5z M728.1,506.5
			c-1.4,0-2.5,1.1-2.5,2.5s1.1,2.5,2.5,2.5s2.5-1.1,2.5-2.5S729.5,506.5,728.1,506.5z"/>
	</g>
</g>
<g>
	<g>
		<path class="st2" d="M460.5,505.5c6.4,3.2,7.5,5.2,35.3,21.6c21.6,12.7,41.2,2.2,45,0c4.9-3,32.7-19.8,33-20
			c0.9-0.6,2.2-0.3,2.7,0.7c0.6,0.9,0.3,2.2-0.7,2.7c-0.3,0.2-28.1,17-33,20c-4.1,2.4-25.5,13.9-49,0
			c-29.7-17.6-29.3-18.6-35.1-21.5"/>
	</g>
	<g>
		<circle class="st2" cx="575.4" cy="508.4" r="4.5"/>
		<path class="st2" d="M575.4,501.9c3.6,0,6.5,2.9,6.5,6.5s-2.9,6.5-6.5,6.5s-6.5-2.9-6.5-6.5S571.8,501.9,575.4,501.9z
			 M575.4,510.9c1.4,0,2.5-1.1,2.5-2.5s-1.1-2.5-2.5-2.5s-2.5,1.1-2.5,2.5S574,510.9,575.4,510.9z"/>
	</g>
	<g>
		<circle class="st2" cx="460.5" cy="508.4" r="4.5"/>
		<path class="st2" d="M460.5,501.9c3.6,0,6.5,2.9,6.5,6.5s-2.9,6.5-6.5,6.5s-6.5-2.9-6.5-6.5S457,501.9,460.5,501.9z M460.5,510.9
			c1.4,0,2.5-1.1,2.5-2.5s-1.1-2.5-2.5-2.5s-2.5,1.1-2.5,2.5S459.2,510.9,460.5,510.9z"/>
	</g>
</g>
<g>
	<g>
		<path class="st1" d="M460.5,559.7c6.4,3.2,7.5,5.2,35.3,21.6c21.6,12.7,41.2,2.2,45,0c4.9-3,32.7-19.8,33-20
			c0.9-0.6,2.2-0.3,2.7,0.7c0.6,0.9,0.3,2.2-0.7,2.7c-0.3,0.2-28.1,17-33,20c-4.1,2.4-25.5,13.9-49,0
			c-29.7-17.6-29.3-18.6-35.1-21.5"/>
	</g>
	<g>
		<circle class="st1" cx="575.4" cy="562.5" r="4.5"/>
		<path class="st1" d="M575.4,556c3.6,0,6.5,2.9,6.5,6.5s-2.9,6.5-6.5,6.5s-6.5-2.9-6.5-6.5S571.8,556,575.4,556z M575.4,565
			c1.4,0,2.5-1.1,2.5-2.5s-1.1-2.5-2.5-2.5s-2.5,1.1-2.5,2.5S574,565,575.4,565z"/>
	</g>
	<g>
		<circle class="st1" cx="460.5" cy="562.5" r="4.5"/>
		<path class="st1" d="M460.5,556c3.6,0,6.5,2.9,6.5,6.5s-2.9,6.5-6.5,6.5s-6.5-2.9-6.5-6.5S457,556,460.5,556z M460.5,565
			c1.4,0,2.5-1.1,2.5-2.5s-1.1-2.5-2.5-2.5s-2.5,1.1-2.5,2.5S459.2,565,460.5,565z"/>
	</g>
</g>
<g>
	<g>
		<path class="st1" d="M590.5,70.4c-6.4-3.2-22.6-12.9-50.5-29.4c-21.6-12.7-41.2-2.2-45,0c-4.9,3-32.7,19.8-33,20
			c-0.9,0.6-2.2,0.3-2.7-0.7c-0.6-0.9-0.3-2.2,0.7-2.7c0.3-0.2,28.1-17,33-20c4.1-2.4,25.5-13.9,49,0c29.7,17.6,44.5,26.4,50.2,29.2
			"/>
	</g>
	<g>
		<circle class="st1" cx="460.5" cy="59.8" r="4.5"/>
		<path class="st1" d="M460.5,66.3c-3.6,0-6.5-2.9-6.5-6.5s2.9-6.5,6.5-6.5c3.6,0,6.5,2.9,6.5,6.5S464.1,66.3,460.5,66.3z
			 M460.5,57.3c-1.4,0-2.5,1.1-2.5,2.5s1.1,2.5,2.5,2.5s2.5-1.1,2.5-2.5S461.9,57.3,460.5,57.3z"/>
	</g>
	<g>
		<circle class="st1" cx="588.7" cy="67.3" r="4.5"/>
		<path class="st1" d="M588.7,73.8c-3.6,0-6.5-2.9-6.5-6.5c0-3.6,2.9-6.5,6.5-6.5s6.5,2.9,6.5,6.5C595.2,70.9,592.3,73.8,588.7,73.8
			z M588.7,64.8c-1.4,0-2.5,1.1-2.5,2.5s1.1,2.5,2.5,2.5s2.5-1.1,2.5-2.5S590.1,64.8,588.7,64.8z"/>
	</g>
</g>
<g>
	<g>
		<path class="st1" d="M370.1,660.2c-2.5,0-5-0.6-7.2-1.9l-59.2-34.2c-4.4-2.6-7.2-7.4-7.2-12.5l-0.6-49.1l4-0.1l0.6,49.2
			c0,3.7,2,7.2,5.2,9.1l59.1,34.2c3.2,1.9,7.2,1.9,10.4,0l44.7-23l1.8,3.6L377,658.4C375,659.6,372.6,660.2,370.1,660.2z"/>
	</g>
	<g>
		
			<ellipse transform="matrix(1.103438e-02 -0.9999 0.9999 1.103438e-02 -267.9438 854.0536)" class="st1" cx="297.8" cy="562.5" rx="4.5" ry="4.5"/>
		<path class="st1" d="M297.8,569C297.8,569,297.7,569,297.8,569c-1.8,0-3.4-0.7-4.6-2c-1.2-1.2-1.9-2.9-1.9-4.6
			c0-1.7,0.7-3.4,2-4.6s2.9-1.9,4.6-1.9s3.4,0.7,4.6,2c1.2,1.2,1.9,2.9,1.9,4.6c0,1.7-0.7,3.4-2,4.6
			C301.1,568.3,299.5,569,297.8,569z M297.8,560c-1.4,0-2.5,1.1-2.5,2.5c0,0.7,0.2,1.3,0.7,1.8s1.1,0.7,1.8,0.8
			c0.7,0,1.3-0.2,1.8-0.7s0.7-1.1,0.8-1.8l0,0c0-0.7-0.2-1.3-0.7-1.8C299.1,560.2,298.5,560,297.8,560L297.8,560z"/>
	</g>
	<g>
		
			<ellipse transform="matrix(1.103438e-02 -0.9999 0.9999 1.103438e-02 -217.5457 1047.266)" class="st1" cx="420.7" cy="633.6" rx="4.5" ry="4.5"/>
		<path class="st1" d="M420.7,640.1C420.7,640.1,420.6,640.1,420.7,640.1c-1.8,0-3.4-0.7-4.6-2s-1.9-2.9-1.9-4.6
			c0-1.7,0.7-3.4,2-4.6c1.2-1.2,2.9-1.8,4.6-1.9c1.7,0,3.4,0.7,4.6,2s1.9,2.9,1.9,4.6l0,0C427.1,637.2,424.2,640.1,420.7,640.1z
			 M420.7,631.1c-0.7,0-1.3,0.3-1.7,0.7c-0.5,0.5-0.7,1.1-0.8,1.8c0,1.4,1.1,2.5,2.5,2.5l0,0c1.4,0,2.5-1.1,2.5-2.5
			c0-0.7-0.2-1.3-0.7-1.8S421.4,631.1,420.7,631.1L420.7,631.1z"/>
	</g>
</g>
<g>
	<g>
		<path class="st2" d="M251.4,391.5c-0.7,0-1.4-0.4-1.7-1c-0.5-1-0.2-2.2,0.8-2.7c0.3-0.2,28.6-16.1,33.6-18.9
			c3.8-2.1,22.6-14.1,22.1-39.2c-0.2-8.2-0.3-16.7-0.5-24.9c-0.6-25.9-1-48.3-0.8-53.5c0.1-1.1,1-1.9,2.1-1.9c1.1,0.1,2,1,1.9,2.1
			c-0.2,5,0.3,28.4,0.8,53.2c0.2,8.2,0.4,16.7,0.5,24.9c0.5,27.3-20,40.4-24.1,42.7c-5,2.8-33.4,18.8-33.6,18.9
			C252,391.4,251.7,391.5,251.4,391.5z"/>
	</g>
	<g>
		
			<ellipse transform="matrix(0.4913 -0.871 0.871 0.4913 -211.8869 416.6244)" class="st2" cx="250.7" cy="389.7" rx="4.5" ry="4.5"/>
		<path class="st2" d="M250.7,396.2c-1.1,0-2.2-0.3-3.2-0.8c-3.1-1.8-4.2-5.7-2.5-8.9c0.9-1.5,2.2-2.6,3.9-3.1
			c1.7-0.5,3.4-0.3,4.9,0.6c1.5,0.9,2.6,2.2,3.1,3.9s0.3,3.4-0.6,4.9C255.2,395,253,396.2,250.7,396.2z M250.7,387.2
			c-0.2,0-0.5,0-0.7,0.1c-0.6,0.2-1.2,0.6-1.5,1.2c-0.7,1.2-0.3,2.7,0.9,3.4c1.2,0.7,2.7,0.3,3.4-0.9c0.3-0.6,0.4-1.3,0.2-1.9
			s-0.6-1.2-1.2-1.5l0,0C251.5,387.3,251.1,387.2,250.7,387.2z"/>
	</g>
	<g>
		<ellipse transform="matrix(0.4913 -0.871 0.871 0.4913 -61.6491 394.4277)" class="st2" cx="306.8" cy="250" rx="4.5" ry="4.5"/>
		<path class="st2" d="M306.8,256.4c-1.1,0-2.2-0.3-3.2-0.8c-1.5-0.9-2.6-2.2-3.1-3.9c-0.5-1.7-0.3-3.4,0.6-4.9s2.2-2.6,3.9-3.1
			c1.7-0.5,3.4-0.3,4.9,0.6l0,0c1.5,0.9,2.6,2.2,3.1,3.9c0.5,1.7,0.3,3.4-0.6,4.9C311.3,255.3,309.1,256.4,306.8,256.4z
			 M306.8,247.5c-0.2,0-0.5,0-0.7,0.1c-0.6,0.2-1.2,0.6-1.5,1.2s-0.4,1.3-0.2,1.9c0.2,0.6,0.6,1.2,1.2,1.5c1.2,0.7,2.7,0.3,3.4-0.9
			c0.3-0.6,0.4-1.3,0.2-1.9c-0.2-0.6-0.6-1.2-1.2-1.5C307.6,247.6,307.2,247.5,306.8,247.5z"/>
	</g>
</g>
<g>
	<g>
		<path class="st2" d="M89.4,118.1c0.7,0,1.4,0.4,1.8,1c0.5,1,0.2,2.2-0.8,2.7c-0.3,0.2-28.5,16.2-33.5,19.1
			c-3.8,2.2-22.5,14.2-21.9,39.3c0.2,8.2,0.4,16.7,0.6,24.9c0.7,25.9,1.3,28.3,1,33.5c-0.1,1.1-1,2-2.1,1.9s-2-1-1.9-2.1
			c0.2-5-0.4-8.4-1-33.2c-0.2-8.2-0.4-16.7-0.6-24.9c-0.7-27.3,19.8-40.5,23.9-42.8c5-2.9,33.3-18.9,33.6-19.1
			C88.7,118.2,89,118.1,89.4,118.1z"/>
	</g>
	<g>
		<ellipse transform="matrix(0.4874 -0.8732 0.8732 0.4874 -58.5866 140.1163)" class="st2" cx="90" cy="120" rx="4.5" ry="4.5"/>
		<path class="st2" d="M90,113.4c1.1,0,2.2,0.3,3.2,0.8c3.1,1.7,4.3,5.7,2.5,8.8c-0.8,1.5-2.2,2.6-3.9,3.1s-3.4,0.3-4.9-0.6
			c-1.5-0.8-2.6-2.2-3.1-3.9c-0.5-1.7-0.3-3.4,0.6-4.9C85.6,114.6,87.8,113.4,90,113.4z M90,122.4c0.2,0,0.5,0,0.7-0.1
			c0.6-0.2,1.2-0.6,1.5-1.2c0.7-1.2,0.2-2.7-1-3.4c-1.2-0.7-2.7-0.2-3.4,1c-0.3,0.6-0.4,1.3-0.2,1.9s0.6,1.2,1.2,1.5l0,0
			C89.2,122.3,89.6,122.4,90,122.4z"/>
	</g>
	<g>
		
			<ellipse transform="matrix(0.4874 -0.8732 0.8732 0.4874 -191.3776 152.9928)" class="st2" cx="34.6" cy="239.5" rx="4.5" ry="4.5"/>
		<path class="st2" d="M34.6,233c1.1,0,2.2,0.3,3.2,0.8c1.5,0.8,2.6,2.2,3.1,3.9c0.5,1.7,0.3,3.4-0.6,4.9c-0.8,1.5-2.2,2.6-3.9,3.1
			c-1.7,0.5-3.4,0.3-4.9-0.6l0,0c-1.5-0.8-2.6-2.2-3.1-3.9c-0.5-1.7-0.3-3.4,0.6-4.9C30.1,234.2,32.3,233,34.6,233z M34.6,242
			c0.2,0,0.5,0,0.7-0.1c0.6-0.2,1.2-0.6,1.5-1.2s0.4-1.3,0.2-1.9c-0.2-0.6-0.6-1.2-1.2-1.5c-1.2-0.7-2.7-0.2-3.4,1
			c-0.3,0.6-0.4,1.3-0.2,1.9c0.2,0.6,0.6,1.2,1.2,1.5C33.7,241.9,34.2,242,34.6,242z"/>
	</g>
</g>
<g>
	<g>
		<path class="st2" d="M274.7,539.8c-1.1,0-2-0.9-2-2c-0.7-33-0.8-42.9-0.5-49.7c0.1-2.1,1.6-21.3,20.4-32l31.4-19
			c0.9-0.6,2.2-0.3,2.7,0.7c0.6,0.9,0.3,2.2-0.7,2.7l-31.4,19c-17,9.7-18.4,26.8-18.5,28.8c-0.3,6.7-0.2,16.6,0.5,49.5
			C276.7,538.9,275.8,539.8,274.7,539.8L274.7,539.8z"/>
	</g>
	<g>
		
			<ellipse transform="matrix(0.4913 -0.871 0.871 0.4913 -328.6598 512.3367)" class="st2" cx="274.3" cy="537.5" rx="4.5" ry="4.5"/>
		<path class="st2" d="M274.2,543.9c-1.1,0-2.2-0.3-3.2-0.8c-3.1-1.8-4.2-5.7-2.5-8.9c0.9-1.5,2.2-2.6,3.9-3.1
			c1.7-0.5,3.4-0.3,4.9,0.6c1.5,0.9,2.6,2.2,3.1,3.9s0.3,3.4-0.6,4.9C278.7,542.8,276.5,543.9,274.2,543.9z M274.3,534.9
			c-0.2,0-0.5,0-0.7,0.1c-0.6,0.2-1.2,0.6-1.5,1.2c-0.7,1.2-0.3,2.7,0.9,3.4c1.2,0.7,2.7,0.3,3.4-0.9c0.3-0.6,0.4-1.3,0.2-1.9
			c-0.2-0.6-0.6-1.2-1.2-1.5l0,0C275.1,535.1,274.7,534.9,274.3,534.9z"/>
	</g>
	<g>
		
			<ellipse transform="matrix(0.4913 -0.871 0.871 0.4913 -216.8064 506.3742)" class="st2" cx="325.1" cy="438.8" rx="4.5" ry="4.5"/>
		<path class="st2" d="M325.1,445.3c-1.1,0-2.2-0.3-3.2-0.8c-3.1-1.8-4.2-5.7-2.5-8.9c0.9-1.5,2.2-2.6,3.9-3.1
			c1.7-0.5,3.4-0.3,4.9,0.6c1.5,0.9,2.6,2.2,3.1,3.9s0.3,3.4-0.6,4.9C329.5,444.1,327.3,445.3,325.1,445.3z M325.1,436.3
			c-0.2,0-0.5,0-0.7,0.1c-0.6,0.2-1.2,0.6-1.5,1.2c-0.7,1.2-0.3,2.7,0.9,3.4c1.2,0.7,2.7,0.3,3.4-0.9c0.3-0.6,0.4-1.3,0.2-1.9
			s-0.6-1.2-1.2-1.5l0,0C325.9,436.4,325.5,436.3,325.1,436.3z"/>
	</g>
</g>
<g>
	<g>
		<path class="st2" d="M207.4,479.1c0.5,1,0.2,2.2-0.8,2.7c-28.6,16.5-37.2,21.4-43.4,24.4c-1.9,0.9-19.4,8.9-37.9-2.5l-31.8-18.3
			c-1-0.6-1.3-1.8-0.7-2.7c0.6-1,1.8-1.3,2.7-0.7l31.8,18.3c16.7,10.3,32.4,3.1,34.1,2.3c6.1-3,14.6-7.8,43.1-24.3
			C205.6,477.8,206.8,478.1,207.4,479.1L207.4,479.1z"/>
	</g>
	<g>
		
			<ellipse transform="matrix(1.029891e-02 -0.9999 0.9999 1.029891e-02 -277.1909 681.2712)" class="st2" cx="205.6" cy="480.7" rx="4.5" ry="4.5"/>
		<path class="st2" d="M211.3,477.5c0.5,0.9,0.8,2,0.8,3.2c0,3.6-3,6.5-6.6,6.4c-1.7,0-3.4-0.7-4.6-2c-1.2-1.2-1.9-2.9-1.9-4.6
			c0-1.7,0.7-3.4,2-4.6c1.2-1.2,2.9-1.9,4.6-1.9C208,474.2,210.2,475.5,211.3,477.5z M203.4,481.9c0.1,0.2,0.2,0.4,0.4,0.5
			c0.5,0.5,1.1,0.7,1.8,0.8c1.4,0,2.5-1.1,2.5-2.5s-1.1-2.5-2.5-2.5c-0.7,0-1.3,0.2-1.8,0.7s-0.7,1.1-0.8,1.8l0,0
			C203.1,481.1,203.2,481.5,203.4,481.9z"/>
	</g>
	<g>
		
			<ellipse transform="matrix(1.029891e-02 -0.9999 0.9999 1.029891e-02 -390.1604 573.3611)" class="st2" cx="94.6" cy="483.8" rx="4.5" ry="4.5"/>
		<path class="st2" d="M100.3,480.6c0.5,0.9,0.8,2,0.8,3.2c0,3.6-3,6.5-6.6,6.4c-1.7,0-3.4-0.7-4.6-2c-1.2-1.2-1.9-2.9-1.9-4.6
			c0-1.7,0.7-3.4,2-4.6c1.2-1.2,2.9-1.9,4.6-1.9C97.1,477.2,99.2,478.6,100.3,480.6z M92.4,484.9c0.1,0.2,0.2,0.4,0.4,0.5
			c0.5,0.5,1.1,0.7,1.8,0.8c1.4,0,2.5-1.1,2.5-2.5s-1.1-2.5-2.5-2.5c-0.7,0-1.3,0.2-1.8,0.7s-0.7,1.1-0.8,1.8l0,0
			C92.1,484.1,92.2,484.5,92.4,484.9z"/>
	</g>
</g>
<g>
	<g>
		<path class="st0" d="M252.1,521.5c-1.1,0-2-0.9-2-2c-0.3-30.3-0.5-46.4-0.3-49.7c0.1-2.1,1.6-21.3,20.4-32l31.4-19
			c0.9-0.6,2.2-0.3,2.7,0.7c0.6,0.9,0.3,2.2-0.7,2.7l-31.4,19c-17,9.7-18.4,26.8-18.5,28.8c-0.2,3.6,0,24.5,0.3,49.5
			C254.1,520.6,253.2,521.5,252.1,521.5L252.1,521.5z"/>
	</g>
	<g>
		
			<ellipse transform="matrix(0.4913 -0.871 0.871 0.4913 -323.2129 482.855)" class="st0" cx="251.8" cy="518.1" rx="4.5" ry="4.5"/>
		<path class="st0" d="M251.8,524.6c-1.1,0-2.2-0.3-3.2-0.8c-3.1-1.8-4.2-5.7-2.5-8.9c1.8-3.1,5.7-4.2,8.9-2.5l0,0
			c1.5,0.9,2.6,2.2,3.1,3.9s0.3,3.4-0.6,4.9s-2.2,2.6-3.9,3.1C253,524.6,252.4,524.6,251.8,524.6z M251.8,515.6
			c-0.9,0-1.7,0.5-2.2,1.3c-0.7,1.2-0.3,2.7,0.9,3.4c0.6,0.3,1.3,0.4,1.9,0.2s1.2-0.6,1.5-1.2c0.3-0.6,0.4-1.3,0.2-1.9
			c-0.2-0.6-0.6-1.2-1.2-1.5l0,0C252.6,515.8,252.2,515.6,251.8,515.6z"/>
	</g>
	<g>
		
			<ellipse transform="matrix(0.4913 -0.871 0.871 0.4913 -212.3352 477.5054)" class="st0" cx="302.6" cy="420.5" rx="4.5" ry="4.5"/>
		<path class="st0" d="M302.6,427c-1.1,0-2.2-0.3-3.2-0.8c-3.1-1.8-4.2-5.7-2.5-8.9c0.9-1.5,2.2-2.6,3.9-3.1
			c1.7-0.5,3.4-0.3,4.9,0.6c1.5,0.9,2.6,2.2,3.1,3.9s0.3,3.4-0.6,4.9C307.1,425.8,304.9,427,302.6,427z M302.6,418
			c-0.2,0-0.5,0-0.7,0.1c-0.6,0.2-1.2,0.6-1.5,1.2c-0.7,1.2-0.3,2.7,0.9,3.4c1.2,0.7,2.7,0.3,3.4-0.9c0.3-0.6,0.4-1.3,0.2-1.9
			s-0.6-1.2-1.2-1.5l0,0C303.5,418.1,303,418,302.6,418z"/>
	</g>
</g>
<g>
	<g>
		<path class="st0" d="M310.9,31.8c-0.5-0.9-0.2-2.2,0.7-2.7c26.1-15.5,39.9-23.6,42.9-25.2c1.9-1,19.2-9.3,37.9,1.7l32.1,17.6
			c1,0.5,1.3,1.7,0.8,2.7s-1.7,1.3-2.7,0.8L390.4,9c-16.9-9.9-32.4-2.5-34.1-1.6c-3.2,1.6-21.2,12.3-42.7,25
			C312.7,33,311.5,32.7,310.9,31.8L310.9,31.8z"/>
	</g>
	<g>
		
			<ellipse transform="matrix(0.9999 -1.052774e-02 1.052774e-02 0.9999 -0.2967 3.304)" class="st0" cx="313.7" cy="29.8" rx="4.5" ry="4.5"/>
		<path class="st0" d="M308,33c-0.6-1-0.9-2-0.9-3.2c0-3.6,2.8-6.5,6.4-6.6c3.6,0,6.5,2.8,6.6,6.4l0,0c0,1.7-0.6,3.4-1.9,4.6
			c-1.2,1.2-2.8,1.9-4.6,2c-1.7,0-3.4-0.6-4.6-1.9C308.7,34,308.3,33.6,308,33z M315.8,28.6c-0.4-0.8-1.3-1.3-2.2-1.3
			c-1.4,0-2.5,1.1-2.5,2.5c0,0.7,0.3,1.3,0.8,1.8s1.1,0.7,1.8,0.7c0.7,0,1.3-0.3,1.8-0.8s0.7-1.1,0.7-1.8l0,0
			C316.2,29.3,316,28.9,315.8,28.6z"/>
	</g>
	<g>
		
			<ellipse transform="matrix(0.9999 -1.052774e-02 1.052774e-02 0.9999 -0.239 4.4618)" class="st0" cx="423.7" cy="24.9" rx="4.5" ry="4.5"/>
		<path class="st0" d="M418,28.2c-0.5-0.9-0.9-2-0.9-3.2c0-3.6,2.8-6.5,6.4-6.6c1.7,0,3.4,0.6,4.6,1.9c1.2,1.2,1.9,2.8,2,4.6
			c0,1.7-0.6,3.4-1.9,4.6c-1.2,1.2-2.8,1.9-4.6,2C421.3,31.5,419.2,30.1,418,28.2z M425.8,23.7c-0.1-0.2-0.3-0.4-0.4-0.5
			c-0.5-0.5-1.1-0.7-1.8-0.7c-1.4,0-2.5,1.1-2.5,2.5s1.1,2.5,2.5,2.5c0.7,0,1.3-0.3,1.8-0.8s0.7-1.1,0.7-1.8l0,0
			C426.1,24.5,426,24.1,425.8,23.7z"/>
	</g>
</g>
<g>
	<g>
		<path class="st1" d="M229.6,501.2c-1.1,0-2-0.9-2-2c-0.3-30.3-0.5-46.4-0.3-49.7c0.1-2.1,1.6-21.3,20.4-32l31.4-19
			c0.9-0.6,2.2-0.3,2.7,0.7c0.6,0.9,0.3,2.2-0.7,2.7l-31.4,19c-17,9.7-18.4,26.8-18.5,28.8c-0.2,3.6,0,24.5,0.3,49.5
			C231.6,500.3,230.8,501.2,229.6,501.2L229.6,501.2z"/>
	</g>
	<g>
		
			<ellipse transform="matrix(0.4913 -0.871 0.871 0.4913 -206.038 447.5974)" class="st1" cx="280.2" cy="400.2" rx="4.5" ry="4.5"/>
		<path class="st1" d="M280.1,406.7c-1.1,0-2.2-0.3-3.2-0.8c-3.1-1.8-4.2-5.7-2.5-8.9c0.9-1.5,2.2-2.6,3.9-3.1
			c1.7-0.5,3.4-0.3,4.9,0.6s2.6,2.2,3.1,3.9s0.3,3.4-0.6,4.9C284.6,405.5,282.4,406.7,280.1,406.7z M280.2,397.7
			c-0.2,0-0.5,0-0.7,0.1c-0.6,0.2-1.2,0.6-1.5,1.2c-0.7,1.2-0.3,2.7,0.9,3.4c1.2,0.7,2.7,0.3,3.4-0.9c0.3-0.6,0.4-1.3,0.2-1.9
			s-0.6-1.2-1.2-1.5l0,0C281,397.8,280.6,397.7,280.2,397.7z"/>
	</g>
	<g>
		
			<ellipse transform="matrix(0.4913 -0.871 0.871 0.4913 -319.5965 454.5098)" class="st1" cx="229.3" cy="500.9" rx="4.5" ry="4.5"/>
		<path class="st1" d="M229.3,507.3c-1.1,0-2.2-0.3-3.2-0.8c-3.1-1.8-4.2-5.7-2.5-8.9c0.9-1.5,2.2-2.6,3.9-3.1
			c1.7-0.5,3.4-0.3,4.9,0.6c1.5,0.9,2.6,2.2,3.1,3.9s0.3,3.4-0.6,4.9C233.8,506.1,231.6,507.3,229.3,507.3z M229.3,498.3
			c-0.2,0-0.5,0-0.7,0.1c-0.6,0.2-1.2,0.6-1.5,1.2c-0.7,1.2-0.3,2.7,0.9,3.4c1.2,0.7,2.7,0.3,3.4-0.9c0.3-0.6,0.4-1.3,0.2-1.9
			s-0.6-1.2-1.2-1.5l0,0C230.2,498.4,229.8,498.3,229.3,498.3z"/>
	</g>
</g>
<g>
	<g>
		<path class="st1" d="M33.2,352.2c-1.1,0-2-0.9-2-2c-0.3-30.3-0.5-28.8-0.3-32.2c0.1-2.1,1.6-21.3,20.4-32l31.4-19
			c0.9-0.6,2.2-0.3,2.7,0.7c0.6,0.9,0.3,2.2-0.7,2.7l-31.4,19c-17,9.7-18.4,26.8-18.5,28.8c-0.2,3.6,0,7,0.3,31.9
			C35.2,351.3,34.3,352.2,33.2,352.2L33.2,352.2z"/>
	</g>
	<g>
		
			<ellipse transform="matrix(0.4913 -0.871 0.871 0.4913 -191.4783 209.5751)" class="st1" cx="83.7" cy="268.7" rx="4.5" ry="4.5"/>
		<path class="st1" d="M83.7,275.2c-1.1,0-2.2-0.3-3.2-0.8c-3.1-1.8-4.2-5.7-2.5-8.9c0.9-1.5,2.2-2.6,3.9-3.1s3.4-0.3,4.9,0.6
			s2.6,2.2,3.1,3.9c0.5,1.7,0.3,3.4-0.6,4.9C88.1,274,85.9,275.2,83.7,275.2z M83.7,266.2c-0.2,0-0.5,0-0.7,0.1
			c-0.6,0.2-1.2,0.6-1.5,1.2c-0.7,1.2-0.3,2.7,0.9,3.4c1.2,0.7,2.7,0.3,3.4-0.9c0.3-0.6,0.4-1.3,0.2-1.9s-0.6-1.2-1.2-1.5l0,0
			C84.5,266.3,84.1,266.2,83.7,266.2z"/>
	</g>
	<g>
		
			<ellipse transform="matrix(0.4913 -0.871 0.871 0.4913 -288.2331 206.8079)" class="st1" cx="32.9" cy="350.2" rx="4.5" ry="4.5"/>
		<path class="st1" d="M32.8,356.6c-1.1,0-2.2-0.3-3.2-0.8c-3.1-1.8-4.2-5.7-2.5-8.9c0.9-1.5,2.2-2.6,3.9-3.1
			c1.7-0.5,3.4-0.3,4.9,0.6c1.5,0.9,2.6,2.2,3.1,3.9s0.3,3.4-0.6,4.9C37.3,355.5,35.1,356.6,32.8,356.6z M32.9,347.6
			c-0.2,0-0.5,0-0.7,0.1c-0.6,0.2-1.2,0.6-1.5,1.2c-0.7,1.2-0.3,2.7,0.9,3.4c1.2,0.7,2.7,0.3,3.4-0.9c0.3-0.6,0.4-1.3,0.2-1.9
			s-0.6-1.2-1.2-1.5l0,0C33.7,347.8,33.3,347.6,32.9,347.6z"/>
	</g>
</g>
<g>
	<g>
		<path class="st1" d="M184.9,175l0.8-49.2c0-5.1,2.8-9.9,7.2-12.4l59.2-34.1c4.5-2.6,10-2.5,14.4,0l44.5,23l-1.8,3.6l-44.6-23.1
			c-3.3-1.9-7.3-1.9-10.5-0.1l-59.2,34.1c-3.2,1.8-5.2,5.3-5.2,9l-0.8,49.2H184.9z"/>
	</g>
	<g>
		
			<ellipse transform="matrix(1 -8.237327e-03 8.237327e-03 1 -1.4356 1.5447)" class="st1" cx="186.8" cy="175.1" rx="4.5" ry="4.5"/>
		<path class="st1" d="M181.1,178.2c-0.6-1-0.8-2-0.9-3.2c0-1.7,0.6-3.4,1.9-4.6c1.2-1.2,2.8-1.9,4.6-1.9c3.6,0,6.5,2.9,6.6,6.4l0,0
			c0,3.6-2.9,6.5-6.4,6.6c-1.7,0-3.4-0.6-4.6-1.9C181.8,179.2,181.4,178.7,181.1,178.2z M188.9,173.7c-0.4-0.8-1.3-1.3-2.2-1.3
			c-0.7,0-1.3,0.3-1.8,0.7c-0.5,0.5-0.7,1.1-0.7,1.8c0,0.7,0.3,1.3,0.7,1.8c0.5,0.5,1.1,0.7,1.8,0.7c1.4,0,2.5-1.1,2.5-2.5
			C189.3,174.5,189.1,174.1,188.9,173.7z"/>
	</g>
	<g>
		
			<ellipse transform="matrix(1 -8.237327e-03 8.237327e-03 1 -0.8482 2.5564)" class="st1" cx="309.9" cy="104.3" rx="4.5" ry="4.5"/>
		<path class="st1" d="M304.2,107.4c-0.5-0.9-0.9-2-0.9-3.2c0-1.7,0.6-3.4,1.9-4.6c1.2-1.2,2.8-1.9,4.6-1.9c1.7,0,3.4,0.6,4.6,1.9
			c1.2,1.2,1.9,2.8,1.9,4.6c0,3.6-2.9,6.5-6.4,6.6C307.5,110.7,305.4,109.4,304.2,107.4z M312,102.9c-0.1-0.2-0.3-0.4-0.4-0.5
			c-0.5-0.5-1.1-0.7-1.8-0.7c-0.7,0-1.3,0.3-1.8,0.7c-0.5,0.5-0.7,1.1-0.7,1.8c0,1.4,1.1,2.5,2.5,2.5s2.5-1.1,2.5-2.5
			C312.4,103.7,312.2,103.3,312,102.9z"/>
	</g>
</g>
<g>
	<path class="st3" d="M331,206.9v175.7c0,12.4,6.6,23.9,17.4,30.2l152.2,87.9c10.8,6.2,24,6.2,34.8,0l152.1-87.9
		c10.8-6.2,17.4-17.7,17.4-30.2V206.9c0-12.4-6.6-23.9-17.4-30.2L535.3,88.8c-10.8-6.2-24-6.2-34.8,0l-152.1,88
		C337.6,183,331,194.5,331,206.9z"/>
</g>
<g>
	<path class="st4" d="M316.6,552.7v47.1c0,4.7,2.5,9.1,6.6,11.5l40.8,23.6c4.1,2.4,9.2,2.4,13.3,0l40.8-23.6
		c4.1-2.4,6.6-6.7,6.6-11.5v-47.1c0-4.7-2.5-9.1-6.6-11.5l-40.8-23.6c-4.1-2.4-9.2-2.4-13.3,0l-40.8,23.6
		C319.1,543.6,316.6,547.9,316.6,552.7z"/>
	<path class="st5" d="M316.6,552.7v47.1c0,4.7,2.5,9.1,6.6,11.5l40.8,23.6c4.1,2.4,9.2,2.4,13.3,0l40.8-23.6
		c4.1-2.4,6.6-6.7,6.6-11.5v-47.1c0-4.7-2.5-9.1-6.6-11.5l-40.8-23.6c-4.1-2.4-9.2-2.4-13.3,0l-40.8,23.6
		C319.1,543.6,316.6,547.9,316.6,552.7z"/>
</g>
<g>
	<path class="st4" d="M94.5,404.9V452c0,4.7,2.5,9.1,6.6,11.5l40.8,23.6c4.1,2.4,9.2,2.4,13.3,0l40.8-23.6c4.1-2.4,6.6-6.7,6.6-11.5
		v-47.1c0-4.7-2.5-9.1-6.6-11.5l-40.8-23.6c-4.1-2.4-9.2-2.4-13.3,0l-40.8,23.6C97,395.8,94.5,400.2,94.5,404.9z"/>
	<path class="st5" d="M94.5,404.9V452c0,4.7,2.5,9.1,6.6,11.5l40.8,23.6c4.1,2.4,9.2,2.4,13.3,0l40.8-23.6c4.1-2.4,6.6-6.7,6.6-11.5
		v-47.1c0-4.7-2.5-9.1-6.6-11.5l-40.8-23.6c-4.1-2.4-9.2-2.4-13.3,0l-40.8,23.6C97,395.8,94.5,400.2,94.5,404.9z"/>
</g>
<g>
	<path class="st4" d="M52.4,319.5v29.6c0,4.7,2.5,9.1,6.6,11.5l25.7,14.8c4.1,2.4,9.2,2.4,13.3,0l25.7-14.8
		c4.1-2.4,6.6-6.7,6.6-11.5v-29.6c0-4.7-2.5-9.1-6.6-11.5L98,293.2c-4.1-2.4-9.2-2.4-13.3,0L59,308C55,310.4,52.4,314.8,52.4,319.5z
		"/>
	<path class="st6" d="M52.4,319.5v29.6c0,4.7,2.5,9.1,6.6,11.5l25.7,14.8c4.1,2.4,9.2,2.4,13.3,0l25.7-14.8
		c4.1-2.4,6.6-6.7,6.6-11.5v-29.6c0-4.7-2.5-9.1-6.6-11.5L98,293.2c-4.1-2.4-9.2-2.4-13.3,0L59,308C55,310.4,52.4,314.8,52.4,319.5z
		"/>
</g>
<g class="st7">
	<path class="st4" d="M395.3,215.3c0,3-0.9,5.2-2.8,6.8c-1.8,1.6-4.5,2.3-7.9,2.3h-2.5v9.8h-5.8v-27.4h8.8c3.3,0,5.9,0.7,7.6,2.1
		C394.4,210.4,395.3,212.5,395.3,215.3z M382.1,219.7h1.9c1.8,0,3.1-0.4,4-1.1c0.9-0.7,1.3-1.7,1.3-3.1c0-1.4-0.4-2.4-1.1-3
		c-0.7-0.7-1.9-1-3.5-1h-2.6V219.7z"/>
	<path class="st4" d="M419.4,234.2h-5.7V222c0-3-1.1-4.5-3.4-4.5c-1.6,0-2.8,0.5-3.5,1.6c-0.7,1.1-1.1,2.9-1.1,5.3v9.9H400V205h5.7
		v6c0,0.5,0,1.6-0.1,3.3l-0.1,1.7h0.3c1.3-2.1,3.3-3.1,6.1-3.1c2.5,0,4.3,0.7,5.6,2c1.3,1.3,1.9,3.2,1.9,5.7V234.2z"/>
	<path class="st4" d="M422.3,213.2h6.3l4,11.8c0.3,1,0.6,2.2,0.7,3.6h0.1c0.1-1.3,0.4-2.5,0.8-3.6l3.9-11.8h6.1l-8.9,23.7
		c-0.8,2.2-2,3.8-3.5,4.9c-1.5,1.1-3.3,1.6-5.3,1.6c-1,0-2-0.1-2.9-0.3v-4.5c0.7,0.2,1.4,0.2,2.3,0.2c1,0,1.9-0.3,2.7-0.9
		c0.8-0.6,1.3-1.6,1.8-2.8l0.3-1L422.3,213.2z"/>
	<path class="st4" d="M461.8,228c0,2.2-0.7,3.8-2.2,4.9s-3.7,1.7-6.7,1.7c-1.5,0-2.8-0.1-3.9-0.3c-1.1-0.2-2.1-0.5-3-0.9v-4.7
		c1.1,0.5,2.3,0.9,3.6,1.3s2.5,0.5,3.5,0.5c2.1,0,3.1-0.6,3.1-1.8c0-0.5-0.1-0.8-0.4-1.1c-0.3-0.3-0.8-0.6-1.4-1s-1.6-0.8-2.7-1.2
		c-1.6-0.7-2.8-1.3-3.6-1.9c-0.8-0.6-1.3-1.2-1.7-2s-0.5-1.7-0.5-2.7c0-1.9,0.7-3.3,2.2-4.3c1.4-1,3.5-1.5,6.1-1.5
		c2.5,0,5,0.6,7.4,1.7l-1.7,4.1c-1.1-0.5-2-0.8-2.9-1.1c-0.9-0.3-1.8-0.4-2.8-0.4c-1.7,0-2.5,0.5-2.5,1.4c0,0.5,0.3,1,0.8,1.3
		c0.5,0.4,1.7,0.9,3.6,1.7c1.6,0.7,2.8,1.3,3.6,1.9c0.8,0.6,1.3,1.2,1.7,2C461.6,226.1,461.8,227,461.8,228z"/>
	<path class="st4" d="M466,207.8c0-1.9,1-2.8,3.1-2.8c2.1,0,3.1,0.9,3.1,2.8c0,0.9-0.3,1.6-0.8,2.1c-0.5,0.5-1.3,0.7-2.3,0.7
		C467,210.6,466,209.7,466,207.8z M472,234.2h-5.7v-21h5.7V234.2z"/>
	<path class="st4" d="M486.5,234.6c-6.5,0-9.8-3.6-9.8-10.8c0-3.6,0.9-6.3,2.7-8.2c1.8-1.9,4.3-2.8,7.6-2.8c2.4,0,4.6,0.5,6.5,1.4
		l-1.7,4.4c-0.9-0.4-1.7-0.7-2.5-0.9c-0.8-0.2-1.6-0.3-2.3-0.3c-3,0-4.5,2.1-4.5,6.3c0,4.1,1.5,6.2,4.5,6.2c1.1,0,2.1-0.1,3.1-0.4
		s1.9-0.8,2.8-1.4v4.9c-0.9,0.6-1.9,1-2.8,1.2C489.1,234.5,487.9,234.6,486.5,234.6z"/>
	<path class="st4" d="M511.1,234.2l-1.1-2.9h-0.1c-1,1.2-2,2.1-3,2.5c-1,0.5-2.3,0.7-4,0.7c-2,0-3.6-0.6-4.8-1.7
		c-1.2-1.2-1.7-2.8-1.7-4.9c0-2.2,0.8-3.9,2.3-4.9c1.6-1.1,3.9-1.6,7-1.8l3.6-0.1v-0.9c0-2.1-1.1-3.2-3.3-3.2
		c-1.7,0-3.6,0.5-5.9,1.5l-1.9-3.9c2.4-1.3,5.1-1.9,8-1.9c2.8,0,5,0.6,6.5,1.8c1.5,1.2,2.3,3.1,2.3,5.6v14H511.1z M509.4,224.5
		l-2.2,0.1c-1.7,0-2.9,0.4-3.7,0.9c-0.8,0.6-1.2,1.4-1.2,2.5c0,1.6,0.9,2.4,2.8,2.4c1.3,0,2.4-0.4,3.2-1.1c0.8-0.8,1.2-1.8,1.2-3
		V224.5z"/>
	<path class="st4" d="M526.7,234.2H521V205h5.7V234.2z"/>
	<path class="st4" d="M559.3,226.6c0,2.5-0.9,4.4-2.7,5.9c-1.8,1.4-4.3,2.1-7.4,2.1c-2.9,0-5.5-0.5-7.8-1.7v-5.4
		c1.9,0.8,3.4,1.4,4.7,1.7s2.5,0.5,3.5,0.5c1.3,0,2.3-0.2,2.9-0.7c0.7-0.5,1-1.2,1-2.2c0-0.5-0.1-1-0.5-1.4
		c-0.3-0.4-0.7-0.8-1.3-1.2c-0.6-0.4-1.8-1-3.6-1.9c-1.7-0.8-2.9-1.5-3.8-2.3c-0.8-0.7-1.5-1.6-2-2.5c-0.5-1-0.8-2.1-0.8-3.4
		c0-2.4,0.8-4.3,2.5-5.7c1.6-1.4,3.9-2.1,6.8-2.1c1.4,0,2.8,0.2,4.1,0.5c1.3,0.3,2.6,0.8,4.1,1.4l-1.9,4.5c-1.5-0.6-2.7-1-3.6-1.3
		s-1.9-0.4-2.8-0.4c-1.1,0-1.9,0.3-2.5,0.8c-0.6,0.5-0.9,1.2-0.9,2c0,0.5,0.1,1,0.4,1.3c0.2,0.4,0.6,0.8,1.1,1.1s1.7,1,3.7,1.9
		c2.6,1.2,4.3,2.5,5.3,3.7C558.8,223.3,559.3,224.8,559.3,226.6z"/>
	<path class="st4" d="M573.3,234.6c-3.4,0-6-0.9-7.9-2.8c-1.9-1.9-2.9-4.5-2.9-7.9c0-3.5,0.9-6.2,2.6-8.2c1.8-1.9,4.2-2.9,7.3-2.9
		c3,0,5.3,0.8,6.9,2.5c1.7,1.7,2.5,4,2.5,7v2.8h-13.5c0.1,1.6,0.5,2.9,1.4,3.8s2.2,1.4,3.8,1.4c1.3,0,2.5-0.1,3.6-0.4
		s2.3-0.7,3.5-1.3v4.4c-1,0.5-2.1,0.9-3.2,1.1C576.4,234.5,575,234.6,573.3,234.6z M572.5,216.9c-1.2,0-2.2,0.4-2.9,1.2
		c-0.7,0.8-1.1,1.9-1.2,3.3h8c0-1.4-0.4-2.5-1.1-3.3C574.7,217.3,573.7,216.9,572.5,216.9z"/>
	<path class="st4" d="M598.3,212.8c0.8,0,1.4,0.1,1.9,0.2l-0.4,5.4c-0.5-0.1-1-0.2-1.7-0.2c-1.8,0-3.3,0.5-4.3,1.4s-1.5,2.3-1.5,3.9
		v10.7h-5.7v-21h4.3l0.8,3.5h0.3c0.7-1.2,1.5-2.1,2.6-2.8C595.8,213.2,597,212.8,598.3,212.8z"/>
	<path class="st4" d="M609,234.2l-8-21h6l4.1,12c0.5,1.5,0.7,2.9,0.8,4.3h0.1c0.1-1.2,0.3-2.6,0.8-4.3l4-12h6l-8,21H609z"/>
	<path class="st4" d="M635.4,234.6c-3.4,0-6-0.9-7.9-2.8c-1.9-1.9-2.9-4.5-2.9-7.9c0-3.5,0.9-6.2,2.6-8.2c1.8-1.9,4.2-2.9,7.3-2.9
		c3,0,5.3,0.8,6.9,2.5c1.7,1.7,2.5,4,2.5,7v2.8h-13.5c0.1,1.6,0.5,2.9,1.4,3.8c0.9,0.9,2.2,1.4,3.8,1.4c1.3,0,2.5-0.1,3.6-0.4
		s2.3-0.7,3.5-1.3v4.4c-1,0.5-2.1,0.9-3.2,1.1C638.4,234.5,637,234.6,635.4,234.6z M634.6,216.9c-1.2,0-2.2,0.4-2.9,1.2
		s-1.1,1.9-1.2,3.3h8c0-1.4-0.4-2.5-1.1-3.3S635.8,216.9,634.6,216.9z"/>
	<path class="st4" d="M660.3,212.8c0.8,0,1.4,0.1,1.9,0.2l-0.4,5.4c-0.5-0.1-1-0.2-1.7-0.2c-1.8,0-3.3,0.5-4.3,1.4s-1.5,2.3-1.5,3.9
		v10.7h-5.7v-21h4.3l0.8,3.5h0.3c0.7-1.2,1.5-2.1,2.6-2.8C657.8,213.2,659,212.8,660.3,212.8z"/>
</g>
<g>
	<g class="st7">
		<path class="st2" d="M400.8,369.2c-1.7,0-3,0.6-3.9,1.9c-0.9,1.3-1.4,3-1.4,5.2c0,4.7,1.7,7,5.2,7c1.5,0,3.2-0.4,5.3-1.1v3.7
			c-1.7,0.7-3.6,1.1-5.7,1.1c-3,0-5.4-0.9-7-2.8c-1.6-1.8-2.4-4.5-2.4-7.9c0-2.2,0.4-4.1,1.2-5.7s1.9-2.9,3.4-3.8s3.2-1.3,5.2-1.3
			c2,0,4.1,0.5,6.1,1.5l-1.4,3.6c-0.8-0.4-1.6-0.7-2.4-1C402.3,369.4,401.5,369.2,400.8,369.2z"/>
		<path class="st2" d="M424.9,372.3c0,2.2-0.7,4-2.1,5.2c-1.4,1.2-3.4,1.8-6,1.8H415v7.4h-4.4v-20.9h6.7c2.5,0,4.5,0.5,5.8,1.6
			S424.9,370.2,424.9,372.3z M415,375.6h1.5c1.4,0,2.4-0.3,3.1-0.8c0.7-0.5,1-1.3,1-2.3c0-1-0.3-1.8-0.8-2.3
			c-0.6-0.5-1.5-0.7-2.7-0.7h-2V375.6z"/>
		<path class="st2" d="M445.9,365.8v13.5c0,1.5-0.3,2.9-1,4.1c-0.7,1.2-1.7,2-3,2.7c-1.3,0.6-2.8,0.9-4.6,0.9
			c-2.7,0-4.8-0.7-6.2-2.1c-1.5-1.4-2.2-3.3-2.2-5.6v-13.4h4.4v12.8c0,1.6,0.3,2.8,1,3.5c0.6,0.8,1.7,1.1,3.2,1.1
			c1.4,0,2.5-0.4,3.1-1.1c0.7-0.8,1-1.9,1-3.6v-12.7H445.9z"/>
	</g>
	<g class="st7">
		<path class="st0" d="M497,378.7v8h-4.4v-20.9h6.1c2.8,0,4.9,0.5,6.3,1.5c1.4,1,2,2.6,2,4.7c0,1.2-0.3,2.3-1,3.3s-1.6,1.7-2.9,2.2
			c3.1,4.7,5.2,7.7,6.1,9.1h-4.9l-5-8H497z M497,375.1h1.4c1.4,0,2.4-0.2,3.1-0.7c0.7-0.5,1-1.2,1-2.2c0-1-0.3-1.7-1-2.1
			c-0.7-0.4-1.7-0.6-3.2-0.6H497V375.1z"/>
		<path class="st0" d="M524.6,386.7l-1.5-5h-7.6l-1.5,5h-4.8l7.4-20.9h5.4l7.4,20.9H524.6z M522.1,378c-1.4-4.5-2.2-7-2.4-7.6
			s-0.3-1.1-0.4-1.4c-0.3,1.2-1.2,4.2-2.7,9H522.1z"/>
		<path class="st0" d="M540.9,386.7l-5-16.4h-0.1c0.2,3.3,0.3,5.5,0.3,6.7v9.7h-4v-20.9h6l4.9,16h0.1l5.2-16h6v20.9h-4.1v-9.9
			c0-0.5,0-1,0-1.6s0.1-2.2,0.2-4.9h-0.1l-5.4,16.3H540.9z"/>
	</g>
	<g class="st7">
		<path class="st1" d="M611.5,386.7h-4.4v-9h-8.3v9h-4.4v-20.9h4.4v8.2h8.3v-8.2h4.4V386.7z"/>
		<path class="st1" d="M634.1,376.1c0,3.4-1,6.1-2.9,7.9c-2,1.8-4.8,2.7-8.5,2.7h-5.9v-20.9h6.5c3.4,0,6,0.9,7.9,2.7
			C633.1,370.3,634.1,372.8,634.1,376.1z M629.5,376.2c0-4.5-2-6.7-5.9-6.7h-2.4V383h1.9C627.4,383,629.5,380.8,629.5,376.2z"/>
		<path class="st1" d="M655.7,376.1c0,3.4-1,6.1-2.9,7.9c-2,1.8-4.8,2.7-8.5,2.7h-5.9v-20.9h6.5c3.4,0,6,0.9,7.9,2.7
			C654.8,370.3,655.7,372.8,655.7,376.1z M651.1,376.2c0-4.5-2-6.7-5.9-6.7h-2.4V383h1.9C649,383,651.1,380.8,651.1,376.2z"/>
	</g>
	<g id="Devices-_x28_Stroke_x29_" transform="translate(-498.000000, -1098.000000)">
		<g id="_x35_3-devices-chip-cpu-processor" transform="translate(500.000000, 1100.000000)">
			<g id="Layer-1">
				<path class="st2" d="M432.7,339.3h-36.5c-3,0-5.4-2.4-5.4-5.4v-36.5c0-3,2.4-5.4,5.4-5.4h36.5c3,0,5.4,2.4,5.4,5.4v36.5
					C438.1,336.9,435.7,339.3,432.7,339.3z M396.2,295.3c-1.2,0-2.1,1-2.1,2.1v36.5c0,1.2,1,2.1,2.1,2.1h36.5c1.2,0,2.1-1,2.1-2.1
					v-36.5c0-1.2-1-2.1-2.1-2.1L396.2,295.3L396.2,295.3z"/>
			</g>
			<g id="Layer-2">
				<path class="st2" d="M392.4,304.7H383c-0.9,0-1.7-0.7-1.7-1.7s0.7-1.7,1.7-1.7h9.4c0.9,0,1.7,0.7,1.7,1.7
					S393.3,304.7,392.4,304.7z"/>
			</g>
			<g id="Layer-3">
				<path class="st2" d="M392.4,313.5H383c-0.9,0-1.7-0.7-1.7-1.7s0.7-1.7,1.7-1.7h9.4c0.9,0,1.7,0.7,1.7,1.7
					S393.3,313.5,392.4,313.5z"/>
			</g>
			<g id="Layer-4">
				<path class="st2" d="M392.4,321.7H383c-0.9,0-1.7-0.7-1.7-1.7s0.7-1.7,1.7-1.7h9.4c0.9,0,1.7,0.7,1.7,1.7
					S393.3,321.7,392.4,321.7z"/>
			</g>
			<g id="Layer-5">
				<path class="st2" d="M392.4,329.9H383c-0.9,0-1.7-0.7-1.7-1.7s0.7-1.7,1.7-1.7h9.4c0.9,0,1.7,0.7,1.7,1.7
					S393.3,329.9,392.4,329.9z"/>
			</g>
			<g id="Layer-6">
				<path class="st2" d="M445.9,304.7h-9.4c-0.9,0-1.7-0.7-1.7-1.7s0.7-1.7,1.7-1.7h9.4c0.9,0,1.7,0.7,1.7,1.7
					S446.8,304.7,445.9,304.7z"/>
			</g>
			<g id="Layer-7">
				<path class="st2" d="M445.9,313.5h-9.4c-0.9,0-1.7-0.7-1.7-1.7s0.7-1.7,1.7-1.7h9.4c0.9,0,1.7,0.7,1.7,1.7
					S446.8,313.5,445.9,313.5z"/>
			</g>
			<g id="Layer-8">
				<path class="st2" d="M445.9,321.7h-9.4c-0.9,0-1.7-0.7-1.7-1.7s0.7-1.7,1.7-1.7h9.4c0.9,0,1.7,0.7,1.7,1.7
					S446.8,321.7,445.9,321.7z"/>
			</g>
			<g id="Layer-9">
				<path class="st2" d="M445.9,329.9h-9.4c-0.9,0-1.7-0.7-1.7-1.7s0.7-1.7,1.7-1.7h9.4c0.9,0,1.7,0.7,1.7,1.7
					S446.8,329.9,445.9,329.9z"/>
			</g>
			<g id="Layer-10">
				<path class="st2" d="M427,348.8c-0.9,0-1.7-0.7-1.7-1.7v-9.4c0-0.9,0.7-1.7,1.7-1.7c0.9,0,1.7,0.7,1.7,1.7v9.4
					C428.7,348,427.9,348.8,427,348.8z"/>
			</g>
			<g id="Layer-11">
				<path class="st2" d="M418.2,348.8c-0.9,0-1.7-0.7-1.7-1.7v-9.4c0-0.9,0.7-1.7,1.7-1.7c0.9,0,1.7,0.7,1.7,1.7v9.4
					C419.9,348,419.1,348.8,418.2,348.8z"/>
			</g>
			<g id="Layer-12">
				<path class="st2" d="M410,348.8c-0.9,0-1.7-0.7-1.7-1.7v-9.4c0-0.9,0.7-1.7,1.7-1.7c0.9,0,1.7,0.7,1.7,1.7v9.4
					C411.7,348,410.9,348.8,410,348.8z"/>
			</g>
			<g id="Layer-13">
				<path class="st2" d="M401.9,348.8c-0.9,0-1.7-0.7-1.7-1.7v-9.4c0-0.9,0.7-1.7,1.7-1.7s1.7,0.7,1.7,1.7v9.4
					C403.5,348,402.8,348.8,401.9,348.8z"/>
			</g>
			<g id="Layer-14">
				<path class="st2" d="M427,295.3c-0.9,0-1.7-0.7-1.7-1.7v-9.4c0-0.9,0.7-1.7,1.7-1.7c0.9,0,1.7,0.7,1.7,1.7v9.4
					C428.7,294.5,427.9,295.3,427,295.3z"/>
			</g>
			<g id="Layer-15">
				<path class="st2" d="M418.2,295.3c-0.9,0-1.7-0.7-1.7-1.7v-9.4c0-0.9,0.7-1.7,1.7-1.7c0.9,0,1.7,0.7,1.7,1.7v9.4
					C419.9,294.5,419.1,295.3,418.2,295.3z"/>
			</g>
			<g id="Layer-16">
				<path class="st2" d="M410,295.3c-0.9,0-1.7-0.7-1.7-1.7v-9.4c0-0.9,0.7-1.7,1.7-1.7c0.9,0,1.7,0.7,1.7,1.7v9.4
					C411.7,294.5,410.9,295.3,410,295.3z"/>
			</g>
			<g id="Layer-17">
				<path class="st2" d="M401.9,295.3c-0.9,0-1.7-0.7-1.7-1.7v-9.4c0-0.9,0.7-1.7,1.7-1.7s1.7,0.7,1.7,1.7v9.4
					C403.5,294.5,402.8,295.3,401.9,295.3z"/>
			</g>
			<g id="Layer-18">
				<path class="st2" d="M427.7,332.4h-26.4c-2,0-3.5-1.6-3.5-3.5v-26.4c0-2,1.6-3.5,3.5-3.5h26.4c2,0,3.5,1.6,3.5,3.5v26.3
					C431.2,330.8,429.6,332.4,427.7,332.4z M401.2,302.2c-0.1,0-0.2,0.1-0.2,0.2v26.4c0,0.1,0.1,0.2,0.2,0.2h26.5
					c0.1,0,0.2-0.1,0.2-0.2v-26.4c0-0.1-0.1-0.2-0.2-0.2H401.2z"/>
			</g>
			<g id="Layer-19">
				<path class="st2" d="M420.7,319.8h-12.6c-0.9,0-1.7-0.7-1.7-1.7s0.7-1.7,1.7-1.7h12.6c0.9,0,1.7,0.7,1.7,1.7
					S421.6,319.8,420.7,319.8z"/>
			</g>
			<g id="Layer-20">
				<path class="st2" d="M417.6,314.8h-6.3c-0.9,0-1.7-0.7-1.7-1.7s0.7-1.7,1.7-1.7h6.3c0.9,0,1.7,0.7,1.7,1.7
					S418.5,314.8,417.6,314.8z"/>
			</g>
		</g>
	</g>
	<g>
		<g>
			<g>
				<path class="st0" d="M504.7,311.1h-7.5v13h8.7v-13H504.7z M503.5,313.5v8.3h-4v-8.3H503.5z"/>
			</g>
			<g>
				<path class="st0" d="M496.8,324.4v-13.6h9.4v13.6H496.8z M497.5,311.5v12.3h8v-12.3H497.5z M499.2,322.1v-8.9h4.7v8.9H499.2z
					 M499.8,313.8v7.6h3.4v-7.6H499.8z"/>
			</g>
		</g>
		<g>
			<g>
				<path class="st0" d="M542.8,311.1h-7.5v13h8.7v-13H542.8z M541.7,313.5v8.3h-4v-8.3H541.7z"/>
			</g>
			<g>
				<path class="st0" d="M535,324.4v-13.6h9.4v13.6H535z M535.7,311.5v12.3h8v-12.3H535.7z M537.3,322.1v-8.9h4.7v8.9H537.3z
					 M538,313.8v7.6h3.4v-7.6H538z"/>
			</g>
		</g>
		<g>
			<g>
				<path class="st0" d="M553.5,333.5v-12.7h-1.1c-0.1,0-0.2,0-0.3,0s-0.2,0-0.3,0l0,0c-0.1,0-0.2,0-0.3-0.1c-0.1,0-0.2-0.1-0.3-0.1
					s-0.2-0.1-0.3-0.1l0,0c-0.1,0-0.2-0.1-0.3-0.2s-0.2-0.1-0.2-0.2l0,0c-0.1-0.1-0.1-0.1-0.2-0.2c-0.1-0.1-0.1-0.2-0.2-0.2
					c-0.1-0.1-0.1-0.2-0.2-0.2l0,0c-0.1-0.1-0.1-0.2-0.2-0.3c0-0.1-0.1-0.2-0.1-0.3c0-0.1-0.1-0.2-0.1-0.3l0,0l0,0
					c0-0.1,0-0.2-0.1-0.3s0-0.2,0-0.3v-0.3v-0.3c0-0.2,0-0.3,0.1-0.4l0,0l0,0c0-0.1,0-0.2,0.1-0.3c0-0.1,0.1-0.2,0.1-0.3
					c0-0.1,0.1-0.2,0.1-0.3l0,0l0,0c0-0.1,0.1-0.2,0.2-0.3l0,0c0-0.1,0.1-0.2,0.2-0.2c0.1-0.1,0.1-0.2,0.2-0.2
					c0.1-0.1,0.1-0.1,0.2-0.2l0,0c0.1-0.1,0.2-0.1,0.2-0.2l0,0l0,0c0.1-0.1,0.2-0.1,0.3-0.2l0,0c0.1,0,0.2-0.1,0.3-0.1l0,0
					c0.1,0,0.2-0.1,0.3-0.1l0,0c0.1,0,0.2,0,0.3-0.1c0.1,0,0.2,0,0.3,0s0.1,0,0.2,0h1.1V308l0,0v-10.6h-1.1h-5.2v2.8h-53.3v-2.8
					h-6.2V308l0,0v6.5h1c0.1,0,0.2,0,0.3,0s0.2,0,0.3,0l0,0c0.1,0,0.2,0,0.3,0.1c0.1,0,0.2,0.1,0.3,0.1s0.2,0.1,0.3,0.1l0,0
					c0.1,0,0.2,0.1,0.3,0.2l0,0c0.1,0.1,0.2,0.1,0.3,0.2s0.1,0.1,0.2,0.2c0.1,0.1,0.1,0.1,0.2,0.2l0,0c0.1,0.1,0.1,0.2,0.2,0.2l0,0
					c0.1,0.1,0.1,0.2,0.2,0.3c0,0.1,0.1,0.2,0.1,0.3c0,0.1,0.1,0.2,0.1,0.3l0,0l0,0c0,0.1,0,0.2,0.1,0.3c0,0.1,0,0.2,0,0.3v0.2v0.3
					c0,0.2,0,0.3-0.1,0.4c0,0.1,0,0.2-0.1,0.3l0,0l0,0c0,0.1-0.1,0.2-0.1,0.3c0,0.1-0.1,0.2-0.1,0.3l0,0l0,0c0,0.1-0.1,0.2-0.2,0.3
					l0,0c-0.1,0.1-0.1,0.2-0.2,0.2c-0.1,0.1-0.1,0.2-0.2,0.2c-0.1,0.1-0.2,0.1-0.2,0.2c-0.1,0.1-0.2,0.1-0.3,0.2l0,0l0,0
					c-0.1,0.1-0.2,0.1-0.3,0.2c-0.1,0-0.2,0.1-0.3,0.1s-0.2,0.1-0.3,0.1l0,0c-0.1,0-0.2,0-0.3,0.1c-0.1,0-0.2,0-0.3,0s-0.1,0-0.2,0
					h-1v12.8c0,2.3,1.9,4.2,4.2,4.2h57.3C551.6,337.8,553.5,335.9,553.5,333.5z M489.8,305.9v-6.4h2v2.8h57.6v-2.8h2v6.4H489.8z
					 M540.7,335.6v-8.5h-2.1v8.5h-4.2v-8.5h-2.1v8.5h-4.2v-8.5H526v8.5h-4.2v-8.5h-2.1v8.5h-4.2v-8.5h-2.1v8.5h-4.2v-8.5h-2.1v8.5
					h-4.2v-8.4h-2.1v8.4h-8.5c-1.2,0-2.1-0.9-2.1-2.1v-10.8c0.1,0,0.2,0,0.3-0.1l0,0c0.2,0,0.3-0.1,0.5-0.2s0.3-0.1,0.5-0.2
					c0.1-0.1,0.3-0.2,0.4-0.3c0.2-0.1,0.3-0.2,0.4-0.3l0,0l0,0c0.1-0.1,0.3-0.2,0.4-0.3l0,0c0.1-0.1,0.2-0.3,0.4-0.4l0,0l0,0
					c0.1-0.1,0.2-0.3,0.3-0.4l0,0c0.1-0.1,0.2-0.3,0.3-0.4c0.1-0.2,0.2-0.3,0.2-0.5l0,0l0,0c0.1-0.2,0.1-0.3,0.2-0.5l0,0
					c0.1-0.2,0.1-0.3,0.1-0.5l0,0l0,0c0-0.2,0.1-0.4,0.1-0.4l0,0c0-0.2,0-0.4,0-0.6v-0.3v-0.1c0-0.2,0-0.4-0.1-0.5
					c0-0.2-0.1-0.3-0.1-0.5l0,0l0,0c0-0.2-0.1-0.3-0.2-0.5l0,0l0,0c-0.1-0.2-0.1-0.3-0.2-0.5l0,0c-0.1-0.2-0.2-0.3-0.3-0.4
					s-0.2-0.3-0.3-0.4l0,0c-0.1-0.1-0.2-0.3-0.3-0.4l0,0c-0.1-0.1-0.2-0.2-0.4-0.4c-0.1-0.1-0.3-0.2-0.4-0.3
					c-0.1-0.1-0.3-0.2-0.4-0.3c-0.2-0.1-0.3-0.2-0.5-0.2l0,0c-0.2-0.1-0.3-0.1-0.5-0.2l0,0c-0.2,0-0.3-0.1-0.5-0.1V308h61.5l0,0v4.5
					c-0.1,0-0.2,0-0.3,0.1l0,0c-0.2,0-0.3,0.1-0.5,0.2s-0.3,0.1-0.5,0.2c-0.1,0.1-0.3,0.2-0.4,0.3c-0.1,0.1-0.3,0.2-0.4,0.3l0,0l0,0
					c-0.1,0.1-0.3,0.2-0.4,0.3c-0.1,0.1-0.2,0.3-0.4,0.4l0,0c-0.1,0.1-0.2,0.3-0.3,0.4s-0.2,0.3-0.3,0.4c-0.1,0.2-0.2,0.3-0.2,0.5
					l0,0l0,0c-0.1,0.2-0.1,0.3-0.2,0.5c-0.1,0.2-0.1,0.3-0.1,0.5s-0.1,0.4-0.1,0.4l0,0c0,0.2,0,0.4,0,0.6v0.3l0,0
					c0,0.2,0,0.4,0.1,0.5c0,0.2,0.1,0.3,0.1,0.5s0.1,0.3,0.2,0.5l0,0l0,0c0.1,0.2,0.1,0.3,0.2,0.5l0,0c0.1,0.2,0.2,0.3,0.3,0.4
					s0.2,0.3,0.3,0.4l0,0l0,0c0.1,0.1,0.2,0.3,0.3,0.4l0,0c0.1,0.1,0.2,0.2,0.4,0.4c0.1,0.1,0.3,0.2,0.4,0.3
					c0.1,0.1,0.3,0.2,0.4,0.3c0.2,0.1,0.3,0.2,0.5,0.2l0,0c0.2,0.1,0.3,0.1,0.5,0.2l0,0c0.2,0,0.3,0.1,0.5,0.1v10.8
					c0,1.2-0.9,2.1-2.1,2.1L540.7,335.6z"/>
			</g>
			<g>
				<path class="st0" d="M487.4,308.1v-11h6.9v2.8H547v-2.8h6.9v11.3l0,0v6.5h-1.4c-0.1,0-0.1,0-0.2,0c-0.1,0-0.2,0-0.3,0h-0.1h-0.1
					c-0.1,0-0.1,0-0.2,0.1h-0.1c-0.1,0-0.1,0-0.2,0.1h-0.1c0,0-0.1,0-0.1,0.1l-0.1,0.1c-0.1,0-0.1,0.1-0.2,0.2h-0.1
					c-0.1,0-0.1,0.1-0.2,0.1c-0.1,0.1-0.1,0.1-0.2,0.2c0,0.1-0.1,0.1-0.1,0.2v0.1c0,0.1-0.1,0.1-0.1,0.2v0.1c0,0.1-0.1,0.2-0.1,0.2
					c0,0.1-0.1,0.2-0.1,0.3c0,0.1,0,0.1,0,0.2v0.1v0.1v0.2v0.5c0,0.1,0,0.1,0,0.2s0,0.2,0.1,0.3v0.1c0,0.1,0,0.2,0.1,0.2
					c0,0.1,0.1,0.2,0.1,0.2c0,0.1,0.1,0.2,0.1,0.2l0.1,0.1l0.1,0.1c0.1,0.1,0.1,0.1,0.2,0.2c0.1,0.1,0.1,0.1,0.2,0.2l0.1,0.1
					l0.1,0.1c0.1,0,0.2,0.1,0.2,0.1l0.1,0.1c0,0,0.1,0,0.1,0.1c0.1,0,0.2,0.1,0.3,0.1s0.2,0,0.3,0.1h0.2h0.1c0.1,0,0.2,0,0.3,0h1.4
					v13.1c0,1.2-0.5,2.4-1.4,3.2c-0.9,0.9-2,1.4-3.2,1.4h-57.3c-2.5,0-4.6-2.1-4.6-4.6v-13.1h1.5c0.1,0,0.1,0,0.2,0
					c0.1,0,0.2,0,0.3,0s0.1,0,0.2,0h0.1c0.1,0,0.2,0,0.3-0.1c0.1,0,0.2-0.1,0.2-0.1s0.1,0,0.1-0.1l0.1-0.1c0.1,0,0.1-0.1,0.2-0.2
					c0.1-0.1,0.1-0.1,0.2-0.2c0.1-0.1,0.1-0.1,0.2-0.2c0-0.1,0.1-0.1,0.1-0.2l0,0c0-0.1,0.1-0.1,0.1-0.2V319c0-0.1,0.1-0.2,0.1-0.3
					c0-0.1,0.1-0.1,0.1-0.2v-0.1c0-0.1,0-0.2,0.1-0.2c0,0,0,0,0-0.1s0-0.1,0-0.2v-0.5c0-0.1,0-0.1,0-0.2s0-0.2-0.1-0.3v-0.1
					c0-0.1,0-0.1-0.1-0.2c0-0.1-0.1-0.2-0.1-0.2c0-0.1-0.1-0.2-0.1-0.2l-0.1-0.1c0-0.1-0.1-0.1-0.1-0.1l0,0c0-0.1-0.1-0.1-0.1-0.2
					c-0.1-0.1-0.1-0.1-0.2-0.2c-0.1-0.1-0.1-0.1-0.2-0.2l-0.1-0.1c-0.1,0-0.1-0.1-0.2-0.1l-0.1-0.1c0,0-0.1,0-0.1-0.1
					c-0.1,0-0.2-0.1-0.3-0.1s-0.2,0-0.3-0.1h-0.2h-0.1c-0.1,0-0.2,0-0.3,0h-1.4v-6.5L487.4,308.1z M488,297.8v10v0.3v6.2h0.7
					c0.1,0,0.2,0,0.3,0s0.2,0,0.3,0.1l0.3,0.1c0,0,0,0,0.1,0s0.2,0.1,0.3,0.1s0.2,0.1,0.3,0.1l0.2,0.1c0,0,0.1,0,0.1,0.1l0.1,0.1
					l0.1,0.1c0.1,0.1,0.2,0.1,0.2,0.2c0.1,0.1,0.2,0.2,0.2,0.2l0.1,0.1c0,0.1,0.1,0.1,0.1,0.2l0.1,0.1c0,0.1,0.1,0.1,0.1,0.2
					s0.1,0.2,0.1,0.3c0,0.1,0.1,0.2,0.1,0.3v0.1c0,0.1,0,0.2,0.1,0.3c0,0.1,0,0.2,0,0.3l0,0v0.5c0,0.1,0,0.2,0,0.3
					c0,0.1,0,0.1,0,0.1c0,0.1,0,0.2-0.1,0.3v0.1c0,0.1-0.1,0.2-0.1,0.3s-0.1,0.2-0.1,0.2l0,0v0.1c0,0.1-0.1,0.1-0.1,0.2l0,0
					l-0.1,0.1c-0.1,0.1-0.1,0.2-0.2,0.3c-0.1,0.1-0.2,0.2-0.2,0.2c-0.1,0.1-0.2,0.2-0.3,0.2l-0.1,0.1l0,0l-0.2,0.1
					c-0.1,0.1-0.2,0.1-0.3,0.2s-0.2,0.1-0.3,0.1h-0.1l0,0l-0.2,0.1c-0.1,0-0.2,0.1-0.3,0.1s-0.2,0-0.3,0s-0.2,0-0.2,0H488v1.8
					l1.4-0.4l0,0l0.4-0.1c0,0,0,0,0.1,0h0.1c0.2,0,0.3-0.1,0.5-0.2c0.1-0.1,0.3-0.1,0.4-0.2c0.1-0.1,0.3-0.2,0.4-0.2
					c0.1-0.1,0.2-0.1,0.3-0.2l0.1-0.1c0.1-0.1,0.2-0.2,0.3-0.3l0.1-0.1c0.1-0.1,0.2-0.2,0.3-0.3l0.1-0.1c0.1-0.1,0.2-0.2,0.2-0.3
					l0.1-0.1c0.1-0.1,0.2-0.2,0.2-0.4c0.1-0.1,0.1-0.3,0.2-0.4v-0.1c0-0.1,0.1-0.3,0.2-0.4v-0.1c0-0.1,0.1-0.3,0.1-0.4l0,0
					c0-0.1,0-0.3,0.1-0.3V318c0-0.2,0-0.4,0-0.5v-0.4c0-0.1,0-0.1,0-0.2s0-0.2,0-0.3c0-0.1-0.1-0.3-0.1-0.5V316l0,0
					c0-0.1-0.1-0.3-0.1-0.4v-0.1c-0.1-0.1-0.1-0.3-0.2-0.4V315c-0.1-0.1-0.1-0.2-0.2-0.3c-0.1-0.1-0.2-0.3-0.3-0.4l-0.1-0.1
					c-0.1-0.1-0.2-0.2-0.2-0.3l-0.1-0.1c-0.1-0.1-0.2-0.2-0.3-0.2c-0.1-0.1-0.3-0.2-0.4-0.3s-0.3-0.2-0.4-0.3
					c-0.1-0.1-0.3-0.2-0.4-0.2l-0.1-0.1c-0.1,0-0.2-0.1-0.3-0.1h-0.2c-0.1,0-0.2,0-0.3-0.1l-0.3-0.1v-5h62.2v0.3v4.2h1.4v-4.6l0,0
					v-10h-5.6v2.8h-54v-2.8L488,297.8L488,297.8L488,297.8z M488.1,323v10.5c0,2.2,1.8,3.9,3.9,3.9h57.3c1,0,2-0.4,2.7-1.2
					c0.7-0.7,1.2-1.7,1.2-2.7V321h-0.7c-0.1,0-0.2,0-0.3,0s-0.2,0-0.3-0.1l-0.3-0.1c0,0,0,0-0.1,0s-0.2-0.1-0.3-0.1
					s-0.2-0.1-0.3-0.1l-0.2-0.1l-0.1-0.1c-0.1-0.1-0.2-0.1-0.3-0.2l-0.1-0.1l-0.1-0.1c-0.1-0.1-0.2-0.2-0.2-0.3
					c-0.1-0.1-0.1-0.2-0.2-0.3l-0.1-0.1c0-0.1-0.1-0.1-0.1-0.2s-0.1-0.2-0.1-0.3c0-0.1-0.1-0.2-0.1-0.3v-0.1c0-0.1,0-0.2-0.1-0.3
					c0-0.1,0-0.2,0-0.3l0,0v-0.6V317c0-0.1,0-0.1,0-0.1v-0.1c0-0.1,0-0.2,0.1-0.2c0-0.1,0.1-0.2,0.1-0.3s0.1-0.2,0.1-0.2l0,0V316
					c0-0.1,0.1-0.1,0.1-0.2l0,0l0.1-0.1c0.1-0.1,0.1-0.2,0.2-0.3c0.1-0.1,0.2-0.2,0.2-0.3c0.1-0.1,0.2-0.1,0.2-0.2h0.1
					c0,0,0,0,0.1-0.1l0,0l0.1-0.1c0,0,0.1,0,0.1-0.1l0,0l0.2-0.1h0.1l0,0l0.2-0.1c0,0,0,0,0.1,0l0,0l0.2-0.1c0.1,0,0.2-0.1,0.3-0.1
					s0.2,0,0.3,0s0.2,0,0.2,0h0.7v-1.8l-1.4,0.4l0,0l-0.3,0.1c0,0,0,0-0.1,0H551c-0.2,0-0.3,0.1-0.5,0.2s-0.3,0.1-0.4,0.2
					c-0.1,0.1-0.3,0.1-0.4,0.2c-0.1,0.1-0.2,0.1-0.3,0.2l-0.1,0.1c-0.1,0.1-0.2,0.2-0.4,0.3c-0.1,0.1-0.2,0.2-0.3,0.3l-0.1,0.1
					c-0.1,0.1-0.2,0.3-0.3,0.4s-0.2,0.3-0.3,0.4s-0.1,0.3-0.2,0.4v0.1c-0.1,0.1-0.1,0.3-0.2,0.5c0,0.1-0.1,0.3-0.1,0.5
					c0,0.1,0,0.3-0.1,0.3v0.1c0,0.2,0,0.4,0,0.5v0.4v0.2c0,0.1,0,0.2,0,0.3c0,0.1,0.1,0.3,0.1,0.5s0.1,0.3,0.1,0.5v0.1
					c0.1,0.1,0.1,0.3,0.2,0.4v0.1c0.1,0.1,0.1,0.2,0.2,0.3c0.1,0.1,0.2,0.3,0.3,0.4l0.1,0.1c0.1,0.1,0.2,0.2,0.2,0.3l0.1,0.1
					c0.1,0.1,0.2,0.2,0.3,0.2c0.1,0.1,0.2,0.2,0.4,0.3c0.1,0.1,0.3,0.2,0.4,0.3c0.1,0.1,0.3,0.2,0.4,0.2l0.1,0.1
					c0.1,0,0.2,0.1,0.3,0.1h0.1c0.1,0,0.2,0,0.3,0.1l0.3,0.1v11c0,0.7-0.3,1.3-0.7,1.8c-0.5,0.5-1.1,0.7-1.8,0.7h-8.8v-8.5h-1.5v8.5
					h-4.9v-8.5H532v8.5h-4.9v-8.5h-1.5v8.5h-4.9v-8.5h-1v8.5H515v-8.5h-1.5v8.5h-4.9v-8.5h-1.5v8.5h-4.9v-8.4h-1.5v8.4h-8.8
					c-1.4,0-2.5-1.1-2.5-2.5v-10.5h-1.5V323H488.1z M490.1,308.4v3.9c0.1,0,0.2,0,0.2,0.1l0.2,0.1c0.1,0,0.2,0.1,0.3,0.1l0.2,0.1
					c0.1,0,0.2,0.1,0.3,0.2c0.2,0.1,0.3,0.2,0.5,0.3c0.1,0.1,0.3,0.2,0.4,0.3c0.1,0.1,0.3,0.2,0.4,0.4l0.1,0.1
					c0.1,0.1,0.2,0.2,0.3,0.3l0.1,0.1c0.1,0.1,0.2,0.2,0.3,0.4c0.1,0.2,0.2,0.3,0.3,0.5v0.1c0.1,0.1,0.1,0.3,0.2,0.4v0.1
					c0.1,0.2,0.1,0.3,0.1,0.4v0.1c0,0.2,0.1,0.3,0.1,0.5c0,0.1,0,0.2,0,0.3c0,0.1,0,0.1,0,0.2l0,0v0.4c0,0.1,0,0.3,0,0.6v0.1
					c0,0.1,0,0.2-0.1,0.3l0,0c0,0.2-0.1,0.3-0.1,0.5v0.1c0,0.2-0.1,0.3-0.2,0.4l0,0v0.1c-0.1,0.2-0.2,0.3-0.3,0.5
					c-0.1,0.1-0.1,0.3-0.2,0.4l0,0l-0.1,0.1c-0.1,0.1-0.2,0.2-0.3,0.3l0,0l-0.1,0.1c-0.1,0.1-0.2,0.2-0.3,0.3l0,0l-0.1,0.1
					c-0.1,0.1-0.2,0.2-0.3,0.3l0,0l-0.1,0.1c-0.2,0.1-0.3,0.2-0.5,0.3l0,0l-0.6,0.3c-0.1,0.1-0.2,0.1-0.3,0.2l-0.5,0.2h-0.1v10.6
					c0,1,0.8,1.8,1.8,1.8h8.1v-8.4h2.8v8.4h3.6v-8.7h2.8v8.5h3.6v-8.5h2.8v8.5h3.6v-8.5h2.8v8.5h3.6v-8.5h2.8v8.5h3.6v-8.5h2.8v8.5
					h3.6v-8.5h2.8v8.5h8.1c0.5,0,0.9-0.2,1.3-0.5c0.3-0.3,0.5-0.8,0.5-1.3V323c-0.1,0-0.2,0-0.2-0.1l-0.2-0.1
					c-0.1,0-0.2-0.1-0.3-0.1l-0.2-0.1c-0.1,0-0.2-0.1-0.3-0.2s-0.3-0.2-0.5-0.3c-0.2-0.1-0.3-0.2-0.4-0.3c-0.2-0.1-0.3-0.3-0.4-0.4
					l-0.1-0.1c-0.1-0.1-0.2-0.2-0.3-0.3l-0.1-0.1c-0.1-0.1-0.2-0.2-0.2-0.4c-0.1-0.2-0.2-0.3-0.3-0.5v-0.1c-0.1-0.2-0.1-0.3-0.2-0.4
					v-0.1c-0.1-0.2-0.1-0.3-0.1-0.5c-0.1-0.2-0.1-0.4-0.1-0.5s0-0.2,0-0.4v-0.2v-0.4c0-0.1,0-0.3,0-0.6v-0.1c0-0.1,0-0.2,0.1-0.4
					c0-0.2,0.1-0.4,0.1-0.6s0.1-0.3,0.2-0.5l0,0v-0.1c0.1-0.1,0.1-0.3,0.2-0.5c0.1-0.2,0.2-0.3,0.3-0.5c0.1-0.1,0.2-0.2,0.3-0.3l0,0
					l0.1-0.1c0.1-0.1,0.2-0.3,0.4-0.4c0.1-0.1,0.2-0.2,0.3-0.3l0,0l0.1-0.1c0.1-0.1,0.3-0.2,0.5-0.3l0,0l0.4-0.2
					c0.2-0.1,0.4-0.2,0.6-0.3l0.4-0.1h0.1v-3.9L490.1,308.4z M489.5,306.3v-7.1h2.6v2.8H549v-2.8h2.6v7.1H489.5z M490.1,299.9v5.7
					H551v-5.7h-1.3v2.8h-58.3v-2.8H490.1z"/>
			</g>
		</g>
		<g>
			<g>
				<circle class="st0" cx="494" cy="331.4" r="2.1"/>
			</g>
			<g>
				<path class="st0" d="M491.6,331.4c0-1.4,1.1-2.5,2.5-2.5s2.5,1.1,2.5,2.5c0,1.4-1.1,2.5-2.5,2.5S491.6,332.7,491.6,331.4z
					 M495.8,331.4c0-1-0.8-1.8-1.8-1.8s-1.8,0.8-1.8,1.8s0.8,1.8,1.8,1.8C495,333.2,495.8,332.4,495.8,331.4z"/>
			</g>
		</g>
		<g>
			<g>
				<path class="st0" d="M517.4,311.1h-7.5v13h8.7v-13H517.4z M516.2,313.5v8.3h-4v-8.3H516.2z"/>
			</g>
			<g>
				<path class="st0" d="M509.5,324.4v-13.6h9.4v13.6H509.5z M510.2,311.5v12.3h8v-12.3H510.2z M511.9,322.1v-8.9h4.7v8.9H511.9z
					 M512.5,313.8v7.6h3.4v-7.6H512.5z"/>
			</g>
		</g>
		<g>
			<g>
				<path class="st0" d="M530.1,311.1h-7.5v13h8.7v-13H530.1z M529,313.5v8.3h-4v-8.3H529z"/>
			</g>
			<g>
				<path class="st0" d="M522.3,324.4v-13.6h9.4v13.6H522.3z M522.9,311.5v12.3h8v-12.3H522.9z M524.6,322.1v-8.9h4.7v8.9H524.6z
					 M525.3,313.8v7.6h3.4v-7.6H525.3z"/>
			</g>
		</g>
		<g>
			<g>
				<circle class="st0" cx="547.1" cy="331.4" r="2.1"/>
			</g>
			<g>
				<path class="st0" d="M544.6,331.4c0-1.4,1.1-2.5,2.5-2.5s2.5,1.1,2.5,2.5c0,1.4-1.1,2.5-2.5,2.5
					C545.8,333.9,544.6,332.7,544.6,331.4z M548.9,331.4c0-1-0.8-1.8-1.8-1.8s-1.8,0.8-1.8,1.8s0.8,1.8,1.8,1.8
					C548.1,333.2,548.9,332.4,548.9,331.4z"/>
			</g>
		</g>
	</g>
	<g>
		<g>
			<path class="st1" d="M643.5,347.8h-42.7c-2.2,0-4-1.8-4-4v-52.3c0-2.2,1.8-4,4-4h42.8c2.2,0,4,1.8,4,4v52.3c0,0.1,0,0.3-0.1,0.4
				C647.4,346.2,645.6,347.8,643.5,347.8z M600.8,290.8c-0.4,0-0.7,0.3-0.7,0.7v52.3c0,0.4,0.3,0.7,0.7,0.7h42.7
				c0.4,0,0.7-0.3,0.7-0.7c0-0.1,0-0.2,0-0.3v-51.9c0-0.4-0.3-0.7-0.7-0.7h-42.7V290.8z"/>
		</g>
		<g>
			<path class="st1" d="M622.2,323.1c-3,0-5.5-2.5-5.5-5.5s2.5-5.5,5.5-5.5s5.5,2.5,5.5,5.5C627.6,320.6,625.2,323.1,622.2,323.1z
				 M622.2,315.5c-1.2,0-2.2,1-2.2,2.2s1,2.2,2.2,2.2s2.2-1,2.2-2.2S623.4,315.5,622.2,315.5z"/>
		</g>
		<g>
			<path class="st1" d="M640.6,296.9c-1.3,0-2.4-1.1-2.4-2.4s1.1-2.4,2.4-2.4c1.3,0,2.4,1.1,2.4,2.4
				C643,295.8,641.9,296.9,640.6,296.9z M640.6,293.7c-0.4,0-0.7,0.3-0.7,0.7c0,0.4,0.3,0.7,0.7,0.7s0.7-0.3,0.7-0.7
				C641.3,294.1,641,293.7,640.6,293.7z"/>
		</g>
		<g>
			<path class="st1" d="M603.8,296.9c-1.3,0-2.4-1.1-2.4-2.4s1.1-2.4,2.4-2.4c1.3,0,2.4,1.1,2.4,2.4
				C606.1,295.8,605.1,296.9,603.8,296.9z M603.8,293.7c-0.4,0-0.7,0.3-0.7,0.7c0,0.4,0.3,0.7,0.7,0.7s0.7-0.3,0.7-0.7
				C604.5,294.1,604.2,293.7,603.8,293.7z"/>
		</g>
		<g>
			<path class="st1" d="M640.6,343.2c-1.3,0-2.4-1.1-2.4-2.4s1.1-2.4,2.4-2.4c1.3,0,2.4,1.1,2.4,2.4S641.9,343.2,640.6,343.2z
				 M640.6,340.1c-0.4,0-0.7,0.3-0.7,0.7s0.3,0.7,0.7,0.7s0.7-0.3,0.7-0.7S641,340.1,640.6,340.1z"/>
		</g>
		<g>
			<path class="st1" d="M603.8,343.2c-1.3,0-2.4-1.1-2.4-2.4s1.1-2.4,2.4-2.4c1.3,0,2.4,1.1,2.4,2.4S605.1,343.2,603.8,343.2z
				 M603.8,340.1c-0.4,0-0.7,0.3-0.7,0.7s0.3,0.7,0.7,0.7s0.7-0.3,0.7-0.7S604.2,340.1,603.8,340.1z"/>
		</g>
		<g>
			<path class="st1" d="M622.2,335.1c-9.6,0-17.5-7.8-17.5-17.5c0-9.6,7.8-17.5,17.5-17.5c9.6,0,17.5,7.8,17.5,17.5
				c0,4.4-1.5,8.5-4.3,11.6c-0.6,0.7-1.7,0.7-2.3,0.1c-0.7-0.6-0.7-1.7-0.1-2.3c2.2-2.4,3.5-5.8,3.5-9.3c0-7.8-6.3-14.1-14.1-14.1
				s-14.1,6.3-14.1,14.1s6.3,14.1,14.1,14.1c1.7,0,3.1-0.2,4.4-0.7c0.9-0.3,1.8,0.1,2.1,1s-0.1,1.8-1,2.1
				C626.1,334.8,624.3,335.1,622.2,335.1z"/>
		</g>
		<g>
			<path class="st1" d="M631.7,336.6c-0.8-1.2-6.2-13.4-6.2-13.4s9.7,9.1,10.6,10.3c0.8,1.2,0.6,2.8-0.7,3.7
				C634.2,338.2,632.5,337.8,631.7,336.6z"/>
		</g>
		<g>
			<path class="st1" d="M632.5,296.1H613c-0.9,0-1.7-0.7-1.7-1.7s0.7-1.7,1.7-1.7h19.5c0.9,0,1.7,0.7,1.7,1.7
				S633.4,296.1,632.5,296.1z"/>
		</g>
	</g>
</g>
<g>
	<path class="st4" d="M206.6,137.7v47.1c0,4.7,2.5,9.1,6.6,11.5l40.8,23.6c4.1,2.4,9.2,2.4,13.3,0l40.8-23.6
		c4.1-2.4,6.6-6.7,6.6-11.5v-47.1c0-4.7-2.5-9.1-6.6-11.5l-40.8-23.6c-4.1-2.4-9.2-2.4-13.3,0l-40.8,23.6
		C209.1,128.6,206.6,132.9,206.6,137.7z"/>
	<path class="st5" d="M206.6,137.7v47.1c0,4.7,2.5,9.1,6.6,11.5l40.8,23.6c4.1,2.4,9.2,2.4,13.3,0l40.8-23.6
		c4.1-2.4,6.6-6.7,6.6-11.5v-47.1c0-4.7-2.5-9.1-6.6-11.5l-40.8-23.6c-4.1-2.4-9.2-2.4-13.3,0l-40.8,23.6
		C209.1,128.6,206.6,132.9,206.6,137.7z"/>
</g>
<g>
	<path class="st4" d="M54.5,174.6v47.1c0,4.7,2.5,9.1,6.6,11.5l40.8,23.6c4.1,2.4,9.2,2.4,13.3,0l40.8-23.6
		c4.1-2.4,6.6-6.7,6.6-11.5v-47.1c0-4.7-2.5-9.1-6.6-11.5l-40.8-23.6c-4.1-2.4-9.2-2.4-13.3,0l-40.8,23.6
		C57,165.5,54.5,169.9,54.5,174.6z"/>
	<path class="st5" d="M54.5,174.6v47.1c0,4.7,2.5,9.1,6.6,11.5l40.8,23.6c4.1,2.4,9.2,2.4,13.3,0l40.8-23.6
		c4.1-2.4,6.6-6.7,6.6-11.5v-47.1c0-4.7-2.5-9.1-6.6-11.5l-40.8-23.6c-4.1-2.4-9.2-2.4-13.3,0l-40.8,23.6
		C57,165.5,54.5,169.9,54.5,174.6z"/>
</g>
<g>
	<path class="st4" d="M332.6,53.6v29.6c0,4.7,2.5,9.1,6.6,11.5l25.7,14.8c4.1,2.4,9.2,2.4,13.3,0l25.7-14.8
		c4.1-2.4,6.6-6.7,6.6-11.5V53.6c0-4.7-2.5-9.1-6.6-11.5l-25.7-14.8c-4.1-2.4-9.2-2.4-13.3,0l-25.7,14.8
		C335.2,44.5,332.6,48.8,332.6,53.6z"/>
	<path class="st6" d="M332.6,53.6v29.6c0,4.7,2.5,9.1,6.6,11.5l25.7,14.8c4.1,2.4,9.2,2.4,13.3,0l25.7-14.8
		c4.1-2.4,6.6-6.7,6.6-11.5V53.6c0-4.7-2.5-9.1-6.6-11.5l-25.7-14.8c-4.1-2.4-9.2-2.4-13.3,0l-25.7,14.8
		C335.2,44.5,332.6,48.8,332.6,53.6z"/>
</g>
<g>
	<path class="st4" d="M2.2,396.5v29.6c0,4.7,2.5,9.1,6.6,11.5l25.7,14.8c4.1,2.4,9.2,2.4,13.3,0l25.7-14.8c4.1-2.4,6.6-6.7,6.6-11.5
		v-29.6c0-4.7-2.5-9.1-6.6-11.5l-25.8-14.8c-4.1-2.4-9.2-2.4-13.3,0L8.7,385C4.7,387.4,2.2,391.7,2.2,396.5z"/>
	<path class="st6" d="M2.2,396.5v29.6c0,4.7,2.5,9.1,6.6,11.5l25.7,14.8c4.1,2.4,9.2,2.4,13.3,0l25.7-14.8c4.1-2.4,6.6-6.7,6.6-11.5
		v-29.6c0-4.7-2.5-9.1-6.6-11.5l-25.8-14.8c-4.1-2.4-9.2-2.4-13.3,0L8.7,385C4.7,387.4,2.2,391.7,2.2,396.5z"/>
</g>
<g>
	<path class="st4" d="M144.6,272.6v65.7c0,4.7,2.5,9.1,6.6,11.5l56.9,32.8c4.1,2.4,9.2,2.4,13.3,0l56.9-32.8
		c4.1-2.4,6.6-6.7,6.6-11.5v-65.7c0-4.7-2.5-9.1-6.6-11.5l-56.9-32.8c-4.1-2.4-9.2-2.4-13.3,0l-56.9,32.8
		C147.1,263.4,144.6,267.8,144.6,272.6z"/>
	<path class="st8" d="M144.6,272.6v65.7c0,4.7,2.5,9.1,6.6,11.5l56.9,32.8c4.1,2.4,9.2,2.4,13.3,0l56.9-32.8
		c4.1-2.4,6.6-6.7,6.6-11.5v-65.7c0-4.7-2.5-9.1-6.6-11.5l-56.9-32.8c-4.1-2.4-9.2-2.4-13.3,0l-56.9,32.8
		C147.1,263.4,144.6,267.8,144.6,272.6z"/>
</g>
<g>
	<g class="st7">
		<path class="st9" d="M205.7,294.5h3.4l-7,20h-3.4l-7-20h3.4l4.2,12.4c0.2,0.6,0.5,1.4,0.7,2.3s0.4,1.6,0.5,2.1
			c0.1-0.7,0.3-1.5,0.5-2.4s0.4-1.6,0.6-2L205.7,294.5z"/>
		<path class="st9" d="M225,300.6c0,2.1-0.7,3.7-2.1,4.8s-3.3,1.7-5.8,1.7H215v7.5h-3.3v-20h5.8c2.5,0,4.4,0.5,5.6,1.5
			S225,298.6,225,300.6z M215,304.3h1.7c1.7,0,2.9-0.3,3.7-0.9c0.8-0.6,1.2-1.5,1.2-2.7c0-1.1-0.4-2-1.1-2.6
			c-0.7-0.6-1.8-0.8-3.3-0.8H215V304.3z"/>
		<path class="st9" d="M240.5,309.1c0,1.8-0.6,3.2-1.9,4.2s-3.1,1.5-5.3,1.5c-2.3,0-4.1-0.4-5.6-1.1v-3.1c0.9,0.4,1.9,0.8,2.9,1
			s2,0.4,2.9,0.4c1.3,0,2.2-0.2,2.9-0.7s0.9-1.2,0.9-2c0-0.7-0.3-1.4-0.8-1.9c-0.6-0.5-1.7-1.1-3.5-1.8c-1.8-0.7-3.1-1.6-3.9-2.5
			c-0.7-0.9-1.1-2.1-1.1-3.4c0-1.7,0.6-3,1.8-3.9c1.2-1,2.8-1.4,4.8-1.4c1.9,0,3.8,0.4,5.7,1.3l-1,2.7c-1.8-0.7-3.4-1.1-4.8-1.1
			c-1.1,0-1.9,0.2-2.4,0.7s-0.8,1.1-0.8,1.8c0,0.5,0.1,1,0.3,1.3s0.6,0.7,1.1,1c0.5,0.3,1.4,0.8,2.7,1.3c1.5,0.6,2.5,1.2,3.2,1.7
			s1.2,1.1,1.5,1.8C240.3,307.4,240.5,308.2,240.5,309.1z"/>
	</g>
</g>
<g>
	<g class="st7">
		<path class="st9" d="M254.7,150.8h2.5l-5.2,15h-2.6l-5.2-15h2.5l3.1,9.3c0.2,0.4,0.3,1,0.5,1.7c0.2,0.7,0.3,1.2,0.4,1.6
			c0.1-0.5,0.2-1.1,0.4-1.8s0.3-1.2,0.4-1.5L254.7,150.8z"/>
		<path class="st9" d="M269.1,155.3c0,1.6-0.5,2.8-1.5,3.6c-1,0.8-2.5,1.2-4.4,1.2h-1.6v5.6h-2.4v-15h4.3c1.9,0,3.3,0.4,4.2,1.1
			S269.1,153.9,269.1,155.3z M261.6,158.1h1.3c1.3,0,2.2-0.2,2.8-0.7s0.9-1.1,0.9-2c0-0.9-0.3-1.5-0.8-1.9c-0.5-0.4-1.3-0.6-2.5-0.6
			h-1.7V158.1z"/>
		<path class="st9" d="M280.7,161.7c0,1.3-0.5,2.4-1.4,3.1s-2.3,1.1-4,1.1c-1.7,0-3.1-0.3-4.2-0.8v-2.3c0.7,0.3,1.4,0.6,2.2,0.8
			c0.8,0.2,1.5,0.3,2.1,0.3c1,0,1.7-0.2,2.1-0.6c0.5-0.4,0.7-0.9,0.7-1.5c0-0.6-0.2-1-0.6-1.4c-0.4-0.4-1.3-0.8-2.6-1.4
			c-1.4-0.6-2.3-1.2-2.9-1.9c-0.6-0.7-0.8-1.6-0.8-2.6c0-1.2,0.4-2.2,1.3-2.9s2.1-1.1,3.6-1.1c1.4,0,2.9,0.3,4.3,0.9l-0.8,2
			c-1.3-0.6-2.5-0.8-3.6-0.8c-0.8,0-1.4,0.2-1.8,0.5c-0.4,0.3-0.6,0.8-0.6,1.4c0,0.4,0.1,0.7,0.2,1s0.4,0.5,0.8,0.8s1.1,0.6,2,1
			c1.1,0.5,1.9,0.9,2.4,1.3c0.5,0.4,0.9,0.8,1.1,1.3C280.6,160.4,280.7,161,280.7,161.7z"/>
	</g>
</g>
<g>
	<g class="st7">
		<path class="st9" d="M140.4,420.8h2.5l-5.2,15h-2.6l-5.2-15h2.5l3.1,9.3c0.2,0.4,0.3,1,0.5,1.7c0.2,0.7,0.3,1.2,0.4,1.6
			c0.1-0.5,0.2-1.1,0.4-1.8s0.3-1.2,0.4-1.5L140.4,420.8z"/>
		<path class="st9" d="M154.8,425.3c0,1.6-0.5,2.8-1.5,3.6c-1,0.8-2.5,1.2-4.4,1.2h-1.6v5.6h-2.4v-15h4.3c1.9,0,3.3,0.4,4.2,1.1
			S154.8,423.9,154.8,425.3z M147.3,428.1h1.3c1.3,0,2.2-0.2,2.8-0.7s0.9-1.1,0.9-2c0-0.9-0.3-1.5-0.8-1.9c-0.5-0.4-1.3-0.6-2.5-0.6
			h-1.7V428.1z"/>
		<path class="st9" d="M166.4,431.7c0,1.3-0.5,2.4-1.4,3.1s-2.3,1.1-4,1.1c-1.7,0-3.1-0.3-4.2-0.8v-2.3c0.7,0.3,1.4,0.6,2.2,0.8
			c0.8,0.2,1.5,0.3,2.1,0.3c1,0,1.7-0.2,2.1-0.6c0.5-0.4,0.7-0.9,0.7-1.5c0-0.6-0.2-1-0.6-1.4c-0.4-0.4-1.3-0.8-2.6-1.4
			c-1.4-0.6-2.3-1.2-2.9-1.9c-0.6-0.7-0.8-1.6-0.8-2.6c0-1.2,0.4-2.2,1.3-2.9s2.1-1.1,3.6-1.1c1.4,0,2.9,0.3,4.3,0.9l-0.8,2
			c-1.3-0.6-2.5-0.8-3.6-0.8c-0.8,0-1.4,0.2-1.8,0.5c-0.4,0.3-0.6,0.8-0.6,1.4c0,0.4,0.1,0.7,0.2,1s0.4,0.5,0.8,0.8s1.1,0.6,2,1
			c1.1,0.5,1.9,0.9,2.4,1.3c0.5,0.4,0.9,0.8,1.1,1.3C166.3,430.4,166.4,431,166.4,431.7z"/>
	</g>
</g>
<g>
	<g class="st7">
		<path class="st9" d="M361.7,568.2h2.5l-5.2,15h-2.6l-5.2-15h2.5l3.1,9.3c0.2,0.4,0.3,1,0.5,1.7c0.2,0.7,0.3,1.2,0.4,1.6
			c0.1-0.5,0.2-1.1,0.4-1.8s0.3-1.2,0.4-1.5L361.7,568.2z"/>
		<path class="st9" d="M376.1,572.7c0,1.6-0.5,2.8-1.5,3.6c-1,0.8-2.5,1.2-4.4,1.2h-1.6v5.6h-2.4v-15h4.3c1.9,0,3.3,0.4,4.2,1.1
			S376.1,571.2,376.1,572.7z M368.6,575.5h1.3c1.3,0,2.2-0.2,2.8-0.7s0.9-1.1,0.9-2c0-0.9-0.3-1.5-0.8-1.9c-0.5-0.4-1.3-0.6-2.5-0.6
			h-1.7V575.5z"/>
		<path class="st9" d="M387.7,579c0,1.3-0.5,2.4-1.4,3.1s-2.3,1.1-4,1.1c-1.7,0-3.1-0.3-4.2-0.8v-2.3c0.7,0.3,1.4,0.6,2.2,0.8
			c0.8,0.2,1.5,0.3,2.1,0.3c1,0,1.7-0.2,2.1-0.6c0.5-0.4,0.7-0.9,0.7-1.5c0-0.6-0.2-1-0.6-1.4c-0.4-0.4-1.3-0.8-2.6-1.4
			c-1.4-0.6-2.3-1.2-2.9-1.9c-0.6-0.7-0.8-1.6-0.8-2.6c0-1.2,0.4-2.2,1.3-2.9s2.1-1.1,3.6-1.1c1.4,0,2.9,0.3,4.3,0.9l-0.8,2
			c-1.3-0.6-2.5-0.8-3.6-0.8c-0.8,0-1.4,0.2-1.8,0.5c-0.4,0.3-0.6,0.8-0.6,1.4c0,0.4,0.1,0.7,0.2,1s0.4,0.5,0.8,0.8s1.1,0.6,2,1
			c1.1,0.5,1.9,0.9,2.4,1.3c0.5,0.4,0.9,0.8,1.1,1.3C387.6,577.8,387.7,578.4,387.7,579z"/>
	</g>
</g>
<g>
	<g class="st7">
		<path class="st9" d="M97.4,188.7h2.5l-5.2,15h-2.6l-5.2-15h2.5l3.1,9.3c0.2,0.4,0.3,1,0.5,1.7c0.2,0.7,0.3,1.2,0.4,1.6
			c0.1-0.5,0.2-1.1,0.4-1.8s0.3-1.2,0.4-1.5L97.4,188.7z"/>
		<path class="st9" d="M111.8,193.2c0,1.6-0.5,2.8-1.5,3.6c-1,0.8-2.5,1.2-4.4,1.2h-1.6v5.6h-2.4v-15h4.3c1.9,0,3.3,0.4,4.2,1.1
			S111.8,191.8,111.8,193.2z M104.3,196h1.3c1.3,0,2.2-0.2,2.8-0.7s0.9-1.1,0.9-2c0-0.9-0.3-1.5-0.8-1.9c-0.5-0.4-1.3-0.6-2.5-0.6
			h-1.7V196z"/>
		<path class="st9" d="M123.4,199.6c0,1.3-0.5,2.4-1.4,3.1s-2.3,1.1-4,1.1c-1.7,0-3.1-0.3-4.2-0.8v-2.3c0.7,0.3,1.4,0.6,2.2,0.8
			c0.8,0.2,1.5,0.3,2.1,0.3c1,0,1.7-0.2,2.1-0.6c0.5-0.4,0.7-0.9,0.7-1.5c0-0.6-0.2-1-0.6-1.4c-0.4-0.4-1.3-0.8-2.6-1.4
			c-1.4-0.6-2.3-1.2-2.9-1.9c-0.6-0.7-0.8-1.6-0.8-2.6c0-1.2,0.4-2.2,1.3-2.9s2.1-1.1,3.6-1.1c1.4,0,2.9,0.3,4.3,0.9l-0.8,2
			c-1.3-0.6-2.5-0.8-3.6-0.8c-0.8,0-1.4,0.2-1.8,0.5c-0.4,0.3-0.6,0.8-0.6,1.4c0,0.4,0.1,0.7,0.2,1s0.4,0.5,0.8,0.8s1.1,0.6,2,1
			c1.1,0.5,1.9,0.9,2.4,1.3c0.5,0.4,0.9,0.8,1.1,1.3C123.3,198.4,123.4,198.9,123.4,199.6z"/>
	</g>
</g>
<g>
	<g class="st7">
		<path class="st9" d="M33.2,405.4h2.1L31,417.5h-2.1l-4.2-12.1h2l2.5,7.5c0.1,0.4,0.3,0.8,0.4,1.4c0.1,0.6,0.2,1,0.3,1.3
			c0.1-0.4,0.2-0.9,0.3-1.5s0.3-1,0.4-1.2L33.2,405.4z"/>
		<path class="st9" d="M44.8,409.1c0,1.3-0.4,2.2-1.2,2.9c-0.8,0.7-2,1-3.5,1h-1.3v4.5h-2v-12.1h3.5c1.5,0,2.6,0.3,3.4,0.9
			S44.8,407.9,44.8,409.1z M38.8,411.4h1.1c1,0,1.8-0.2,2.2-0.5c0.5-0.4,0.7-0.9,0.7-1.7c0-0.7-0.2-1.2-0.6-1.6
			c-0.4-0.3-1.1-0.5-2-0.5h-1.4V411.4z"/>
		<path class="st9" d="M54.2,414.3c0,1.1-0.4,1.9-1.2,2.5c-0.8,0.6-1.8,0.9-3.2,0.9c-1.4,0-2.5-0.2-3.4-0.6v-1.9
			c0.6,0.3,1.1,0.5,1.8,0.6c0.6,0.1,1.2,0.2,1.7,0.2c0.8,0,1.4-0.1,1.7-0.4c0.4-0.3,0.6-0.7,0.6-1.2c0-0.5-0.2-0.8-0.5-1.2
			s-1-0.7-2.1-1.1c-1.1-0.4-1.9-1-2.3-1.5c-0.5-0.6-0.7-1.3-0.7-2.1c0-1,0.4-1.8,1.1-2.4c0.7-0.6,1.7-0.9,2.9-0.9
			c1.2,0,2.3,0.3,3.5,0.8l-0.6,1.6c-1.1-0.5-2-0.7-2.9-0.7c-0.6,0-1.1,0.1-1.5,0.4c-0.3,0.3-0.5,0.6-0.5,1.1c0,0.3,0.1,0.6,0.2,0.8
			c0.1,0.2,0.4,0.4,0.7,0.6c0.3,0.2,0.8,0.5,1.6,0.8c0.9,0.4,1.5,0.7,2,1s0.7,0.7,0.9,1.1S54.2,413.7,54.2,414.3z"/>
	</g>
</g>
<g>
	<g class="st7">
		<path class="st9" d="M83.8,328.1h2.1l-4.2,12.1h-2.1l-4.2-12.1h2l2.5,7.5c0.1,0.4,0.3,0.8,0.4,1.4c0.1,0.6,0.2,1,0.3,1.3
			c0.1-0.4,0.2-0.9,0.3-1.5c0.1-0.6,0.3-1,0.4-1.2L83.8,328.1z"/>
		<path class="st9" d="M95.5,331.8c0,1.3-0.4,2.2-1.2,2.9c-0.8,0.7-2,1-3.5,1h-1.3v4.5h-2v-12.1H91c1.5,0,2.6,0.3,3.4,0.9
			S95.5,330.6,95.5,331.8z M89.5,334h1.1c1,0,1.8-0.2,2.2-0.5s0.7-0.9,0.7-1.7c0-0.7-0.2-1.2-0.6-1.6c-0.4-0.3-1.1-0.5-2-0.5h-1.4
			V334z"/>
		<path class="st9" d="M104.9,336.9c0,1.1-0.4,1.9-1.2,2.5c-0.8,0.6-1.8,0.9-3.2,0.9c-1.4,0-2.5-0.2-3.4-0.6v-1.9
			c0.6,0.3,1.1,0.5,1.8,0.6c0.6,0.1,1.2,0.2,1.7,0.2c0.8,0,1.4-0.1,1.7-0.4c0.4-0.3,0.6-0.7,0.6-1.2c0-0.5-0.2-0.8-0.5-1.1
			c-0.3-0.3-1-0.7-2.1-1.1c-1.1-0.4-1.9-1-2.3-1.5s-0.7-1.3-0.7-2.1c0-1,0.4-1.8,1.1-2.4s1.7-0.9,2.9-0.9c1.2,0,2.3,0.3,3.5,0.8
			l-0.6,1.6c-1.1-0.5-2-0.7-2.9-0.7c-0.6,0-1.1,0.1-1.5,0.4c-0.3,0.3-0.5,0.6-0.5,1.1c0,0.3,0.1,0.6,0.2,0.8
			c0.1,0.2,0.4,0.4,0.7,0.6c0.3,0.2,0.8,0.5,1.6,0.8c0.9,0.4,1.5,0.7,2,1c0.4,0.3,0.7,0.7,0.9,1.1S104.9,336.4,104.9,336.9z"/>
	</g>
</g>
<g>
	<g class="st7">
		<path class="st9" d="M366.2,61.8h2.1L364,73.8h-2.1l-4.2-12.1h2l2.5,7.5c0.1,0.4,0.3,0.8,0.4,1.4c0.1,0.6,0.2,1,0.3,1.3
			c0.1-0.4,0.2-0.9,0.3-1.5c0.1-0.6,0.3-1,0.4-1.2L366.2,61.8z"/>
		<path class="st9" d="M377.8,65.4c0,1.3-0.4,2.2-1.2,2.9c-0.8,0.7-2,1-3.5,1h-1.3v4.5h-2V61.8h3.5c1.5,0,2.6,0.3,3.4,0.9
			S377.8,64.2,377.8,65.4z M371.8,67.7h1.1c1,0,1.8-0.2,2.2-0.5s0.7-0.9,0.7-1.7c0-0.7-0.2-1.2-0.6-1.6c-0.4-0.3-1.1-0.5-2-0.5h-1.4
			V67.7z"/>
		<path class="st9" d="M387.2,70.6c0,1.1-0.4,1.9-1.2,2.5c-0.8,0.6-1.8,0.9-3.2,0.9c-1.4,0-2.5-0.2-3.4-0.6v-1.9
			c0.6,0.3,1.1,0.5,1.8,0.6c0.6,0.1,1.2,0.2,1.7,0.2c0.8,0,1.4-0.1,1.7-0.4c0.4-0.3,0.6-0.7,0.6-1.2c0-0.5-0.2-0.8-0.5-1.1
			c-0.3-0.3-1-0.7-2.1-1.1c-1.1-0.4-1.9-1-2.3-1.5s-0.7-1.3-0.7-2.1c0-1,0.4-1.8,1.1-2.4s1.7-0.9,2.9-0.9c1.2,0,2.3,0.3,3.5,0.8
			l-0.6,1.6c-1.1-0.5-2-0.7-2.9-0.7c-0.6,0-1.1,0.1-1.5,0.4c-0.3,0.3-0.5,0.6-0.5,1.1c0,0.3,0.1,0.6,0.2,0.8
			c0.1,0.2,0.4,0.4,0.7,0.6c0.3,0.2,0.8,0.5,1.6,0.8c0.9,0.4,1.5,0.7,2,1c0.4,0.3,0.7,0.7,0.9,1.1S387.2,70,387.2,70.6z"/>
	</g>
</g>
<g>
	<circle class="st2" cx="296.9" cy="63.9" r="4.5"/>
	<path class="st2" d="M296.9,70.4c-3.6,0-6.5-2.9-6.5-6.5c0-3.6,2.9-6.5,6.5-6.5s6.5,2.9,6.5,6.5C303.4,67.5,300.5,70.4,296.9,70.4z
		 M296.9,61.4c-1.4,0-2.5,1.1-2.5,2.5c0,1.4,1.1,2.5,2.5,2.5s2.5-1.1,2.5-2.5C299.4,62.5,298.2,61.4,296.9,61.4z"/>
</g>
<g>
	<circle class="st10" cx="665.7" cy="48.8" r="4.5"/>
	<path class="st10" d="M665.7,55.3c-3.6,0-6.5-2.9-6.5-6.5s2.9-6.5,6.5-6.5s6.5,2.9,6.5,6.5S669.3,55.3,665.7,55.3z M665.7,46.3
		c-1.4,0-2.5,1.1-2.5,2.5s1.1,2.5,2.5,2.5s2.5-1.1,2.5-2.5S667.1,46.3,665.7,46.3z"/>
</g>
<g>
	<circle class="st2" cx="451.2" cy="603.4" r="4.5"/>
	<path class="st2" d="M451.2,609.9c-3.6,0-6.5-2.9-6.5-6.5s2.9-6.5,6.5-6.5s6.5,2.9,6.5,6.5S454.8,609.9,451.2,609.9z M451.2,600.9
		c-1.4,0-2.5,1.1-2.5,2.5s1.1,2.5,2.5,2.5s2.5-1.1,2.5-2.5S452.6,600.9,451.2,600.9z"/>
</g>
<g>
	<circle class="st2" cx="6.5" cy="366.4" r="4.5"/>
	<path class="st2" d="M6.5,372.9c-3.6,0-6.5-2.9-6.5-6.5s2.9-6.5,6.5-6.5c3.6,0,6.5,2.9,6.5,6.5S10.1,372.9,6.5,372.9z M6.5,363.9
		c-1.4,0-2.5,1.1-2.5,2.5s1.1,2.5,2.5,2.5s2.5-1.1,2.5-2.5S7.9,363.9,6.5,363.9z"/>
</g>
<g>
	<circle class="st2" cx="157.3" cy="136.9" r="4.5"/>
	<path class="st2" d="M157.3,143.4c-3.6,0-6.5-2.9-6.5-6.5s2.9-6.5,6.5-6.5s6.5,2.9,6.5,6.5S160.8,143.4,157.3,143.4z M157.3,134.4
		c-1.4,0-2.5,1.1-2.5,2.5s1.1,2.5,2.5,2.5s2.5-1.1,2.5-2.5S158.6,134.4,157.3,134.4z"/>
</g>
<g>
	<circle class="st0" cx="58.2" cy="256" r="4.5"/>
	<path class="st0" d="M58.2,262.5c-3.6,0-6.5-2.9-6.5-6.5c0-3.6,2.9-6.5,6.5-6.5s6.5,2.9,6.5,6.5C64.7,259.6,61.8,262.5,58.2,262.5z
		 M58.2,253.5c-1.4,0-2.5,1.1-2.5,2.5c0,1.4,1.1,2.5,2.5,2.5s2.5-1.1,2.5-2.5C60.7,254.6,59.6,253.5,58.2,253.5z"/>
</g>
<g>
	<circle class="st2" cx="119.8" cy="279.5" r="4.5"/>
	<path class="st2" d="M119.8,286c-3.6,0-6.5-2.9-6.5-6.5s2.9-6.5,6.5-6.5s6.5,2.9,6.5,6.5S123.3,286,119.8,286z M119.8,277
		c-1.4,0-2.5,1.1-2.5,2.5s1.1,2.5,2.5,2.5s2.5-1.1,2.5-2.5S121.1,277,119.8,277z"/>
</g>
<g>
	<circle class="st0" cx="186.8" cy="210.1" r="4.5"/>
	<path class="st0" d="M186.8,216.6c-3.6,0-6.5-2.9-6.5-6.5s2.9-6.5,6.5-6.5s6.5,2.9,6.5,6.5S190.4,216.6,186.8,216.6z M186.8,207.6
		c-1.4,0-2.5,1.1-2.5,2.5s1.1,2.5,2.5,2.5s2.5-1.1,2.5-2.5S188.1,207.6,186.8,207.6z"/>
</g>
<g>
	<circle class="st2" cx="591.7" cy="524.1" r="4.5"/>
	<path class="st2" d="M591.7,530.6c-3.6,0-6.5-2.9-6.5-6.5s2.9-6.5,6.5-6.5s6.5,2.9,6.5,6.5S595.3,530.6,591.7,530.6z M591.7,521.6
		c-1.4,0-2.5,1.1-2.5,2.5s1.1,2.5,2.5,2.5s2.5-1.1,2.5-2.5S593.1,521.6,591.7,521.6z"/>
</g>
<g>
	<circle class="st2" cx="693.6" cy="151.9" r="4.5"/>
	<path class="st2" d="M693.6,158.4c-3.6,0-6.5-2.9-6.5-6.5s2.9-6.5,6.5-6.5s6.5,2.9,6.5,6.5S697.1,158.4,693.6,158.4z M693.6,149.4
		c-1.4,0-2.5,1.1-2.5,2.5s1.1,2.5,2.5,2.5s2.5-1.1,2.5-2.5S694.9,149.4,693.6,149.4z"/>
</g>
<g>
	<circle class="st0" cx="731.7" cy="252.5" r="4.5"/>
	<path class="st0" d="M731.7,259c-3.6,0-6.5-2.9-6.5-6.5c0-3.6,2.9-6.5,6.5-6.5s6.5,2.9,6.5,6.5C738.2,256.1,735.3,259,731.7,259z
		 M731.7,250c-1.4,0-2.5,1.1-2.5,2.5s1.1,2.5,2.5,2.5s2.5-1.1,2.5-2.5S733.1,250,731.7,250z"/>
</g>
<g>
	<circle class="st11" cx="731.7" cy="225.6" r="4.5"/>
	<path class="st11" d="M731.7,232.1c-3.6,0-6.5-2.9-6.5-6.5s2.9-6.5,6.5-6.5s6.5,2.9,6.5,6.5S735.3,232.1,731.7,232.1z M731.7,223.1
		c-1.4,0-2.5,1.1-2.5,2.5s1.1,2.5,2.5,2.5s2.5-1.1,2.5-2.5S733.1,223.1,731.7,223.1z"/>
</g>
<g>
	<circle class="st2" cx="425.7" cy="104.2" r="4.5"/>
	<path class="st2" d="M425.7,110.7c-3.6,0-6.5-2.9-6.5-6.5s2.9-6.5,6.5-6.5s6.5,2.9,6.5,6.5S429.2,110.7,425.7,110.7z M425.7,101.7
		c-1.4,0-2.5,1.1-2.5,2.5s1.1,2.5,2.5,2.5s2.5-1.1,2.5-2.5S427,101.7,425.7,101.7z"/>
</g>
<g>
	<circle class="st2" cx="361.7" cy="138.9" r="4.5"/>
	<path class="st2" d="M361.7,145.4c-3.6,0-6.5-2.9-6.5-6.5s2.9-6.5,6.5-6.5s6.5,2.9,6.5,6.5S365.2,145.4,361.7,145.4z M361.7,136.4
		c-1.4,0-2.5,1.1-2.5,2.5s1.1,2.5,2.5,2.5s2.5-1.1,2.5-2.5S363,136.4,361.7,136.4z"/>
</g>
<g>
	<circle class="st1" cx="307.2" cy="487.3" r="4.5"/>
	<path class="st1" d="M307.2,493.8c-3.6,0-6.5-2.9-6.5-6.5s2.9-6.5,6.5-6.5s6.5,2.9,6.5,6.5S310.8,493.8,307.2,493.8z M307.2,484.8
		c-1.4,0-2.5,1.1-2.5,2.5s1.1,2.5,2.5,2.5s2.5-1.1,2.5-2.5S308.5,484.8,307.2,484.8z"/>
</g>
<g>
	<g>
		<path class="st0" d="M668.8,660.2c2.5,0,5-0.6,7.2-1.9l59.1-34.2c4.4-2.6,7.2-7.4,7.2-12.5l0.6-49.1l-4-0.1l-0.6,49.2
			c0,3.7-2,7.2-5.2,9.1L674,654.8c-3.2,1.9-7.2,1.9-10.4,0l-44.7-23l-1.8,3.6l44.7,22.9C663.8,659.6,666.3,660.2,668.8,660.2z"/>
	</g>
	<g>
		
			<ellipse transform="matrix(0.9999 -1.103438e-02 1.103438e-02 0.9999 -6.1619 8.2115)" class="st0" cx="741.1" cy="562.5" rx="4.5" ry="4.5"/>
		<path class="st0" d="M736.5,567.1c-1.2-1.2-1.9-2.8-2-4.6c0-1.7,0.6-3.4,1.9-4.6c1.2-1.2,2.8-1.9,4.6-2c1.7,0,3.4,0.6,4.6,1.9
			s1.9,2.8,2,4.6c0,1.7-0.6,3.4-1.9,4.6c-1.2,1.2-2.8,1.9-4.6,2c0,0,0,0-0.1,0C739.4,569,737.8,568.3,736.5,567.1z M741,560
			c-0.7,0-1.3,0.3-1.8,0.8s-0.7,1.1-0.7,1.8l0,0c0,0.7,0.3,1.3,0.8,1.8s1.1,0.7,1.8,0.7s1.3-0.3,1.8-0.8s0.7-1.1,0.7-1.8
			C743.6,561.1,742.4,560,741,560C741.1,560,741.1,560,741,560z"/>
	</g>
	<g>
		
			<ellipse transform="matrix(0.9999 -1.103438e-02 1.103438e-02 0.9999 -6.9539 6.8597)" class="st0" cx="618.2" cy="633.6" rx="4.5" ry="4.5"/>
		<path class="st0" d="M611.7,633.6L611.7,633.6c0-1.7,0.6-3.4,1.9-4.6s2.8-1.9,4.6-2c1.7,0,3.4,0.6,4.6,1.9c1.2,1.2,1.9,2.8,2,4.6
			c0,1.7-0.6,3.4-1.9,4.6s-2.8,1.9-4.6,2c0,0,0,0-0.1,0C614.6,640.1,611.7,637.2,611.7,633.6z M618.1,631.1c-0.7,0-1.3,0.3-1.8,0.8
			s-0.7,1.1-0.7,1.8c0,1.4,1.1,2.5,2.5,2.5l0,0c1.4,0,2.5-1.1,2.5-2.5c0-0.7-0.3-1.3-0.8-1.8C619.5,631.3,618.8,631.1,618.1,631.1
			C618.2,631.1,618.2,631.1,618.1,631.1z"/>
	</g>
</g>
<g>
	<g>
		<path class="st2" d="M949.5,118.1c-0.7,0-1.4,0.4-1.8,1c-0.5,1-0.2,2.2,0.8,2.7c0.3,0.2,28.5,16.2,33.5,19.1
			c3.8,2.2,22.5,14.2,21.9,39.3c-0.2,8.2-0.4,16.7-0.6,24.9c-0.7,25.9-1.3,28.3-1,33.5c0.1,1.1,1,2,2.1,1.9s2-1,1.9-2.1
			c-0.2-5,0.4-8.4,1-33.2c0.2-8.2,0.4-16.7,0.6-24.9c0.7-27.3-19.8-40.5-23.9-42.8c-5-2.9-33.3-18.9-33.6-19.1
			C950.2,118.2,949.8,118.1,949.5,118.1z"/>
	</g>
	<g>
		<ellipse transform="matrix(0.8732 -0.4874 0.4874 0.8732 61.8511 477.6703)" class="st2" cx="948.8" cy="120" rx="4.5" ry="4.5"/>
		<path class="st2" d="M954.5,116.7c0.8,1.5,1.1,3.3,0.6,4.9c-0.5,1.7-1.6,3.1-3.1,3.9s-3.3,1.1-4.9,0.6c-1.7-0.5-3.1-1.6-3.9-3.1
			c-1.7-3.1-0.6-7.1,2.5-8.8c1-0.6,2.1-0.8,3.2-0.8C951.1,113.4,953.3,114.6,954.5,116.7z M950,122.1L950,122.1
			c0.6-0.3,1-0.9,1.2-1.5s0.1-1.3-0.2-1.9c-0.7-1.2-2.2-1.6-3.4-1c-1.2,0.7-1.6,2.2-1,3.4c0.3,0.6,0.9,1,1.5,1.2
			c0.2,0.1,0.4,0.1,0.7,0.1C949.2,122.4,949.6,122.3,950,122.1z"/>
	</g>
	<g>
		
			<ellipse transform="matrix(0.8732 -0.4874 0.4874 0.8732 10.6017 519.8846)" class="st2" cx="1004.3" cy="239.6" rx="4.5" ry="4.5"/>
		<path class="st2" d="M1010,236.3c0.8,1.5,1.1,3.3,0.6,4.9c-0.5,1.7-1.6,3.1-3.1,3.9l0,0c-1.5,0.8-3.3,1.1-4.9,0.6
			c-1.7-0.5-3.1-1.6-3.9-3.1s-1.1-3.3-0.6-4.9c0.5-1.7,1.6-3.1,3.1-3.9c1-0.6,2.1-0.8,3.2-0.8C1006.6,233,1008.8,234.2,1010,236.3z
			 M1005.5,241.7c0.6-0.3,1-0.9,1.2-1.5s0.1-1.3-0.2-1.9c-0.7-1.2-2.2-1.6-3.4-1c-0.6,0.3-1,0.9-1.2,1.5s-0.1,1.3,0.2,1.9
			c0.3,0.6,0.9,1,1.5,1.2c0.2,0.1,0.4,0.1,0.7,0.1C1004.7,242,1005.1,241.9,1005.5,241.7z"/>
	</g>
</g>
<g>
	<g>
		<path class="st2" d="M761.5,541.9c1.1,0,2-0.9,2-2c0.7-33,0.8-42.9,0.5-49.7c-0.1-2.1-1.6-21.3-20.4-32l-31.4-19
			c-0.9-0.6-2.2-0.3-2.7,0.7c-0.6,0.9-0.3,2.2,0.7,2.7l31.4,19c17,9.7,18.4,26.8,18.5,28.8c0.3,6.7,0.2,16.6-0.5,49.5
			C759.5,541,760.4,541.9,761.5,541.9L761.5,541.9z"/>
	</g>
	<g>
		<ellipse transform="matrix(0.871 -0.4913 0.4913 0.871 -166.7951 443.9665)" class="st2" cx="762" cy="539.6" rx="4.5" ry="4.5"/>
		<path class="st2" d="M756.3,542.7c-0.9-1.5-1.1-3.3-0.6-4.9c0.5-1.7,1.6-3.1,3.1-3.9c1.5-0.9,3.3-1.1,4.9-0.6
			c1.7,0.5,3.1,1.6,3.9,3.1c1.8,3.1,0.7,7.1-2.5,8.9c-1,0.6-2.1,0.8-3.2,0.8C759.7,546,757.5,544.9,756.3,542.7z M760.8,537.4
			L760.8,537.4c-0.6,0.3-1,0.9-1.2,1.5s-0.1,1.3,0.2,1.9c0.7,1.2,2.2,1.6,3.4,0.9c1.2-0.7,1.6-2.2,0.9-3.4c-0.3-0.6-0.9-1-1.5-1.2
			c-0.2-0.1-0.4-0.1-0.7-0.1S761.1,537.2,760.8,537.4z"/>
	</g>
	<g>
		<ellipse transform="matrix(0.871 -0.4913 0.4913 0.871 -124.891 406.2977)" class="st2" cx="711.2" cy="441" rx="4.5" ry="4.5"/>
		<path class="st2" d="M705.5,444.1c-0.9-1.5-1.1-3.3-0.6-4.9c0.5-1.7,1.6-3.1,3.1-3.9c1.5-0.9,3.3-1.1,4.9-0.6
			c1.7,0.5,3.1,1.6,3.9,3.1c1.8,3.1,0.7,7.1-2.5,8.9c-1,0.6-2.1,0.8-3.2,0.8C708.9,447.4,706.7,446.2,705.5,444.1z M709.9,438.7
			L709.9,438.7c-0.6,0.3-1,0.9-1.2,1.5s-0.1,1.3,0.2,1.9c0.7,1.2,2.2,1.6,3.4,0.9c1.2-0.7,1.6-2.2,0.9-3.4c-0.3-0.6-0.9-1-1.5-1.2
			c-0.2-0.1-0.4-0.1-0.7-0.1C710.7,438.4,710.3,438.5,709.9,438.7z"/>
	</g>
</g>
<g>
	<g>
		<path class="st2" d="M830.5,481.7c-0.5,1-0.2,2.2,0.8,2.7c28.6,16.5,37.2,21.4,43.4,24.4c1.9,0.9,19.4,8.9,37.9-2.5l31.8-18.3
			c1-0.6,1.3-1.8,0.7-2.7c-0.6-1-1.8-1.3-2.7-0.7l-31.8,18.3c-16.7,10.3-32.4,3.1-34.1,2.3c-6.1-3-14.6-7.8-43.1-24.3
			C832.3,480.4,831,480.7,830.5,481.7L830.5,481.7z"/>
	</g>
	<g>
		
			<ellipse transform="matrix(0.9999 -1.029891e-02 1.029891e-02 0.9999 -4.9334 8.597)" class="st2" cx="832.3" cy="483.3" rx="4.5" ry="4.5"/>
		<path class="st2" d="M832.2,476.8c1.7,0,3.4,0.6,4.6,1.9c1.2,1.2,1.9,2.8,2,4.6c0,1.7-0.6,3.4-1.9,4.6c-1.2,1.2-2.8,1.9-4.6,2
			c-3.6,0-6.5-2.8-6.6-6.4c0-1.2,0.3-2.2,0.8-3.2C827.7,478.1,829.8,476.8,832.2,476.8z M834.8,483.2L834.8,483.2
			c0-0.7-0.3-1.3-0.7-1.8c-0.5-0.5-1.1-0.7-1.8-0.7c-1.4,0-2.5,1.1-2.5,2.5s1.1,2.5,2.5,2.5c0.7,0,1.3-0.3,1.8-0.8
			c0.2-0.2,0.3-0.3,0.4-0.5C834.7,484.1,834.8,483.7,834.8,483.2z"/>
	</g>
	<g>
		
			<ellipse transform="matrix(0.9999 -1.029891e-02 1.029891e-02 0.9999 -4.9584 9.7392)" class="st2" cx="943.2" cy="486.3" rx="4.5" ry="4.5"/>
		<path class="st2" d="M943.2,479.8c1.7,0,3.4,0.6,4.6,1.9c1.2,1.2,1.9,2.8,2,4.6c0,1.7-0.6,3.4-1.9,4.6c-1.2,1.2-2.8,1.9-4.6,2
			c-3.6,0-6.5-2.8-6.6-6.4c0-1.2,0.3-2.2,0.8-3.2C938.6,481.2,940.7,479.8,943.2,479.8z M945.7,486.3L945.7,486.3
			c0-0.7-0.3-1.3-0.7-1.8c-0.5-0.5-1.1-0.7-1.8-0.7c-1.4,0-2.5,1.1-2.5,2.5s1.1,2.5,2.5,2.5c0.7,0,1.3-0.3,1.8-0.8
			c0.2-0.2,0.3-0.3,0.4-0.5C945.6,487.1,945.7,486.7,945.7,486.3z"/>
	</g>
</g>
<g>
	<g>
		<path class="st2" d="M732,290.8c-1.1,0.1-1.9,1-1.9,2.1c1.3,33,1.8,42.9,2.6,49.7c0.2,2.1,2.9,21.2,22.3,30.7l32.4,17.1
			c1,0.5,2.2,0.1,2.7-0.8c0.5-1,0.1-2.2-0.8-2.7l-32.5-17.1c-17.6-8.6-20-25.7-20.2-27.6c-0.7-6.7-1.2-16.6-2.6-49.4
			C734.1,291.6,733.1,290.8,732,290.8L732,290.8z"/>
	</g>
	<g>
		
			<ellipse transform="matrix(0.8395 -0.5433 0.5433 0.8395 -41.8954 444.5826)" class="st2" cx="731.7" cy="293.2" rx="4.5" ry="4.5"/>
		<path class="st2" d="M737.1,289.7c0.9,1.5,1.3,3.2,0.9,4.9c-0.4,1.7-1.4,3.2-2.8,4.1c-1.5,0.9-3.2,1.3-4.9,0.9s-3.2-1.4-4.1-2.8
			c-1.9-3-1.1-7,1.9-9c1-0.6,2-1,3.1-1C733.5,286.6,735.8,287.6,737.1,289.7z M733,295.3L733,295.3c0.6-0.4,0.9-0.9,1.1-1.6
			c0.1-0.7,0-1.3-0.3-1.9c-0.7-1.2-2.3-1.5-3.5-0.7c-1.2,0.7-1.5,2.3-0.7,3.5c0.4,0.6,0.9,0.9,1.6,1.1c0.2,0,0.5,0.1,0.7,0.1
			C732.3,295.7,732.7,295.5,733,295.3z"/>
	</g>
	<g>
		
			<ellipse transform="matrix(0.8395 -0.5433 0.5433 0.8395 -84.6325 490.7036)" class="st2" cx="788.4" cy="388.6" rx="4.5" ry="4.5"/>
		<path class="st2" d="M793.9,385c0.9,1.5,1.3,3.2,0.9,4.9c-0.4,1.7-1.4,3.2-2.8,4.1c-1.5,0.9-3.2,1.3-4.9,0.9
			c-1.7-0.4-3.2-1.4-4.1-2.8c-1.9-3-1.1-7,1.9-9c1-0.6,2-1,3.1-1C790.3,382,792.5,383,793.9,385z M789.8,390.7L789.8,390.7
			c0.6-0.4,0.9-0.9,1.1-1.6c0.1-0.7,0-1.3-0.3-1.9c-0.7-1.2-2.3-1.5-3.5-0.7c-1.2,0.7-1.5,2.3-0.7,3.5c0.4,0.6,0.9,0.9,1.6,1.1
			c0.2,0,0.5,0.1,0.7,0.1C789,391.1,789.4,390.9,789.8,390.7z"/>
	</g>
</g>
<g>
	<g>
		<path class="st0" d="M782.2,527.1c1.1,0,2-0.9,2-2c0.3-30.3,0.5-46.4,0.3-49.7c-0.1-2.1-1.6-21.3-20.4-32l-31.4-19
			c-0.9-0.6-2.2-0.3-2.7,0.7c-0.6,0.9-0.3,2.2,0.7,2.7l31.4,19c17,9.7,18.4,26.8,18.5,28.8c0.2,3.6,0,24.5-0.3,49.5
			C780.2,526.2,781.1,527.1,782.2,527.1L782.2,527.1z"/>
	</g>
	<g>
		<ellipse transform="matrix(0.871 -0.4913 0.4913 0.871 -156.433 452.032)" class="st0" cx="782.5" cy="523.9" rx="4.5" ry="4.5"/>
		<path class="st0" d="M780.8,530c-1.7-0.5-3.1-1.6-3.9-3.1c-0.9-1.5-1.1-3.3-0.6-4.9c0.5-1.7,1.6-3.1,3.1-3.9l0,0
			c3.1-1.8,7.1-0.7,8.9,2.5c1.8,3.1,0.7,7.1-2.5,8.9c-1,0.6-2.1,0.8-3.2,0.8C781.9,530.3,781.4,530.2,780.8,530z M781.3,521.6
			L781.3,521.6c-0.6,0.3-1,0.9-1.2,1.5s-0.1,1.3,0.2,1.9c0.3,0.6,0.9,1,1.5,1.2s1.3,0.1,1.9-0.2c1.2-0.7,1.6-2.2,0.9-3.4
			c-0.5-0.8-1.3-1.3-2.2-1.3C782.1,521.3,781.7,521.4,781.3,521.6z"/>
	</g>
	<g>
		
			<ellipse transform="matrix(0.871 -0.4913 0.4913 0.871 -114.9835 414.4555)" class="st0" cx="731.7" cy="426.2" rx="4.5" ry="4.5"/>
		<path class="st0" d="M726,429.3c-0.9-1.5-1.1-3.3-0.6-4.9c0.5-1.7,1.6-3.1,3.1-3.9c1.5-0.9,3.3-1.1,4.9-0.6
			c1.7,0.5,3.1,1.6,3.9,3.1c1.8,3.1,0.7,7.1-2.5,8.9c-1,0.6-2.1,0.8-3.2,0.8C729.4,432.6,727.2,431.4,726,429.3z M730.5,423.9
			L730.5,423.9c-0.6,0.3-1,0.9-1.2,1.5s-0.1,1.3,0.2,1.9c0.7,1.2,2.2,1.6,3.4,0.9c1.2-0.7,1.6-2.2,0.9-3.4c-0.3-0.6-0.9-1-1.5-1.2
			c-0.2-0.1-0.4-0.1-0.7-0.1C731.3,423.6,730.8,423.7,730.5,423.9z"/>
	</g>
</g>
<g>
	<g>
		<path class="st0" d="M727.9,31.8c0.5-0.9,0.2-2.2-0.7-2.7c-26.1-15.5-39.9-23.6-42.9-25.2c-1.9-1-19.2-9.3-37.9,1.7l-32.1,17.6
			c-1,0.5-1.3,1.7-0.8,2.7s1.7,1.3,2.7,0.8L648.4,9c16.9-9.9,32.4-2.5,34.1-1.6c3.2,1.6,21.2,12.3,42.7,25
			C726.1,33,727.4,32.7,727.9,31.8L727.9,31.8z"/>
	</g>
	<g>
		
			<ellipse transform="matrix(1.052774e-02 -0.9999 0.9999 1.052774e-02 687.6816 754.6797)" class="st0" cx="725.2" cy="29.9" rx="4.5" ry="4.5"/>
		<path class="st0" d="M729.7,34.4c-1.2,1.2-2.9,1.9-4.6,1.9c-1.7,0-3.4-0.7-4.6-2c-1.2-1.2-1.9-2.9-1.9-4.6l0,0
			c0-3.6,3-6.5,6.6-6.4c3.6,0,6.5,3,6.4,6.6c0,1.1-0.3,2.2-0.9,3.2C730.5,33.6,730.2,34,729.7,34.4z M722.7,29.8L722.7,29.8
			c0,0.7,0.2,1.3,0.7,1.8s1.1,0.7,1.8,0.8c0.7,0,1.3-0.2,1.8-0.7s0.7-1.1,0.8-1.8c0-1.4-1.1-2.5-2.5-2.5c-0.9,0-1.8,0.5-2.2,1.3
			C722.8,28.9,722.7,29.3,722.7,29.8z"/>
	</g>
	<g>
		
			<ellipse transform="matrix(1.052774e-02 -0.9999 0.9999 1.052774e-02 583.6705 639.8641)" class="st0" cx="615.2" cy="25" rx="4.5" ry="4.5"/>
		<path class="st0" d="M615.1,31.4c-1.7,0-3.4-0.7-4.6-2c-1.2-1.2-1.9-2.9-1.9-4.6c0-1.7,0.7-3.4,2-4.6c1.2-1.2,2.9-1.9,4.6-1.9
			c3.6,0,6.5,3,6.4,6.6c0,1.2-0.3,2.2-0.9,3.2C619.7,30.1,617.6,31.5,615.1,31.4z M612.7,24.9L612.7,24.9c0,0.7,0.2,1.3,0.7,1.8
			s1.1,0.7,1.8,0.8c1.4,0,2.5-1.1,2.5-2.5s-1.1-2.5-2.5-2.5c-0.7,0-1.3,0.2-1.8,0.7c-0.2,0.2-0.3,0.3-0.4,0.5
			C612.8,24.1,612.7,24.5,612.7,24.9z"/>
	</g>
</g>
<g>
	<g>
		<path class="st1" d="M802.7,510.4c1.1,0,2-0.9,2-2c0.3-30.3,0.5-46.4,0.3-49.7c-0.1-2.1-1.6-21.3-20.4-32l-31.4-19
			c-0.9-0.6-2.2-0.3-2.7,0.7c-0.6,0.9-0.3,2.2,0.7,2.7l31.4,19c17,9.7,18.4,26.8,18.5,28.8c0.2,3.6,0,24.5-0.3,49.5
			C800.7,509.5,801.6,510.4,802.7,510.4L802.7,510.4z"/>
	</g>
	<g>
		
			<ellipse transform="matrix(0.871 -0.4913 0.4913 0.871 -104.1348 422.3863)" class="st1" cx="752.2" cy="409.5" rx="4.5" ry="4.5"/>
		<path class="st1" d="M746.6,412.6c-0.9-1.5-1.1-3.3-0.6-4.9c0.5-1.7,1.6-3.1,3.1-3.9s3.3-1.1,4.9-0.6c1.7,0.5,3.1,1.6,3.9,3.1
			c1.8,3.1,0.7,7.1-2.5,8.9c-1,0.6-2.1,0.8-3.2,0.8C750,415.9,747.7,414.7,746.6,412.6z M751,407.2L751,407.2
			c-0.6,0.3-1,0.9-1.2,1.5s-0.1,1.3,0.2,1.9c0.7,1.2,2.2,1.6,3.4,0.9c1.2-0.7,1.6-2.2,0.9-3.4c-0.3-0.6-0.9-1-1.5-1.2
			c-0.2-0.1-0.4-0.1-0.7-0.1C751.8,406.9,751.4,407,751,407.2z"/>
	</g>
	<g>
		<ellipse transform="matrix(0.871 -0.4913 0.4913 0.871 -147.013 460.3229)" class="st1" cx="803" cy="510.1" rx="4.5" ry="4.5"/>
		<path class="st1" d="M797.4,513.2c-0.9-1.5-1.1-3.3-0.6-4.9c0.5-1.7,1.6-3.1,3.1-3.9c1.5-0.9,3.3-1.1,4.9-0.6
			c1.7,0.5,3.1,1.6,3.9,3.1c1.8,3.1,0.7,7.1-2.5,8.9c-1,0.6-2.1,0.8-3.2,0.8C800.8,516.5,798.6,515.3,797.4,513.2z M801.8,507.8
			L801.8,507.8c-0.6,0.3-1,0.9-1.2,1.5s-0.1,1.3,0.2,1.9c0.7,1.2,2.2,1.6,3.4,0.9c1.2-0.7,1.6-2.2,0.9-3.4c-0.3-0.6-0.9-1-1.5-1.2
			c-0.2-0.1-0.4-0.1-0.7-0.1C802.6,507.5,802.2,507.6,801.8,507.8z"/>
	</g>
</g>
<g>
	<g>
		<path class="st1" d="M1005.7,352.2c1.1,0,2-0.9,2-2c0.3-30.3,0.5-28.8,0.3-32.2c-0.1-2.1-1.6-21.3-20.4-32l-31.4-19
			c-0.9-0.6-2.2-0.3-2.7,0.7c-0.6,0.9-0.3,2.2,0.7,2.7l31.4,19c17,9.7,18.4,26.8,18.5,28.8c0.2,3.6,0,7-0.3,31.9
			C1003.7,351.3,1004.6,352.2,1005.7,352.2L1005.7,352.2z"/>
	</g>
	<g>
		<ellipse transform="matrix(0.871 -0.4913 0.4913 0.871 -8.8194 503.9601)" class="st1" cx="955.2" cy="268.8" rx="4.5" ry="4.5"/>
		<path class="st1" d="M949.5,271.9c-0.9-1.5-1.1-3.3-0.6-4.9c0.5-1.7,1.6-3.1,3.1-3.9s3.3-1.1,4.9-0.6c1.7,0.5,3.1,1.6,3.9,3.1
			c1.8,3.1,0.7,7.1-2.5,8.9c-1,0.6-2.1,0.8-3.2,0.8C952.9,275.2,950.7,274,949.5,271.9z M954,266.5L954,266.5
			c-0.6,0.3-1,0.9-1.2,1.5s-0.1,1.3,0.2,1.9c0.7,1.2,2.2,1.6,3.4,0.9s1.6-2.2,0.9-3.4c-0.3-0.6-0.9-1-1.5-1.2
			c-0.2-0.1-0.4-0.1-0.7-0.1C954.8,266.2,954.3,266.3,954,266.5z"/>
	</g>
	<g>
		<ellipse transform="matrix(0.871 -0.4913 0.4913 0.871 -42.3038 539.45)" class="st1" cx="1006" cy="350.3" rx="4.5" ry="4.5"/>
		<path class="st1" d="M1000.3,353.3c-0.9-1.5-1.1-3.3-0.6-4.9c0.5-1.7,1.6-3.1,3.1-3.9c1.5-0.9,3.3-1.1,4.9-0.6
			c1.7,0.5,3.1,1.6,3.9,3.1c1.8,3.1,0.7,7.1-2.5,8.9c-1,0.6-2.1,0.8-3.2,0.8C1003.7,356.6,1001.5,355.5,1000.3,353.3z M1004.8,348
			L1004.8,348c-0.6,0.3-1,0.9-1.2,1.5s-0.1,1.3,0.2,1.9c0.7,1.2,2.2,1.6,3.4,0.9c1.2-0.7,1.6-2.2,0.9-3.4c-0.3-0.6-0.9-1-1.5-1.2
			c-0.2-0.1-0.4-0.1-0.7-0.1C1005.6,347.6,1005.2,347.8,1004.8,348z"/>
	</g>
</g>
<g>
	<g>
		<path class="st1" d="M854,175l-0.8-49.2c0-5.1-2.8-9.9-7.2-12.4l-59.2-34.1c-4.5-2.6-10-2.5-14.4,0l-44.5,23l1.8,3.6l44.6-23.1
			c3.3-1.9,7.3-1.9,10.5-0.1l59.2,34.1c3.2,1.8,5.2,5.3,5.2,9L850,175H854z"/>
	</g>
	<g>
		
			<ellipse transform="matrix(8.237327e-03 -1 1 8.237327e-03 670.1859 1025.6241)" class="st1" cx="852.1" cy="174.9" rx="4.5" ry="4.5"/>
		<path class="st1" d="M856.6,179.6c-1.2,1.2-2.9,1.9-4.6,1.9c-3.6,0-6.5-3-6.4-6.6l0,0c0-3.6,3-6.5,6.6-6.4c1.7,0,3.4,0.7,4.6,1.9
			c1.2,1.2,1.9,2.9,1.9,4.6c0,1.1-0.3,2.2-0.9,3.2C857.4,178.7,857.1,179.2,856.6,179.6z M849.6,174.9c0,1.4,1.1,2.5,2.5,2.5
			c0.7,0,1.3-0.2,1.8-0.7s0.7-1.1,0.7-1.8c0-0.7-0.2-1.3-0.7-1.8s-1.1-0.7-1.8-0.7c-0.9,0-1.8,0.5-2.2,1.3
			C849.7,174.1,849.6,174.5,849.6,174.9z"/>
	</g>
	<g>
		
			<ellipse transform="matrix(8.237327e-03 -1 1 8.237327e-03 618.8462 832.3131)" class="st1" cx="729" cy="104.2" rx="4.5" ry="4.5"/>
		<path class="st1" d="M728.9,110.7c-3.6,0-6.5-3-6.4-6.6c0-1.7,0.7-3.4,1.9-4.6s2.9-1.9,4.6-1.9c1.7,0,3.4,0.7,4.6,1.9
			c1.2,1.2,1.9,2.9,1.9,4.6c0,1.2-0.3,2.2-0.9,3.2C733.5,109.4,731.4,110.7,728.9,110.7z M726.5,104.2c0,1.4,1.1,2.5,2.5,2.5
			s2.5-1.1,2.5-2.5c0-0.7-0.2-1.3-0.7-1.8s-1.1-0.7-1.8-0.7s-1.3,0.2-1.8,0.7c-0.2,0.2-0.3,0.3-0.4,0.5
			C726.6,103.3,726.5,103.7,726.5,104.2z"/>
	</g>
</g>
<g>
	<path class="st4" d="M722.3,552.7v47.1c0,4.7-2.5,9.1-6.6,11.5l-40.8,23.5c-4.1,2.4-9.2,2.4-13.3,0l-40.8-23.6
		c-4.1-2.4-6.6-6.7-6.6-11.5v-47.1c0-4.7,2.5-9.1,6.6-11.5l40.8-23.6c4.1-2.4,9.2-2.4,13.3,0l40.8,23.6
		C719.8,543.6,722.3,547.9,722.3,552.7z"/>
	<path class="st5" d="M722.3,552.7v47.1c0,4.7-2.5,9.1-6.6,11.5l-40.8,23.5c-4.1,2.4-9.2,2.4-13.3,0l-40.8-23.6
		c-4.1-2.4-6.6-6.7-6.6-11.5v-47.1c0-4.7,2.5-9.1,6.6-11.5l40.8-23.6c4.1-2.4,9.2-2.4,13.3,0l40.8,23.6
		C719.8,543.6,722.3,547.9,722.3,552.7z"/>
</g>
<g>
	<path class="st4" d="M944.3,404.9V452c0,4.7-2.5,9.1-6.6,11.5l-40.8,23.6c-4.1,2.4-9.2,2.4-13.3,0l-40.8-23.6
		c-4.1-2.4-6.6-6.7-6.6-11.5v-47.1c0-4.7,2.5-9.1,6.6-11.5l40.8-23.6c4.1-2.4,9.2-2.4,13.3,0l40.8,23.6
		C941.8,395.8,944.3,400.2,944.3,404.9z"/>
	<path class="st5" d="M944.3,404.9V452c0,4.7-2.5,9.1-6.6,11.5l-40.8,23.6c-4.1,2.4-9.2,2.4-13.3,0l-40.8-23.6
		c-4.1-2.4-6.6-6.7-6.6-11.5v-47.1c0-4.7,2.5-9.1,6.6-11.5l40.8-23.6c4.1-2.4,9.2-2.4,13.3,0l40.8,23.6
		C941.8,395.8,944.3,400.2,944.3,404.9z"/>
</g>
<g>
	<path class="st4" d="M986.4,319.5v29.6c0,4.7-2.5,9.1-6.6,11.5l-25.7,14.8c-4.1,2.4-9.2,2.4-13.3,0l-25.7-14.8
		c-4.1-2.4-6.6-6.7-6.6-11.5v-29.6c0-4.7,2.5-9.1,6.6-11.5l25.7-14.8c4.1-2.4,9.2-2.4,13.3,0l25.7,14.8
		C983.9,310.4,986.4,314.8,986.4,319.5z"/>
	<path class="st6" d="M986.4,319.5v29.6c0,4.7-2.5,9.1-6.6,11.5l-25.7,14.8c-4.1,2.4-9.2,2.4-13.3,0l-25.7-14.8
		c-4.1-2.4-6.6-6.7-6.6-11.5v-29.6c0-4.7,2.5-9.1,6.6-11.5l25.7-14.8c4.1-2.4,9.2-2.4,13.3,0l25.7,14.8
		C983.9,310.4,986.4,314.8,986.4,319.5z"/>
</g>
<g>
	<path class="st4" d="M832.3,137.7v47.1c0,4.7-2.5,9.1-6.6,11.5l-40.8,23.5c-4.1,2.4-9.2,2.4-13.3,0l-40.8-23.6
		c-4.1-2.4-6.6-6.7-6.6-11.5v-47.1c0-4.7,2.5-9.1,6.6-11.5l40.8-23.6c4.1-2.4,9.2-2.4,13.3,0l40.8,23.6
		C829.8,128.6,832.3,132.9,832.3,137.7z"/>
	<path class="st5" d="M832.3,137.7v47.1c0,4.7-2.5,9.1-6.6,11.5l-40.8,23.5c-4.1,2.4-9.2,2.4-13.3,0l-40.8-23.6
		c-4.1-2.4-6.6-6.7-6.6-11.5v-47.1c0-4.7,2.5-9.1,6.6-11.5l40.8-23.6c4.1-2.4,9.2-2.4,13.3,0l40.8,23.6
		C829.8,128.6,832.3,132.9,832.3,137.7z"/>
</g>
<g>
	<path class="st4" d="M984.4,174.6v47.1c0,4.7-2.5,9.1-6.6,11.5l-40.9,23.6c-4.1,2.4-9.2,2.4-13.3,0l-40.8-23.6
		c-4.1-2.4-6.6-6.7-6.6-11.5v-47.1c0-4.7,2.5-9.1,6.6-11.5l40.8-23.6c4.1-2.4,9.2-2.4,13.3,0l40.8,23.6
		C981.8,165.5,984.4,169.9,984.4,174.6z"/>
	<path class="st5" d="M984.4,174.6v47.1c0,4.7-2.5,9.1-6.6,11.5l-40.9,23.6c-4.1,2.4-9.2,2.4-13.3,0l-40.8-23.6
		c-4.1-2.4-6.6-6.7-6.6-11.5v-47.1c0-4.7,2.5-9.1,6.6-11.5l40.8-23.6c4.1-2.4,9.2-2.4,13.3,0l40.8,23.6
		C981.8,165.5,984.4,169.9,984.4,174.6z"/>
</g>
<g>
	<path class="st4" d="M706.2,53.6v29.6c0,4.7-2.5,9.1-6.6,11.5l-25.7,14.8c-4.1,2.4-9.2,2.4-13.3,0l-25.7-14.8
		c-4.1-2.4-6.6-6.7-6.6-11.5V53.6c0-4.7,2.5-9.1,6.6-11.5l25.7-14.8c4.1-2.4,9.2-2.4,13.3,0l25.7,14.8
		C703.7,44.5,706.2,48.8,706.2,53.6z"/>
	<path class="st6" d="M706.2,53.6v29.6c0,4.7-2.5,9.1-6.6,11.5l-25.7,14.8c-4.1,2.4-9.2,2.4-13.3,0l-25.7-14.8
		c-4.1-2.4-6.6-6.7-6.6-11.5V53.6c0-4.7,2.5-9.1,6.6-11.5l25.7-14.8c4.1-2.4,9.2-2.4,13.3,0l25.7,14.8
		C703.7,44.5,706.2,48.8,706.2,53.6z"/>
</g>
<g>
	<path class="st4" d="M1036.7,396.5v29.6c0,4.7-2.5,9.1-6.6,11.5l-25.7,14.8c-4.1,2.4-9.2,2.4-13.3,0l-25.7-14.8
		c-4.1-2.4-6.6-6.7-6.6-11.5v-29.6c0-4.7,2.5-9.1,6.6-11.5l25.7-14.8c4.1-2.4,9.2-2.4,13.3,0l25.7,14.8
		C1034.2,387.4,1036.7,391.7,1036.7,396.5z"/>
	<path class="st6" d="M1036.7,396.5v29.6c0,4.7-2.5,9.1-6.6,11.5l-25.7,14.8c-4.1,2.4-9.2,2.4-13.3,0l-25.7-14.8
		c-4.1-2.4-6.6-6.7-6.6-11.5v-29.6c0-4.7,2.5-9.1,6.6-11.5l25.7-14.8c4.1-2.4,9.2-2.4,13.3,0l25.7,14.8
		C1034.2,387.4,1036.7,391.7,1036.7,396.5z"/>
</g>
<g>
	<path class="st4" d="M894.2,272.6v65.7c0,4.7-2.5,9.1-6.6,11.5l-56.9,32.8c-4.1,2.4-9.2,2.4-13.3,0l-56.9-32.8
		c-4.1-2.4-6.6-6.7-6.6-11.5v-65.7c0-4.7,2.5-9.1,6.6-11.5l56.9-32.8c4.1-2.4,9.2-2.4,13.3,0l56.9,32.8
		C891.7,263.4,894.2,267.8,894.2,272.6z"/>
	<path class="st8" d="M894.2,272.6v65.7c0,4.7-2.5,9.1-6.6,11.5l-56.9,32.8c-4.1,2.4-9.2,2.4-13.3,0l-56.9-32.8
		c-4.1-2.4-6.6-6.7-6.6-11.5v-65.7c0-4.7,2.5-9.1,6.6-11.5l56.9-32.8c4.1-2.4,9.2-2.4,13.3,0l56.9,32.8
		C891.7,263.4,894.2,267.8,894.2,272.6z"/>
</g>
<g>
	<g class="st7">
		<path class="st9" d="M813.2,294.5h3.4l-7,20h-3.4l-7-20h3.4l4.2,12.4c0.2,0.6,0.5,1.4,0.7,2.3s0.4,1.6,0.5,2.1
			c0.1-0.7,0.3-1.5,0.5-2.4s0.4-1.6,0.6-2L813.2,294.5z"/>
		<path class="st9" d="M832.4,300.6c0,2.1-0.7,3.7-2.1,4.8s-3.3,1.7-5.8,1.7h-2.1v7.5h-3.3v-20h5.8c2.5,0,4.4,0.5,5.6,1.5
			S832.4,298.6,832.4,300.6z M822.5,304.3h1.7c1.7,0,2.9-0.3,3.7-0.9s1.2-1.5,1.2-2.7c0-1.1-0.4-2-1.1-2.6s-1.8-0.8-3.3-0.8h-2.3
			V304.3z"/>
		<path class="st9" d="M848,309.1c0,1.8-0.6,3.2-1.9,4.2s-3.1,1.5-5.3,1.5s-4.1-0.4-5.6-1.1v-3.1c0.9,0.4,1.9,0.8,2.9,1
			s2,0.4,2.9,0.4c1.3,0,2.2-0.2,2.9-0.7s0.9-1.2,0.9-2c0-0.7-0.3-1.4-0.8-1.9s-1.7-1.1-3.5-1.8c-1.8-0.7-3.1-1.6-3.9-2.5
			s-1.1-2.1-1.1-3.4c0-1.7,0.6-3,1.8-3.9s2.8-1.4,4.8-1.4c1.9,0,3.8,0.4,5.7,1.3l-1,2.7c-1.8-0.7-3.4-1.1-4.8-1.1
			c-1.1,0-1.9,0.2-2.4,0.7s-0.8,1.1-0.8,1.8c0,0.5,0.1,1,0.3,1.3s0.6,0.7,1.1,1s1.4,0.8,2.7,1.3c1.5,0.6,2.5,1.2,3.2,1.7
			s1.2,1.1,1.5,1.8S848,308.2,848,309.1z"/>
	</g>
</g>
<g>
	<g class="st7">
		<path class="st9" d="M772.2,150.8h2.5l-5.2,15h-2.6l-5.2-15h2.5l3.1,9.3c0.2,0.4,0.3,1,0.5,1.7c0.2,0.7,0.3,1.2,0.4,1.6
			c0.1-0.5,0.2-1.1,0.4-1.8c0.2-0.7,0.3-1.2,0.4-1.5L772.2,150.8z"/>
		<path class="st9" d="M786.6,155.3c0,1.6-0.5,2.8-1.5,3.6s-2.5,1.2-4.4,1.2h-1.6v5.6h-2.4v-15h4.3c1.9,0,3.3,0.4,4.2,1.1
			S786.6,153.9,786.6,155.3z M779.1,158.1h1.3c1.3,0,2.2-0.2,2.8-0.7c0.6-0.4,0.9-1.1,0.9-2c0-0.9-0.3-1.5-0.8-1.9s-1.3-0.6-2.5-0.6
			h-1.7V158.1z"/>
		<path class="st9" d="M798.2,161.7c0,1.3-0.5,2.4-1.4,3.1c-1,0.8-2.3,1.1-4,1.1c-1.7,0-3.1-0.3-4.2-0.8v-2.3
			c0.7,0.3,1.4,0.6,2.2,0.8c0.8,0.2,1.5,0.3,2.1,0.3c1,0,1.7-0.2,2.1-0.6c0.5-0.4,0.7-0.9,0.7-1.5c0-0.6-0.2-1-0.6-1.4
			s-1.3-0.8-2.6-1.4c-1.4-0.6-2.3-1.2-2.9-1.9s-0.8-1.6-0.8-2.6c0-1.2,0.4-2.2,1.3-2.9c0.9-0.7,2.1-1.1,3.6-1.1
			c1.4,0,2.9,0.3,4.3,0.9l-0.8,2c-1.3-0.6-2.5-0.8-3.6-0.8c-0.8,0-1.4,0.2-1.8,0.5c-0.4,0.3-0.6,0.8-0.6,1.4c0,0.4,0.1,0.7,0.2,1
			c0.2,0.3,0.4,0.5,0.8,0.8s1.1,0.6,2,1c1.1,0.5,1.9,0.9,2.4,1.3s0.9,0.8,1.1,1.3C798.1,160.4,798.2,161,798.2,161.7z"/>
	</g>
</g>
<g>
	<g class="st7">
		<path class="st9" d="M882.7,420.8h2.5l-5.2,15h-2.6l-5.2-15h2.5l3.1,9.3c0.2,0.4,0.3,1,0.5,1.7c0.2,0.7,0.3,1.2,0.4,1.6
			c0.1-0.5,0.2-1.1,0.4-1.8c0.2-0.7,0.3-1.2,0.4-1.5L882.7,420.8z"/>
		<path class="st9" d="M897.1,425.3c0,1.6-0.5,2.8-1.5,3.6s-2.5,1.2-4.4,1.2h-1.6v5.6h-2.4v-15h4.3c1.9,0,3.3,0.4,4.2,1.1
			S897.1,423.9,897.1,425.3z M889.6,428.1h1.3c1.3,0,2.2-0.2,2.8-0.7c0.6-0.4,0.9-1.1,0.9-2c0-0.9-0.3-1.5-0.8-1.9s-1.3-0.6-2.5-0.6
			h-1.7V428.1z"/>
		<path class="st9" d="M908.7,431.7c0,1.3-0.5,2.4-1.4,3.1c-1,0.8-2.3,1.1-4,1.1c-1.7,0-3.1-0.3-4.2-0.8v-2.3
			c0.7,0.3,1.4,0.6,2.2,0.8c0.8,0.2,1.5,0.3,2.1,0.3c1,0,1.7-0.2,2.1-0.6c0.5-0.4,0.7-0.9,0.7-1.5c0-0.6-0.2-1-0.6-1.4
			s-1.3-0.8-2.6-1.4c-1.4-0.6-2.3-1.2-2.9-1.9s-0.8-1.6-0.8-2.6c0-1.2,0.4-2.2,1.3-2.9c0.9-0.7,2.1-1.1,3.6-1.1
			c1.4,0,2.9,0.3,4.3,0.9l-0.8,2c-1.3-0.6-2.5-0.8-3.6-0.8c-0.8,0-1.4,0.2-1.8,0.5c-0.4,0.3-0.6,0.8-0.6,1.4c0,0.4,0.1,0.7,0.2,1
			c0.2,0.3,0.4,0.5,0.8,0.8s1.1,0.6,2,1c1.1,0.5,1.9,0.9,2.4,1.3s0.9,0.8,1.1,1.3C908.6,430.4,908.7,431,908.7,431.7z"/>
	</g>
</g>
<g>
	<g class="st7">
		<path class="st9" d="M662.1,568.2h2.5l-5.2,15h-2.6l-5.2-15h2.5l3.1,9.3c0.2,0.4,0.3,1,0.5,1.7c0.2,0.7,0.3,1.2,0.4,1.6
			c0.1-0.5,0.2-1.1,0.4-1.8s0.3-1.2,0.5-1.5L662.1,568.2z"/>
		<path class="st9" d="M676.6,572.7c0,1.6-0.5,2.8-1.5,3.6s-2.5,1.2-4.4,1.2h-1.6v5.6h-2.4v-15h4.3c1.9,0,3.3,0.4,4.2,1.1
			C676.1,570.1,676.6,571.2,676.6,572.7z M669.1,575.5h1.3c1.3,0,2.2-0.2,2.8-0.7s0.9-1.1,0.9-2c0-0.9-0.3-1.5-0.8-1.9
			c-0.5-0.4-1.3-0.6-2.5-0.6h-1.7V575.5z"/>
		<path class="st9" d="M688.2,579c0,1.3-0.5,2.4-1.4,3.1s-2.3,1.1-4,1.1c-1.7,0-3.1-0.3-4.2-0.8v-2.3c0.7,0.3,1.4,0.6,2.2,0.8
			c0.8,0.2,1.5,0.3,2.1,0.3c1,0,1.7-0.2,2.1-0.6c0.5-0.4,0.7-0.9,0.7-1.5c0-0.6-0.2-1-0.6-1.4c-0.4-0.4-1.3-0.8-2.6-1.4
			c-1.4-0.6-2.3-1.2-2.9-1.9c-0.6-0.7-0.8-1.6-0.8-2.6c0-1.2,0.4-2.2,1.3-2.9s2.1-1.1,3.6-1.1c1.4,0,2.9,0.3,4.3,0.9l-0.8,2
			c-1.3-0.6-2.5-0.8-3.6-0.8c-0.8,0-1.4,0.2-1.8,0.5c-0.4,0.3-0.6,0.8-0.6,1.4c0,0.4,0.1,0.7,0.2,1s0.4,0.5,0.8,0.8s1,0.6,2,1
			c1.1,0.5,1.9,0.9,2.4,1.3c0.5,0.4,0.9,0.8,1.1,1.3C688.1,577.8,688.2,578.4,688.2,579z"/>
	</g>
</g>
<g>
	<g class="st7">
		<path class="st9" d="M923.1,188.7h2.5l-5.2,15h-2.6l-5.2-15h2.5l3.1,9.3c0.2,0.4,0.3,1,0.5,1.7c0.2,0.7,0.3,1.2,0.4,1.6
			c0.1-0.5,0.2-1.1,0.4-1.8c0.2-0.7,0.3-1.2,0.4-1.5L923.1,188.7z"/>
		<path class="st9" d="M937.5,193.2c0,1.6-0.5,2.8-1.5,3.6s-2.5,1.2-4.4,1.2H930v5.6h-2.4v-15h4.3c1.9,0,3.3,0.4,4.2,1.1
			S937.5,191.8,937.5,193.2z M930,196h1.3c1.3,0,2.2-0.2,2.8-0.7c0.6-0.4,0.9-1.1,0.9-2c0-0.9-0.3-1.5-0.8-1.9s-1.3-0.6-2.5-0.6H930
			V196z"/>
		<path class="st9" d="M949.1,199.6c0,1.3-0.5,2.4-1.4,3.1c-1,0.8-2.3,1.1-4,1.1c-1.7,0-3.1-0.3-4.2-0.8v-2.3
			c0.7,0.3,1.4,0.6,2.2,0.8c0.8,0.2,1.5,0.3,2.1,0.3c1,0,1.7-0.2,2.1-0.6c0.5-0.4,0.7-0.9,0.7-1.5c0-0.6-0.2-1-0.6-1.4
			s-1.3-0.8-2.6-1.4c-1.4-0.6-2.3-1.2-2.9-1.9s-0.8-1.6-0.8-2.6c0-1.2,0.4-2.2,1.3-2.9c0.9-0.7,2.1-1.1,3.6-1.1
			c1.4,0,2.9,0.3,4.3,0.9l-0.8,2c-1.3-0.6-2.5-0.8-3.6-0.8c-0.8,0-1.4,0.2-1.8,0.5c-0.4,0.3-0.6,0.8-0.6,1.4c0,0.4,0.1,0.7,0.2,1
			c0.2,0.3,0.4,0.5,0.8,0.8s1.1,0.6,2,1c1.1,0.5,1.9,0.9,2.4,1.3s0.9,0.8,1.1,1.3C949,198.4,949.1,198.9,949.1,199.6z"/>
	</g>
</g>
<g>
	<g class="st7">
		<path class="st9" d="M991.6,405.4h2.1l-4.2,12.1h-2.1l-4.2-12.1h2l2.5,7.5c0.1,0.4,0.3,0.8,0.4,1.4c0.1,0.6,0.2,1,0.3,1.3
			c0.1-0.4,0.2-0.9,0.3-1.5c0.1-0.6,0.3-1,0.4-1.2L991.6,405.4z"/>
		<path class="st9" d="M1003.3,409.1c0,1.3-0.4,2.2-1.2,2.9c-0.8,0.7-2,1-3.5,1h-1.3v4.5h-2v-12.1h3.5c1.5,0,2.6,0.3,3.4,0.9
			C1002.9,407,1003.3,407.9,1003.3,409.1z M997.2,411.4h1c1,0,1.8-0.2,2.2-0.5c0.5-0.4,0.7-0.9,0.7-1.7c0-0.7-0.2-1.2-0.6-1.6
			s-1.1-0.5-2-0.5h-1.4V411.4z"/>
		<path class="st9" d="M1012.7,414.3c0,1.1-0.4,1.9-1.2,2.5c-0.8,0.6-1.8,0.9-3.2,0.9s-2.5-0.2-3.4-0.6v-1.9
			c0.6,0.3,1.1,0.5,1.8,0.6c0.6,0.1,1.2,0.2,1.7,0.2c0.8,0,1.4-0.1,1.7-0.4c0.4-0.3,0.6-0.7,0.6-1.2c0-0.5-0.2-0.8-0.5-1.2
			s-1-0.7-2.1-1.1c-1.1-0.4-1.9-1-2.3-1.5c-0.5-0.6-0.7-1.3-0.7-2.1c0-1,0.4-1.8,1.1-2.4c0.7-0.6,1.7-0.9,2.9-0.9
			c1.2,0,2.3,0.3,3.5,0.8l-0.6,1.6c-1.1-0.5-2-0.7-2.9-0.7c-0.6,0-1.1,0.1-1.5,0.4c-0.3,0.3-0.5,0.6-0.5,1.1c0,0.3,0.1,0.6,0.2,0.8
			c0.1,0.2,0.4,0.4,0.7,0.6c0.3,0.2,0.8,0.5,1.6,0.8c0.9,0.4,1.5,0.7,2,1c0.4,0.3,0.7,0.7,0.9,1.1
			C1012.6,413.2,1012.7,413.7,1012.7,414.3z"/>
	</g>
</g>
<g>
	<g class="st7">
		<path class="st9" d="M942.3,328.1h2.1l-4.2,12.1H938l-4.2-12.1h2l2.5,7.5c0.1,0.4,0.3,0.8,0.4,1.4c0.1,0.6,0.2,1,0.3,1.3
			c0.1-0.4,0.2-0.9,0.3-1.5c0.1-0.6,0.3-1,0.4-1.2L942.3,328.1z"/>
		<path class="st9" d="M953.9,331.8c0,1.3-0.4,2.2-1.2,2.9c-0.8,0.7-2,1-3.5,1h-1.3v4.5h-2v-12.1h3.5c1.5,0,2.6,0.3,3.4,0.9
			S953.9,330.6,953.9,331.8z M947.9,334h1.1c1,0,1.8-0.2,2.2-0.5c0.5-0.4,0.7-0.9,0.7-1.7c0-0.7-0.2-1.2-0.6-1.6s-1.1-0.5-2-0.5
			h-1.4V334z"/>
		<path class="st9" d="M963.3,336.9c0,1.1-0.4,1.9-1.2,2.5c-0.8,0.6-1.8,0.9-3.2,0.9c-1.4,0-2.5-0.2-3.4-0.6v-1.9
			c0.6,0.3,1.1,0.5,1.8,0.6c0.6,0.1,1.2,0.2,1.7,0.2c0.8,0,1.4-0.1,1.7-0.4c0.4-0.3,0.6-0.7,0.6-1.2c0-0.5-0.2-0.8-0.5-1.1
			c-0.3-0.3-1-0.7-2.1-1.1c-1.1-0.4-1.9-1-2.3-1.5s-0.7-1.3-0.7-2.1c0-1,0.4-1.8,1.1-2.4s1.7-0.9,2.9-0.9c1.2,0,2.3,0.3,3.5,0.8
			l-0.6,1.6c-1.1-0.5-2-0.7-2.9-0.7c-0.6,0-1.1,0.1-1.5,0.4c-0.3,0.3-0.5,0.6-0.5,1.1c0,0.3,0.1,0.6,0.2,0.8
			c0.1,0.2,0.4,0.4,0.7,0.6c0.3,0.2,0.8,0.5,1.6,0.8c0.9,0.4,1.5,0.7,2,1c0.4,0.3,0.7,0.7,0.9,1.1
			C963.2,335.9,963.3,336.4,963.3,336.9z"/>
	</g>
</g>
<g>
	<g class="st7">
		<path class="st9" d="M662.1,61.8h2.1L660,73.8h-2.1l-4.2-12.1h2l2.5,7.5c0.1,0.4,0.3,0.8,0.4,1.4c0.1,0.6,0.2,1,0.3,1.3
			c0.1-0.4,0.2-0.9,0.3-1.5c0.1-0.6,0.3-1,0.4-1.2L662.1,61.8z"/>
		<path class="st9" d="M673.8,65.4c0,1.3-0.4,2.2-1.2,2.9c-0.8,0.7-2,1-3.5,1h-1.3v4.5h-2V61.8h3.5c1.5,0,2.6,0.3,3.4,0.9
			S673.8,64.2,673.8,65.4z M667.8,67.7h1.1c1,0,1.8-0.2,2.2-0.5c0.5-0.4,0.7-0.9,0.7-1.7c0-0.7-0.2-1.2-0.6-1.6
			c-0.4-0.3-1.1-0.5-2-0.5h-1.4V67.7z"/>
		<path class="st9" d="M683.2,70.6c0,1.1-0.4,1.9-1.2,2.5c-0.8,0.6-1.8,0.9-3.2,0.9c-1.4,0-2.5-0.2-3.4-0.6v-1.9
			c0.6,0.3,1.1,0.5,1.8,0.6c0.6,0.1,1.2,0.2,1.7,0.2c0.8,0,1.4-0.1,1.7-0.4c0.4-0.3,0.6-0.7,0.6-1.2c0-0.5-0.2-0.8-0.5-1.1
			c-0.3-0.3-1-0.7-2.1-1.1c-1.1-0.4-1.9-1-2.3-1.5s-0.7-1.3-0.7-2.1c0-1,0.4-1.8,1.1-2.4s1.7-0.9,2.9-0.9c1.2,0,2.3,0.3,3.5,0.8
			l-0.6,1.6c-1.1-0.5-2-0.7-2.9-0.7c-0.6,0-1.1,0.1-1.5,0.4c-0.3,0.3-0.5,0.6-0.5,1.1c0,0.3,0.1,0.6,0.2,0.8
			c0.1,0.2,0.4,0.4,0.7,0.6c0.3,0.2,0.8,0.5,1.6,0.8c0.9,0.4,1.5,0.7,2,1c0.4,0.3,0.7,0.7,0.9,1.1C683.1,69.5,683.2,70,683.2,70.6z"
			/>
	</g>
</g>
<g>
	<circle class="st2" cx="742" cy="63.9" r="4.5"/>
	<path class="st2" d="M735.5,63.9c0-3.6,2.9-6.5,6.5-6.5s6.5,2.9,6.5,6.5c0,3.6-2.9,6.5-6.5,6.5S735.5,67.5,735.5,63.9z M739.5,63.9
		c0,1.4,1.1,2.5,2.5,2.5s2.5-1.1,2.5-2.5c0-1.4-1.1-2.5-2.5-2.5S739.5,62.5,739.5,63.9z"/>
</g>
<g>
	<circle class="st2" cx="1032.3" cy="366.4" r="4.5"/>
	<path class="st2" d="M1025.8,366.4c0-3.6,2.9-6.5,6.5-6.5s6.5,2.9,6.5,6.5s-2.9,6.5-6.5,6.5S1025.8,370,1025.8,366.4z
		 M1029.8,366.4c0,1.4,1.1,2.5,2.5,2.5s2.5-1.1,2.5-2.5s-1.1-2.5-2.5-2.5S1029.8,365,1029.8,366.4z"/>
</g>
<g>
	<circle class="st2" cx="881.6" cy="136.9" r="4.5"/>
	<path class="st2" d="M875.1,136.9c0-3.6,2.9-6.5,6.5-6.5s6.5,2.9,6.5,6.5s-2.9,6.5-6.5,6.5S875.1,140.5,875.1,136.9z M879.1,136.9
		c0,1.4,1.1,2.5,2.5,2.5s2.5-1.1,2.5-2.5s-1.1-2.5-2.5-2.5S879.1,135.5,879.1,136.9z"/>
</g>
<g>
	<circle class="st0" cx="980.6" cy="256" r="4.5"/>
	<path class="st0" d="M974.1,256c0-3.6,2.9-6.5,6.5-6.5s6.5,2.9,6.5,6.5c0,3.6-2.9,6.5-6.5,6.5S974.1,259.6,974.1,256z M978.1,256
		c0,1.4,1.1,2.5,2.5,2.5s2.5-1.1,2.5-2.5c0-1.4-1.1-2.5-2.5-2.5S978.1,254.6,978.1,256z"/>
</g>
<g>
	<circle class="st2" cx="919.1" cy="279.5" r="4.5"/>
	<path class="st2" d="M912.6,279.5c0-3.6,2.9-6.5,6.5-6.5s6.5,2.9,6.5,6.5s-2.9,6.5-6.5,6.5S912.6,283.1,912.6,279.5z M916.6,279.5
		c0,1.4,1.1,2.5,2.5,2.5s2.5-1.1,2.5-2.5s-1.1-2.5-2.5-2.5S916.6,278.1,916.6,279.5z"/>
</g>
<g>
	<circle class="st0" cx="852.1" cy="210.1" r="4.5"/>
	<path class="st0" d="M845.6,210.1c0-3.6,2.9-6.5,6.5-6.5s6.5,2.9,6.5,6.5s-2.9,6.5-6.5,6.5S845.6,213.7,845.6,210.1z M849.6,210.1
		c0,1.4,1.1,2.5,2.5,2.5s2.5-1.1,2.5-2.5s-1.1-2.5-2.5-2.5S849.6,208.8,849.6,210.1z"/>
</g>
<g>
	<circle class="st1" cx="691.6" cy="456.2" r="4.5"/>
	<path class="st1" d="M685.1,456.2c0-3.6,2.9-6.5,6.5-6.5s6.5,2.9,6.5,6.5s-2.9,6.5-6.5,6.5S685.1,459.8,685.1,456.2z M689.1,456.2
		c0,1.4,1.1,2.5,2.5,2.5s2.5-1.1,2.5-2.5s-1.1-2.5-2.5-2.5S689.1,454.9,689.1,456.2z"/>
</g>
<g>
	<circle class="st2" cx="431.7" cy="493.3" r="4.5"/>
	<path class="st2" d="M431.7,499.8c-3.6,0-6.5-2.9-6.5-6.5s2.9-6.5,6.5-6.5s6.5,2.9,6.5,6.5S435.3,499.8,431.7,499.8z M431.7,490.8
		c-1.4,0-2.5,1.1-2.5,2.5s1.1,2.5,2.5,2.5s2.5-1.1,2.5-2.5S433.1,490.8,431.7,490.8z"/>
</g>
<g>
	<circle class="st1" cx="382.7" cy="467.7" r="4.5"/>
	<path class="st1" d="M382.7,474.2c-3.6,0-6.5-2.9-6.5-6.5s2.9-6.5,6.5-6.5s6.5,2.9,6.5,6.5S386.3,474.2,382.7,474.2z M382.7,465.2
		c-1.4,0-2.5,1.1-2.5,2.5s1.1,2.5,2.5,2.5s2.5-1.1,2.5-2.5S384.1,465.2,382.7,465.2z"/>
</g>
</svg>
