<?xml version="1.0" encoding="utf-8"?>
<!-- Generator: Adobe Illustrator 20.1.0, SVG Export Plug-In . SVG Version: 6.00 Build 0)  -->
<svg version="1.1" xmlns="http://www.w3.org/2000/svg" xmlns:xlink="http://www.w3.org/1999/xlink" x="0px" y="0px"
	 viewBox="0 0 841.9 595.3" style="enable-background:new 0 0 841.9 595.3;" xml:space="preserve">
<style type="text/css">
	.st0{fill:#FFFFFF;}
	.st1{fill-rule:evenodd;clip-rule:evenodd;fill:#FFFFFF;}
</style>
<g id="Layer_2">
	<g>
		<path class="st0" d="M105.9,220.5h-4.1l3.3-13.8H91.4l-3.3,13.8h-4.1l7.1-29.6h4.1l-3,12.4h13.7l3-12.4h4.1L105.9,220.5z"/>
		<path class="st0" d="M121.3,221c-2.3,0-4.2-0.7-5.5-2.1c-1.3-1.4-2-3.3-2-5.7c0-1.7,0.2-3.4,0.7-5.2c0.5-1.8,1.2-3.5,2.2-5
			c1-1.5,2.4-2.8,4-3.8c1.6-1,3.6-1.5,5.9-1.5c2.3,0,4.2,0.7,5.5,2.1c1.3,1.4,2,3.3,2,5.7c0,1.7-0.2,3.4-0.7,5.2
			c-0.5,1.8-1.2,3.5-2.2,5c-1,1.5-2.4,2.8-4,3.8C125.6,220.5,123.7,221,121.3,221z M122,217.7c1.3,0,2.4-0.4,3.4-1.1
			c1-0.7,1.9-1.7,2.6-2.8c0.7-1.2,1.2-2.4,1.6-3.8c0.4-1.4,0.6-2.8,0.6-4.1c0-1.5-0.3-2.6-0.9-3.5c-0.6-0.9-1.7-1.3-3.3-1.3
			c-1.3,0-2.4,0.4-3.4,1.1c-1,0.7-1.9,1.7-2.6,2.8c-0.7,1.2-1.2,2.4-1.6,3.8c-0.4,1.4-0.6,2.8-0.6,4.1c0,1.5,0.3,2.6,0.9,3.5
			C119.4,217.2,120.5,217.7,122,217.7z"/>
		<path class="st0" d="M142.1,217.7c0.6,0,1.2-0.1,1.8-0.2c0.6-0.1,1.2-0.3,1.6-0.6c0.5-0.3,0.9-0.6,1.2-1c0.3-0.4,0.4-1,0.4-1.6
			c0-0.4-0.1-0.8-0.2-1.1c-0.1-0.3-0.4-0.6-0.7-0.9c-0.3-0.3-0.7-0.6-1.2-0.8c-0.5-0.3-1-0.6-1.7-0.9c-0.7-0.3-1.3-0.6-1.8-0.9
			c-0.5-0.3-1-0.7-1.4-1.1c-0.4-0.4-0.7-0.9-1-1.5c-0.2-0.6-0.3-1.3-0.3-2.1c0-2.1,0.8-3.9,2.3-5.2c1.5-1.3,3.8-1.9,6.7-1.9
			c1.4,0,2.6,0.1,3.6,0.4c1,0.3,1.8,0.5,2.2,0.7l-1.5,3.3c-0.4-0.2-1-0.5-1.9-0.7c-0.9-0.3-1.9-0.4-3-0.4c-0.5,0-1.1,0.1-1.6,0.2
			c-0.5,0.1-1,0.3-1.5,0.6c-0.4,0.3-0.8,0.6-1.1,1.1c-0.3,0.4-0.4,1-0.4,1.6c0,0.8,0.3,1.4,0.9,1.9c0.6,0.5,1.5,1,2.7,1.6
			c0.7,0.3,1.4,0.7,2,1c0.6,0.4,1.1,0.8,1.5,1.2c0.4,0.4,0.7,1,0.9,1.6c0.2,0.6,0.3,1.3,0.3,2.1c0,1.2-0.2,2.3-0.7,3.2
			c-0.5,0.9-1.1,1.7-1.9,2.3c-0.8,0.6-1.8,1-2.9,1.3c-1.1,0.3-2.3,0.4-3.6,0.4c-1,0-1.8-0.1-2.6-0.2c-0.8-0.1-1.5-0.3-2.1-0.4
			c-0.6-0.2-1.1-0.3-1.5-0.5c-0.4-0.2-0.7-0.3-0.9-0.4l1.5-3.3c0.2,0.1,0.5,0.3,0.8,0.4c0.4,0.2,0.8,0.3,1.3,0.5
			c0.5,0.2,1,0.3,1.6,0.4S141.5,217.7,142.1,217.7z"/>
		<path class="st0" d="M167.2,197.7c1.4,0,2.6,0.2,3.6,0.6c1,0.4,1.8,0.9,2.5,1.6c0.7,0.7,1.1,1.5,1.5,2.5c0.3,1,0.5,2,0.5,3.1
			c0,2-0.3,3.9-0.9,5.7c-0.6,1.8-1.5,3.5-2.8,4.9c-1.2,1.4-2.8,2.6-4.7,3.4c-1.9,0.9-4.1,1.3-6.7,1.3c-0.3,0-0.7,0-1,0
			c-0.4,0-0.7-0.1-1-0.1l-1.8,7.7h-4l7-29.2c1.2-0.5,2.5-0.9,3.9-1.1C164.7,197.8,166,197.7,167.2,197.7z M158.9,217.4
			c0.3,0.1,0.6,0.1,0.9,0.1c0.3,0,0.6,0,1,0c1.6,0,3.1-0.3,4.4-0.9c1.3-0.6,2.4-1.5,3.3-2.5c0.9-1.1,1.6-2.3,2.1-3.7
			c0.5-1.4,0.7-2.8,0.7-4.3c0-0.6-0.1-1.2-0.2-1.8c-0.1-0.6-0.4-1.1-0.8-1.6c-0.4-0.5-0.9-0.8-1.6-1.1c-0.7-0.3-1.5-0.4-2.5-0.4
			c-0.7,0-1.4,0.1-2,0.2s-1.1,0.3-1.5,0.4L158.9,217.4z"/>
		<path class="st0" d="M187.1,221c-1.5,0-2.7-0.2-3.8-0.6c-1.1-0.4-1.9-1-2.7-1.7c-0.7-0.7-1.2-1.6-1.6-2.5c-0.3-1-0.5-2-0.5-3.1
			c0-2,0.3-3.9,0.9-5.8c0.6-1.9,1.5-3.5,2.6-4.9c1.1-1.4,2.5-2.6,4.1-3.4c1.6-0.8,3.4-1.3,5.4-1.3c1.2,0,2.2,0.1,3,0.4
			c0.8,0.3,1.5,0.7,2.1,1.2c0.5,0.5,0.9,1.1,1.2,1.8c0.3,0.7,0.4,1.4,0.4,2.1c0,1.3-0.2,2.5-0.7,3.4c-0.5,0.9-1.1,1.7-1.9,2.3
			c-0.8,0.6-1.7,1.1-2.8,1.5c-1.1,0.3-2.2,0.6-3.3,0.8c-1.2,0.2-2.3,0.3-3.5,0.4c-1.2,0.1-2.3,0.1-3.4,0.2c0,0.2,0,0.4,0,0.6
			c0,0.1,0,0.3,0,0.3c0,0.7,0.1,1.3,0.2,1.9c0.2,0.6,0.4,1.1,0.9,1.5c0.4,0.4,1,0.8,1.8,1c0.8,0.3,1.7,0.4,3,0.4
			c0.5,0,1.1,0,1.7-0.1c0.6-0.1,1.1-0.2,1.7-0.4c0.5-0.2,1-0.3,1.4-0.5c0.4-0.2,0.7-0.3,0.9-0.4l0.3,3.4c-0.6,0.3-1.5,0.6-2.8,1
			C190.3,220.9,188.8,221,187.1,221z M183,208.8c1.7-0.1,3.2-0.2,4.5-0.3c1.4-0.2,2.6-0.4,3.6-0.8c1-0.4,1.8-0.9,2.3-1.6
			c0.6-0.7,0.8-1.5,0.8-2.6c0-0.3-0.1-0.5-0.1-0.8c-0.1-0.3-0.3-0.5-0.5-0.8c-0.2-0.2-0.6-0.4-1-0.6c-0.4-0.2-1-0.2-1.6-0.2
			c-1,0-1.9,0.2-2.8,0.6c-0.9,0.4-1.6,1-2.3,1.7c-0.7,0.7-1.3,1.5-1.8,2.4C183.7,206.8,183.3,207.8,183,208.8z"/>
		<path class="st0" d="M217.8,216.1c0,0.7,0.1,1.3,0.2,2c0.1,0.7,0.3,1.4,0.6,2.2l-3.5,0.5c-0.3-0.6-0.6-1.4-0.7-2.3
			c-0.6,0.6-1.5,1.1-2.5,1.7c-1.1,0.6-2.4,0.9-3.9,0.9c-1.3,0-2.3-0.2-3.3-0.6c-0.9-0.4-1.7-0.9-2.3-1.6c-0.6-0.7-1-1.6-1.3-2.5
			c-0.3-1-0.4-2.1-0.4-3.2c0-1.9,0.3-3.8,1-5.6c0.6-1.8,1.6-3.5,2.9-4.9c1.3-1.4,2.9-2.6,4.8-3.4c1.9-0.9,4.1-1.3,6.7-1.3
			c0.3,0,0.6,0,0.9,0c0.3,0,0.6,0.1,1,0.1l2.4-10l4.1-0.7l-6,25c-0.1,0.7-0.3,1.3-0.4,1.9C217.9,214.8,217.8,215.4,217.8,216.1z
			 M208.7,217.7c1.2,0,2.2-0.2,3.1-0.7c0.8-0.5,1.6-1.1,2.2-1.7c0-0.5,0.1-0.9,0.1-1.5c0.1-0.5,0.2-1.1,0.3-1.7l2.6-10.7
			c-0.3-0.1-0.5-0.1-0.9-0.1c-0.3,0-0.6,0-0.9,0c-1.6,0-3.1,0.3-4.4,0.9c-1.3,0.6-2.4,1.5-3.4,2.5c-0.9,1.1-1.6,2.3-2.1,3.7
			c-0.5,1.4-0.7,2.8-0.7,4.3c0,0.7,0.1,1.3,0.2,1.9c0.1,0.6,0.4,1.1,0.7,1.6c0.3,0.5,0.7,0.8,1.3,1.1
			C207.3,217.5,208,217.7,208.7,217.7z"/>
		<path class="st0" d="M238.3,220.7c-0.1-0.3-0.3-0.7-0.4-1c-0.1-0.4-0.3-0.8-0.3-1.2c-0.6,0.6-1.5,1.1-2.5,1.7
			c-1.1,0.6-2.4,0.9-3.9,0.9c-1.3,0-2.3-0.2-3.2-0.6c-0.9-0.4-1.6-1-2.2-1.7c-0.6-0.7-1-1.6-1.3-2.5c-0.3-1-0.4-2-0.4-3.2
			c0-1.9,0.3-3.8,1-5.6c0.6-1.8,1.6-3.5,2.9-4.9c1.3-1.4,2.9-2.6,4.8-3.5c1.9-0.9,4.2-1.3,6.8-1.3c0.8,0,1.7,0.1,2.7,0.3
			c1,0.2,1.9,0.5,2.7,0.9l-3.3,13.4c-0.1,0.7-0.3,1.3-0.4,1.9c-0.1,0.6-0.1,1.2-0.1,1.9c0,0.7,0.1,1.3,0.2,2
			c0.1,0.7,0.3,1.4,0.6,2.2L238.3,220.7z M232,217.7c1.2,0,2.2-0.3,3.1-0.8c0.9-0.5,1.6-1.1,2.2-1.8c0-0.5,0.1-1,0.1-1.5
			c0.1-0.5,0.2-1.1,0.3-1.6l2.6-10.6c-0.1-0.1-0.4-0.1-0.7-0.1c-0.3,0-0.6,0-0.9,0c-1.6,0-3.1,0.3-4.4,0.9c-1.3,0.6-2.4,1.5-3.4,2.5
			c-0.9,1-1.6,2.3-2.1,3.6c-0.5,1.4-0.7,2.8-0.7,4.3c0,0.6,0.1,1.2,0.2,1.8c0.1,0.6,0.3,1.2,0.6,1.6c0.3,0.5,0.7,0.9,1.2,1.2
			C230.5,217.5,231.2,217.7,232,217.7z"/>
		<path class="st0" d="M264.5,216.1c0,0.7,0.1,1.3,0.2,2c0.1,0.7,0.3,1.4,0.6,2.2l-3.5,0.5c-0.3-0.6-0.6-1.4-0.7-2.3
			c-0.6,0.6-1.5,1.1-2.5,1.7c-1.1,0.6-2.4,0.9-3.9,0.9c-1.3,0-2.3-0.2-3.3-0.6c-0.9-0.4-1.7-0.9-2.3-1.6c-0.6-0.7-1-1.6-1.3-2.5
			c-0.3-1-0.4-2.1-0.4-3.2c0-1.9,0.3-3.8,1-5.6c0.6-1.8,1.6-3.5,2.9-4.9c1.3-1.4,2.9-2.6,4.8-3.4c1.9-0.9,4.1-1.3,6.7-1.3
			c0.3,0,0.6,0,0.9,0c0.3,0,0.6,0.1,1,0.1l2.4-10l4.1-0.7l-6,25c-0.1,0.7-0.3,1.3-0.4,1.9C264.5,214.8,264.5,215.4,264.5,216.1z
			 M255.4,217.7c1.2,0,2.2-0.2,3.1-0.7c0.8-0.5,1.6-1.1,2.2-1.7c0-0.5,0.1-0.9,0.1-1.5c0.1-0.5,0.2-1.1,0.3-1.7l2.6-10.7
			c-0.3-0.1-0.5-0.1-0.9-0.1c-0.3,0-0.6,0-0.9,0c-1.6,0-3.1,0.3-4.4,0.9c-1.3,0.6-2.4,1.5-3.4,2.5c-0.9,1.1-1.6,2.3-2.1,3.7
			c-0.5,1.4-0.7,2.8-0.7,4.3c0,0.7,0.1,1.3,0.2,1.9c0.1,0.6,0.4,1.1,0.7,1.6c0.3,0.5,0.7,0.8,1.3,1.1
			C254,217.5,254.6,217.7,255.4,217.7z"/>
		<path class="st0" d="M278.3,221c-2.3,0-4.2-0.7-5.5-2.1c-1.3-1.4-2-3.3-2-5.7c0-1.7,0.2-3.4,0.7-5.2c0.5-1.8,1.2-3.5,2.2-5
			c1-1.5,2.4-2.8,4-3.8c1.6-1,3.6-1.5,5.9-1.5c2.3,0,4.2,0.7,5.5,2.1c1.3,1.4,2,3.3,2,5.7c0,1.7-0.2,3.4-0.7,5.2
			c-0.5,1.8-1.2,3.5-2.2,5c-1,1.5-2.4,2.8-4,3.8C282.6,220.5,280.6,221,278.3,221z M279,217.7c1.3,0,2.4-0.4,3.4-1.1
			c1-0.7,1.9-1.7,2.6-2.8c0.7-1.2,1.2-2.4,1.6-3.8c0.4-1.4,0.6-2.8,0.6-4.1c0-1.5-0.3-2.6-0.9-3.5c-0.6-0.9-1.7-1.3-3.3-1.3
			c-1.3,0-2.4,0.4-3.4,1.1c-1,0.7-1.9,1.7-2.6,2.8c-0.7,1.2-1.2,2.4-1.6,3.8c-0.4,1.4-0.6,2.8-0.6,4.1c0,1.5,0.3,2.6,0.9,3.5
			C276.4,217.2,277.4,217.7,279,217.7z"/>
		<path class="st0" d="M316.4,197.7c1.4,0,2.6,0.2,3.6,0.6c1,0.4,1.8,0.9,2.5,1.6c0.7,0.7,1.1,1.5,1.5,2.5c0.3,1,0.5,2,0.5,3.1
			c0,2-0.3,3.9-0.9,5.7c-0.6,1.8-1.5,3.5-2.8,4.9c-1.2,1.4-2.8,2.6-4.7,3.4c-1.9,0.9-4.1,1.3-6.7,1.3c-0.3,0-0.7,0-1,0
			c-0.4,0-0.7-0.1-1-0.1l-1.8,7.7h-4l7-29.2c1.2-0.5,2.5-0.9,3.9-1.1C313.9,197.8,315.2,197.7,316.4,197.7z M308.2,217.4
			c0.3,0.1,0.6,0.1,0.9,0.1c0.3,0,0.6,0,1,0c1.6,0,3.1-0.3,4.4-0.9c1.3-0.6,2.4-1.5,3.3-2.5c0.9-1.1,1.6-2.3,2.1-3.7
			c0.5-1.4,0.7-2.8,0.7-4.3c0-0.6-0.1-1.2-0.2-1.8c-0.1-0.6-0.4-1.1-0.8-1.6c-0.4-0.5-0.9-0.8-1.6-1.1c-0.7-0.3-1.5-0.4-2.5-0.4
			c-0.7,0-1.4,0.1-2,0.2s-1.1,0.3-1.5,0.4L308.2,217.4z"/>
		<path class="st0" d="M336.3,221c-1.5,0-2.7-0.2-3.8-0.6c-1.1-0.4-1.9-1-2.7-1.7c-0.7-0.7-1.2-1.6-1.6-2.5c-0.3-1-0.5-2-0.5-3.1
			c0-2,0.3-3.9,0.9-5.8c0.6-1.9,1.5-3.5,2.6-4.9c1.1-1.4,2.5-2.6,4.1-3.4c1.6-0.8,3.4-1.3,5.4-1.3c1.2,0,2.2,0.1,3,0.4
			c0.8,0.3,1.5,0.7,2.1,1.2c0.5,0.5,0.9,1.1,1.2,1.8c0.3,0.7,0.4,1.4,0.4,2.1c0,1.3-0.2,2.5-0.7,3.4c-0.5,0.9-1.1,1.7-1.9,2.3
			s-1.7,1.1-2.8,1.5c-1.1,0.3-2.2,0.6-3.3,0.8c-1.2,0.2-2.3,0.3-3.5,0.4c-1.2,0.1-2.3,0.1-3.4,0.2c0,0.2,0,0.4,0,0.6
			c0,0.1,0,0.3,0,0.3c0,0.7,0.1,1.3,0.2,1.9c0.2,0.6,0.4,1.1,0.9,1.5c0.4,0.4,1,0.8,1.8,1c0.8,0.3,1.7,0.4,3,0.4
			c0.5,0,1.1,0,1.7-0.1c0.6-0.1,1.1-0.2,1.7-0.4c0.5-0.2,1-0.3,1.4-0.5c0.4-0.2,0.7-0.3,0.9-0.4l0.3,3.4c-0.6,0.3-1.5,0.6-2.8,1
			C339.5,220.9,338,221,336.3,221z M332.2,208.8c1.7-0.1,3.2-0.2,4.5-0.3c1.4-0.2,2.6-0.4,3.6-0.8c1-0.4,1.8-0.9,2.3-1.6
			c0.6-0.7,0.8-1.5,0.8-2.6c0-0.3-0.1-0.5-0.1-0.8c-0.1-0.3-0.3-0.5-0.5-0.8c-0.2-0.2-0.6-0.4-1-0.6c-0.4-0.2-1-0.2-1.6-0.2
			c-1,0-1.9,0.2-2.8,0.6c-0.9,0.4-1.6,1-2.3,1.7c-0.7,0.7-1.3,1.5-1.8,2.4C332.9,206.8,332.5,207.8,332.2,208.8z"/>
		<path class="st0" d="M354.9,210.7c-0.1,0.6-0.3,1.2-0.4,1.8c-0.1,0.6-0.2,1.2-0.2,1.7c0,1,0.2,1.7,0.7,2.3
			c0.5,0.6,1.3,0.9,2.6,1.1l-0.9,3.3c-1.2,0-2.2-0.2-3-0.5c-0.8-0.3-1.5-0.8-2-1.3c-0.5-0.5-0.9-1.2-1.1-1.9
			c-0.2-0.7-0.3-1.6-0.3-2.4c0-0.7,0.1-1.3,0.2-2.1c0.1-0.7,0.3-1.5,0.5-2.2l5.4-22.4l4.1-0.7L354.9,210.7z"/>
		<path class="st0" d="M375.5,220.7c-0.1-0.3-0.3-0.7-0.4-1c-0.1-0.4-0.3-0.8-0.3-1.2c-0.6,0.6-1.5,1.1-2.5,1.7
			c-1.1,0.6-2.4,0.9-3.9,0.9c-1.3,0-2.3-0.2-3.2-0.6c-0.9-0.4-1.6-1-2.2-1.7c-0.6-0.7-1-1.6-1.3-2.5c-0.3-1-0.4-2-0.4-3.2
			c0-1.9,0.3-3.8,1-5.6c0.6-1.8,1.6-3.5,2.9-4.9c1.3-1.4,2.9-2.6,4.8-3.5c1.9-0.9,4.2-1.3,6.8-1.3c0.8,0,1.7,0.1,2.7,0.3
			s1.9,0.5,2.7,0.9l-3.3,13.4c-0.1,0.7-0.3,1.3-0.4,1.9c-0.1,0.6-0.1,1.2-0.1,1.9c0,0.7,0.1,1.3,0.2,2c0.1,0.7,0.3,1.4,0.6,2.2
			L375.5,220.7z M369.1,217.7c1.2,0,2.2-0.3,3.1-0.8c0.9-0.5,1.6-1.1,2.2-1.8c0-0.5,0.1-1,0.1-1.5c0.1-0.5,0.2-1.1,0.3-1.6l2.6-10.6
			c-0.1-0.1-0.4-0.1-0.7-0.1c-0.3,0-0.6,0-0.9,0c-1.6,0-3.1,0.3-4.4,0.9c-1.3,0.6-2.4,1.5-3.4,2.5c-0.9,1-1.6,2.3-2.1,3.6
			c-0.5,1.4-0.7,2.8-0.7,4.3c0,0.6,0.1,1.2,0.2,1.8c0.1,0.6,0.3,1.2,0.6,1.6c0.3,0.5,0.7,0.9,1.2,1.2
			C367.6,217.5,368.3,217.7,369.1,217.7z"/>
	</g>
</g>
<g id="Layer_1">
	<g>
		<path class="st0" d="M134.2,254h14.9v81.7h-14.9v-36.2H98.8v36.2H83.9V254h14.9v32.7h35.5V254z"/>
		<path class="st0" d="M223.8,304.8c0,4.9-0.7,9.3-2.1,13.3c-1.4,4-3.4,7.4-6,10.3c-2.6,2.8-5.7,5-9.4,6.6
			c-3.7,1.6-7.7,2.4-12.1,2.4c-4.4,0-8.4-0.8-12-2.4c-3.6-1.6-6.7-3.8-9.3-6.6c-2.6-2.8-4.6-6.2-6.1-10.3c-1.5-4-2.2-8.5-2.2-13.3
			c0-4.9,0.7-9.3,2.2-13.3c1.4-4,3.5-7.4,6.1-10.2c2.6-2.8,5.8-5,9.4-6.5c3.6-1.5,7.6-2.3,11.9-2.3c4.3,0,8.3,0.8,12,2.3
			c3.7,1.5,6.8,3.7,9.4,6.5c2.6,2.8,4.6,6.2,6.1,10.2C223,295.5,223.8,299.9,223.8,304.8z M209.1,304.8c0-6.1-1.3-11-4-14.6
			c-2.6-3.6-6.3-5.4-11-5.4c-4.7,0-8.4,1.8-11,5.4c-2.6,3.6-3.9,8.4-3.9,14.6c0,6.2,1.3,11.1,3.9,14.7c2.6,3.6,6.3,5.4,11,5.4
			c4.7,0,8.4-1.8,11-5.4C207.8,315.9,209.1,311,209.1,304.8z"/>
		<path class="st0" d="M253.9,325.5c3.8,0,6.5-0.5,8.3-1.4c1.7-0.9,2.6-2.5,2.6-4.7c0-2-0.9-3.7-2.8-5.1c-1.9-1.3-4.9-2.8-9.1-4.4
			c-2.6-0.9-5-1.9-7.1-3c-2.2-1.1-4-2.3-5.6-3.7c-1.6-1.4-2.8-3.1-3.7-5.1c-0.9-2-1.4-4.5-1.4-7.4c0-5.7,2.1-10.1,6.3-13.4
			c4.2-3.3,9.8-4.9,17-4.9c3.6,0,7.1,0.3,10.4,1c3.3,0.7,5.8,1.3,7.4,1.9l-2.6,11.6c-1.6-0.7-3.6-1.4-6-1.9
			c-2.4-0.6-5.3-0.9-8.5-0.9c-2.9,0-5.3,0.5-7.1,1.5c-1.8,1-2.7,2.5-2.7,4.5c0,1,0.2,1.9,0.5,2.7c0.4,0.8,1,1.5,1.8,2.2
			c0.9,0.7,2,1.3,3.4,2c1.4,0.7,3.1,1.4,5.2,2.1c3.4,1.3,6.3,2.5,8.6,3.7c2.3,1.2,4.3,2.6,5.8,4.1c1.5,1.5,2.7,3.3,3.4,5.2
			c0.7,2,1.1,4.3,1.1,7.1c0,5.9-2.2,10.4-6.5,13.4c-4.4,3-10.6,4.5-18.7,4.5c-5.4,0-9.8-0.5-13.1-1.4c-3.3-0.9-5.6-1.6-7-2.2
			l2.5-11.9c2.1,0.9,4.7,1.7,7.6,2.5C246.8,325.1,250.2,325.5,253.9,325.5z"/>
		<path class="st0" d="M291.7,257.8l14.3-2.4V274h21.9v11.9H306v25.1c0,5,0.8,8.5,2.4,10.6c1.6,2.1,4.2,3.2,8,3.2
			c2.6,0,4.9-0.3,6.9-0.8c2-0.5,3.6-1.1,4.8-1.5l2.4,11.3c-1.7,0.7-3.8,1.4-6.5,2.2c-2.7,0.7-5.8,1.1-9.4,1.1c-4.4,0-8.1-0.6-11-1.8
			c-2.9-1.2-5.3-2.9-7-5.1c-1.7-2.2-2.9-5-3.7-8.1c-0.7-3.2-1.1-6.8-1.1-10.9V257.8z"/>
	</g>
	<g>
		<path class="st0" d="M564,253.2c11.9,0,21,2.2,27.3,6.5c6.3,4.3,9.5,11.1,9.5,20.3c0,4.8-0.8,8.9-2.5,12.3
			c-1.7,3.4-4.2,6.2-7.4,8.4c-3.2,2.2-7.2,3.8-11.8,4.8c-4.6,1-9.9,1.5-15.9,1.5h-7.4v28.8h-14.9v-80.5c3.5-0.8,7.3-1.3,11.5-1.6
			C556.6,253.3,560.5,253.2,564,253.2z M565.1,266c-3.8,0-6.9,0.1-9.3,0.4v27.8h7.2c7.2,0,12.7-1,16.5-3c3.8-2,5.8-5.8,5.8-11.4
			c0-2.7-0.5-4.9-1.5-6.7c-1-1.8-2.4-3.2-4.2-4.2c-1.8-1-4-1.7-6.4-2.2C570.6,266.2,567.9,266,565.1,266z"/>
		<path class="st0" d="M635.1,336.9c-4.2-0.1-7.8-0.6-10.6-1.4c-2.8-0.9-5-2.1-6.7-3.7c-1.6-1.6-2.8-3.6-3.5-6c-0.7-2.4-1-5.1-1-8.2
			v-71l14.3-2.4v70.6c0,1.7,0.1,3.2,0.4,4.4c0.3,1.2,0.8,2.2,1.5,3c0.7,0.8,1.7,1.5,2.9,1.9c1.2,0.4,2.8,0.8,4.7,1L635.1,336.9z"/>
		<path class="st0" d="M699.3,333.8c-2.8,0.7-6.3,1.4-10.7,2.2c-4.4,0.7-9.2,1.1-14.5,1.1c-5,0-9.1-0.7-12.5-2.1
			c-3.3-1.4-6-3.4-8-5.9c-2-2.5-3.4-5.5-4.3-9c-0.9-3.5-1.3-7.3-1.3-11.5V274h14.3v32.3c0,6.6,1,11.3,2.9,14.2
			c1.9,2.8,5.3,4.2,10.1,4.2c1.7,0,3.6-0.1,5.5-0.2c1.9-0.2,3.4-0.4,4.3-0.6V274h14.3V333.8z"/>
		<path class="st0" d="M732.9,325.5c3.8,0,6.5-0.5,8.3-1.4c1.7-0.9,2.6-2.5,2.6-4.7c0-2-0.9-3.7-2.8-5.1c-1.8-1.3-4.9-2.8-9.1-4.4
			c-2.6-0.9-5-1.9-7.1-3c-2.2-1.1-4-2.3-5.6-3.7c-1.6-1.4-2.8-3.1-3.7-5.1c-0.9-2-1.4-4.5-1.4-7.4c0-5.7,2.1-10.1,6.3-13.4
			c4.2-3.3,9.8-4.9,17-4.9c3.6,0,7.1,0.3,10.4,1c3.3,0.7,5.8,1.3,7.4,1.9l-2.6,11.6c-1.6-0.7-3.6-1.4-6-1.9
			c-2.4-0.6-5.3-0.9-8.5-0.9c-2.9,0-5.3,0.5-7.1,1.5c-1.8,1-2.7,2.5-2.7,4.5c0,1,0.2,1.9,0.5,2.7c0.4,0.8,1,1.5,1.8,2.2
			c0.9,0.7,2,1.3,3.4,2c1.4,0.7,3.1,1.4,5.2,2.1c3.4,1.3,6.3,2.5,8.6,3.7c2.4,1.2,4.3,2.6,5.8,4.1c1.5,1.5,2.7,3.3,3.4,5.2
			c0.7,2,1.1,4.3,1.1,7.1c0,5.9-2.2,10.4-6.5,13.4c-4.4,3-10.6,4.5-18.7,4.5c-5.4,0-9.8-0.4-13.1-1.4c-3.3-0.9-5.6-1.6-7-2.2
			l2.5-11.9c2.1,0.9,4.7,1.7,7.6,2.5C725.7,325.1,729.1,325.5,732.9,325.5z"/>
	</g>
	<g>
		<path class="st0" d="M435.4,391.9l-73.4-73.4c-11.4-11.4-11.4-30,0-41.4l73.4-73.4l73.4,73.4c5.5,5.5,8.6,12.9,8.6,20.7
			c0,7.8-3,15.2-8.6,20.7L435.4,391.9z M435.4,223l-63.8,63.8c-6.1,6.1-6.1,16.1,0,22.2l63.8,63.8l63.8-63.8c3-3,4.6-6.9,4.6-11.1
			c0-4.2-1.6-8.1-4.6-11.1L435.4,223z"/>
	</g>
	<path class="st1" d="M448.5,259.7c0,25.5,0,50.9,0,76.4c-6,0-12.1,0-18.1,0c0-16.9,0-34,0-50.9H416v-10.5c0,0,11-11.9,14.5-15
		C436.5,259.7,442.5,259.7,448.5,259.7z"/>
</g>
</svg>
