<?xml version="1.0" encoding="utf-8"?>
<!-- Generator: Adobe Illustrator 19.0.0, SVG Export Plug-In . SVG Version: 6.00 Build 0)  -->
<svg version="1.1" id="Layer_1" xmlns="http://www.w3.org/2000/svg" xmlns:xlink="http://www.w3.org/1999/xlink" x="0px" y="0px"
	 viewBox="0 0 512 512" style="enable-background:new 0 0 512 512;" xml:space="preserve">
<style type="text/css">
	.st0{fill:#F37422;}
	.st1{fill:#281C44;}
</style>
<rect x="127.2" y="328.7" class="st0" width="12.3" height="42.9"/>
<rect x="151.7" y="304.1" class="st0" width="12.3" height="67.5"/>
<rect x="176.3" y="304.1" class="st0" width="12.3" height="67.5"/>
<rect x="200.8" y="328.7" class="st0" width="12.3" height="42.9"/>
<rect x="225.3" y="328.7" class="st0" width="12.3" height="42.9"/>
<rect x="249.9" y="304.1" class="st0" width="12.3" height="67.5"/>
<rect x="274.4" y="279.6" class="st0" width="12.3" height="92"/>
<rect x="298.9" y="279.6" class="st0" width="12.3" height="92"/>
<rect x="323.5" y="304.1" class="st0" width="12.3" height="67.5"/>
<rect x="348" y="304.1" class="st0" width="12.3" height="67.5"/>
<rect x="372.5" y="279.6" class="st0" width="12.3" height="92"/>
<path class="st0" d="M256,120.1c-27.1,0-49.1,22-49.1,49.1h30.7c0-10.2,8.2-18.4,18.4-18.4c10.2,0,18.4,8.2,18.4,18.4h30.7
	C305.1,142.1,283.1,120.1,256,120.1z"/>
<path class="st1" d="M440,393.1h-24.5h-1.5h-1.5v-1.5V390V258.1h-6.1V390v1.5v1.5h-1.5h-1.5h-98.1c-0.8,0-1.6,0.3-2.2,0.9
	l-10.5,10.5l-0.9,0.9h-1.3h-68.5h-1.3l-0.9-0.9L209.1,394c-0.6-0.6-1.3-0.9-2.2-0.9h-98.1h-1.5h-1.5v-1.5V390v-52.7v-1.3l0.9-0.9
	l61.3-61.3l2.2-2.2l2.2,2.2l44.7,44.7c0.6,0.6,1.4,0.9,2.2,0.9c0.8,0,1.6-0.3,2.2-0.9l69.3-69.3l2.2-2.2l2.2,2.2l44.7,44.7
	c0.6,0.6,1.4,0.9,2.2,0.9c0.8,0,1.6-0.3,2.2-0.9l67.5-67.5c0.6-0.6,0.9-1.3,0.9-2.2v-24.5c0-4.1-1.6-7.9-4.5-10.8
	c-2.9-2.9-6.7-4.5-10.8-4.5H114.9c-4.1,0-7.9,1.6-10.8,4.5c-2.9,2.9-4.5,6.7-4.5,10.8v101.2h6.1V199.9c0-2.5,1-4.8,2.7-6.5
	c1.7-1.7,4-2.7,6.5-2.7h282.1c2.5,0,4.8,1,6.5,2.7c1.7,1.7,2.7,4,2.7,6.5v22v1.3l-0.9,0.9L344,285.4l-2.2,2.2l-2.2-2.2L295,240.6
	c-0.6-0.6-1.4-0.9-2.2-0.9c-0.8,0-1.6,0.3-2.2,0.9l-69.3,69.3l-2.2,2.2l-2.2-2.2l-44.7-44.7c-0.6-0.6-1.4-0.9-2.2-0.9
	c-0.8,0-1.6,0.3-2.2,0.9l-67.5,67.5c-0.6,0.6-0.9,1.3-0.9,2.2V390v1.5v1.5h-1.5h-1.5H72c-1.7,0-3.1,1.4-3.1,3.1v12.3
	c0,7.4,2.9,14.3,8.1,19.5c5.2,5.2,12.1,8.1,19.5,8.1h318.9c7.4,0,14.3-2.9,19.5-8.1c5.2-5.2,8.1-12.1,8.1-19.5v-12.3
	C443.1,394.4,441.7,393.1,440,393.1z M436.9,402.3v6.1c0,5.7-2.2,11.1-6.3,15.2c-4,4.1-9.4,6.3-15.2,6.3H96.5
	c-5.7,0-11.1-2.2-15.2-6.3c-4.1-4.1-6.3-9.4-6.3-15.2v-6.1v-3.1h3.1h126.3h1.3l0.9,0.9l10.5,10.5c0.6,0.6,1.3,0.9,2.2,0.9h73.6
	c0.8,0,1.6-0.3,2.2-0.9l10.5-10.5l0.9-0.9h1.3h126.3h3.1V402.3z"/>
<path class="st1" d="M187.6,152.3c1.7-6.9,4.4-13.5,8.1-19.6c0.6-1,0.6-2.3-0.1-3.3L183.3,111l-1.4-2.1l1.8-1.8l10.2-10.2l1.8-1.8
	l2.1,1.4l18.5,12.3c0.5,0.3,1.1,0.5,1.7,0.5c0.6,0,1.1-0.2,1.6-0.4c6.1-3.7,12.6-6.4,19.6-8.1c1.1-0.3,2-1.2,2.3-2.4l4.4-21.8
	l0.5-2.5h2.5h14.5h2.5l0.5,2.5l4.4,21.8c0.2,1.2,1.1,2.1,2.3,2.4c6.9,1.7,13.4,4.4,19.5,8.1c0.5,0.3,1,0.4,1.6,0.4
	c0.6,0,1.2-0.2,1.7-0.5l18.5-12.3l2.1-1.4l1.8,1.8l10.2,10.2l1.8,1.8l-1.4,2.1l-12.3,18.5c-0.7,1-0.7,2.3-0.1,3.3
	c3.7,6.1,6.4,12.6,8.1,19.5c0.3,1.2,1.2,2,2.4,2.3l21.8,4.4l2.5,0.5l0,2.5l0,4.2h6.1l0-9.2c0-1.5-1-2.7-2.5-3l-23-4.6l-1.8-0.4
	l-0.5-1.8c-1.5-4.9-3.5-9.8-5.9-14.3l-0.9-1.6l1-1.5l13-19.5c0.8-1.2,0.6-2.8-0.4-3.9L318.9,89c-0.6-0.6-1.4-0.9-2.2-0.9
	c-0.6,0-1.2,0.2-1.7,0.5l-19.5,13l-1.5,1l-1.6-0.9c-4.5-2.4-9.4-4.4-14.3-5.9l-1.8-0.5l-0.4-1.8l-4.6-23c-0.3-1.4-1.5-2.5-3-2.5
	h-24.5c-1.5,0-2.7,1-3,2.5l-4.6,23l-0.4,1.8l-1.8,0.5c-4.9,1.5-9.8,3.5-14.3,5.9l-1.6,0.9l-1.5-1l-19.5-13c-0.5-0.3-1.1-0.5-1.7-0.5
	c-0.8,0-1.6,0.3-2.2,0.9l-17.3,17.3c-1,1-1.2,2.7-0.4,3.9l13,19.5l1,1.5l-0.9,1.6c-2.5,4.6-4.5,9.4-5.9,14.3l-0.5,1.8l-1.8,0.4
	l-23,4.6c-1.4,0.3-2.5,1.5-2.5,3v9.2h6.1V162v-2.5l2.5-0.5l21.8-4.4C186.4,154.4,187.3,153.5,187.6,152.3z"/>
<path class="st1" d="M301.9,169.2h6.1c-1.6-27.3-24.3-49.1-52-49.1c-27.7,0-50.5,21.7-52.1,49.1h6.1c1.6-23.9,21.6-42.9,45.9-42.9
	C280.3,126.3,300.3,145.3,301.9,169.2z"/>
<path class="st1" d="M234.8,169.2h6.2c1.4-7,7.6-12.3,15-12.3c7.4,0,13.6,5.3,15,12.3h6.2c-1.5-10.4-10.5-18.4-21.2-18.4
	S236.2,158.8,234.8,169.2z"/>
</svg>
