<?xml version="1.0" encoding="utf-8"?>
<!-- Generator: Adobe Illustrator 20.0.0, SVG Export Plug-In . SVG Version: 6.00 Build 0)  -->
<svg version="1.1" id="Layer_1" xmlns="http://www.w3.org/2000/svg" xmlns:xlink="http://www.w3.org/1999/xlink" x="0px" y="0px"
	 viewBox="0 0 512 512" style="enable-background:new 0 0 512 512;" xml:space="preserve">
<style type="text/css">
	.st0{fill:none;stroke:#363F40;stroke-width:8;stroke-miterlimit:10;}
	.st1{fill:#3C76F7;stroke:#363F40;stroke-width:8;stroke-miterlimit:10;}
</style>
<line class="st0" x1="330.7" y1="417.9" x2="274.7" y2="430.3"/>
<line class="st0" x1="430.3" y1="274.7" x2="417.9" y2="324.5"/>
<line class="st0" x1="256" y1="361.8" x2="256" y2="411.6"/>
<circle class="st1" cx="256" cy="168.8" r="18.7"/>
<circle class="st0" cx="256" cy="81.7" r="18.7"/>
<circle class="st1" cx="256" cy="343.2" r="18.7"/>
<circle class="st0" cx="256" cy="430.3" r="18.7"/>
<circle class="st1" cx="175.1" cy="206.2" r="18.7"/>
<circle class="st0" cx="411.6" cy="343.2" r="18.7"/>
<circle class="st0" cx="349.4" cy="411.6" r="18.7"/>
<circle class="st1" cx="336.9" cy="305.8" r="18.7"/>
<line class="st0" x1="187.5" y1="150.2" x2="200" y2="150.2"/>
<line class="st0" x1="187.5" y1="361.8" x2="200" y2="361.8"/>
<line class="st0" x1="312" y1="361.8" x2="324.5" y2="361.8"/>
<line class="st0" x1="131.5" y1="256" x2="143.9" y2="256"/>
<line class="st0" x1="312" y1="150.2" x2="324.5" y2="150.2"/>
<line class="st0" x1="368.1" y1="256" x2="380.5" y2="256"/>
<line class="st0" x1="361.8" y1="399.2" x2="399.2" y2="355.6"/>
<line class="st0" x1="330.7" y1="94.1" x2="274.7" y2="81.7"/>
<line class="st0" x1="430.3" y1="237.3" x2="417.9" y2="187.5"/>
<circle class="st0" cx="411.6" cy="168.8" r="18.7"/>
<circle class="st0" cx="349.4" cy="100.4" r="18.7"/>
<circle class="st0" cx="430.3" cy="256" r="18.7"/>
<line class="st0" x1="361.8" y1="112.8" x2="399.2" y2="156.4"/>
<line class="st0" x1="181.3" y1="417.9" x2="237.3" y2="430.3"/>
<line class="st0" x1="81.7" y1="274.7" x2="94.1" y2="324.5"/>
<circle class="st0" cx="100.4" cy="343.2" r="18.7"/>
<circle class="st0" cx="162.6" cy="411.6" r="18.7"/>
<line class="st0" x1="150.2" y1="399.2" x2="112.8" y2="355.6"/>
<line class="st0" x1="181.3" y1="94.1" x2="237.3" y2="81.7"/>
<line class="st0" x1="81.7" y1="237.3" x2="94.1" y2="187.5"/>
<circle class="st0" cx="100.4" cy="168.8" r="18.7"/>
<circle class="st0" cx="162.6" cy="100.4" r="18.7"/>
<circle class="st0" cx="81.7" cy="256" r="18.7"/>
<line class="st0" x1="150.2" y1="112.8" x2="112.8" y2="156.4"/>
<line class="st0" x1="237.3" y1="343.2" x2="193.7" y2="318.3"/>
<line class="st0" x1="175.1" y1="287.1" x2="175.1" y2="224.9"/>
<line class="st0" x1="193.7" y1="218.6" x2="237.3" y2="249.8"/>
<line class="st0" x1="274.7" y1="249.8" x2="318.3" y2="218.6"/>
<line class="st0" x1="256" y1="150.2" x2="256" y2="100.4"/>
<line class="st0" x1="274.7" y1="175.1" x2="318.3" y2="193.7"/>
<line class="st0" x1="274.7" y1="343.2" x2="318.3" y2="318.3"/>
<line class="st0" x1="355.6" y1="318.3" x2="393" y2="336.9"/>
<line class="st0" x1="156.4" y1="318.3" x2="119" y2="336.9"/>
<line class="st0" x1="336.9" y1="224.9" x2="336.9" y2="287.1"/>
<line class="st0" x1="156.4" y1="200" x2="119" y2="181.3"/>
<circle class="st1" cx="336.9" cy="206.2" r="18.7"/>
<circle class="st1" cx="256" cy="256" r="18.7"/>
<circle class="st1" cx="175.1" cy="305.8" r="18.7"/>
</svg>
