<?xml version="1.0" encoding="utf-8"?>
<!-- Generator: Adobe Illustrator 20.0.0, SVG Export Plug-In . SVG Version: 6.00 Build 0)  -->
<svg version="1.1" id="Layer_1" xmlns="http://www.w3.org/2000/svg" xmlns:xlink="http://www.w3.org/1999/xlink" x="0px" y="0px"
	 viewBox="0 0 512 512" style="enable-background:new 0 0 512 512;" xml:space="preserve">
<style type="text/css">
	.st0{fill:none;stroke:#222829;stroke-width:8;stroke-linejoin:round;stroke-miterlimit:10;}
	.st1{fill:#3C76F7;}
</style>
<polyline class="st0" points="337.5,256 256,412.3 174.5,256 "/>
<polyline class="st0" points="337.5,256 99.7,412.3 174.5,256 256,99.7 337.5,256 412.3,412.3 174.5,256 "/>
<circle class="st1" cx="412.3" cy="412.3" r="29.7"/>
<circle class="st1" cx="256" cy="412.3" r="29.7"/>
<circle class="st1" cx="174.5" cy="256" r="29.7"/>
<circle class="st1" cx="256" cy="99.7" r="29.7"/>
<circle class="st1" cx="337.5" cy="256" r="29.7"/>
<circle class="st1" cx="99.7" cy="412.3" r="29.7"/>
</svg>
