<?xml version="1.0" encoding="utf-8"?>
<!-- Generator: Adobe Illustrator 19.2.1, SVG Export Plug-In . SVG Version: 6.00 Build 0)  -->
<svg version="1.1" id="Layer_1" xmlns="http://www.w3.org/2000/svg" xmlns:xlink="http://www.w3.org/1999/xlink" x="0px" y="0px"
	 viewBox="0 0 512 512" style="enable-background:new 0 0 512 512;" xml:space="preserve">
<style type="text/css">
	.st0{fill:none;stroke:#363F40;stroke-width:8;stroke-linejoin:round;stroke-miterlimit:10;}
	.st1{fill:#F37524;stroke:#363F40;stroke-width:8;stroke-linejoin:round;stroke-miterlimit:10;}
	.st2{fill:none;stroke:#363F40;stroke-width:6;stroke-linejoin:round;stroke-miterlimit:10;}
</style>
<polyline class="st0" points="143.7,353 241.8,298.1 241.8,417.3 143.7,473.4 "/>
<polyline class="st0" points="256.2,149.2 354,94.7 354,213.9 255.8,270 "/>
<polygon class="st0" points="255.8,270 157.7,213.9 157.7,94.7 255.8,149.3 "/>
<polygon class="st1" points="354,94.7 255.8,38.6 157.7,94.7 255.8,148.6 "/>
<polygon class="st0" points="143.7,473.4 45.5,417.3 45.5,298.1 143.7,353 "/>
<polygon class="st1" points="241.8,298.1 143.7,242 45.5,298.1 142.8,353 "/>
<polyline class="st0" points="365.8,352.7 464,298.1 464,417.3 365.8,473.4 "/>
<polygon class="st0" points="365.8,473.4 267.7,417.3 267.7,298.1 365.8,353 "/>
<polygon class="st1" points="464,298.1 365.8,242 267.7,298.1 365,353 "/>
<circle class="st2" cx="389.1" cy="206.9" r="7"/>
<circle class="st2" cx="122.6" cy="206.9" r="7"/>
<circle class="st2" cx="255.8" cy="452.3" r="7"/>
</svg>
