<?xml version="1.0" encoding="utf-8"?>
<!-- Generator: Adobe Illustrator 19.0.0, SVG Export Plug-In . SVG Version: 6.00 Build 0)  -->
<svg version="1.1" id="Layer_1" xmlns="http://www.w3.org/2000/svg" xmlns:xlink="http://www.w3.org/1999/xlink" x="0px" y="0px"
	 viewBox="0 0 512 512" style="enable-background:new 0 0 512 512;" xml:space="preserve">
<style type="text/css">
	.st0{fill:#F37422;}
	.st1{fill:none;}
	.st2{fill:#242D3C;}
	.st3{fill:#FFFFFF;}
</style>
<path class="st0" d="M337.5,200.5c0,45.1-36.4,81.5-81.4,81.5c-45,0-81.5-36.4-81.5-81.5c0-45,36.5-81.5,81.5-81.5
	C301,119,337.5,155.5,337.5,200.5z"/>
<path class="st1" d="M256,125.8c-41.2,0-74.7,33.5-74.7,74.7c0,41.2,33.5,74.7,74.7,74.7c41.2,0,74.7-33.5,74.7-74.7
	C330.7,159.3,297.2,125.8,256,125.8z"/>
<path class="st2" d="M328.8,397.9c-6.7-3.1-15.7-5.7-26.8-7.7l-1.1,7c21.2,3.8,31.3,9.5,33.6,13.3l1,1.7l-0.9,1.8
	c-3.5,7-28,15.4-66.4,16.9c-4,0.2-8.1,0.3-12.2,0.3c-4.1,0-8.2-0.1-12.2-0.3c-38.4-1.6-62.8-9.9-66.4-16.9l-0.9-1.8l1-1.7
	c2.3-3.9,12.4-9.6,33.6-13.3l-1.1-7c-25.9,4.6-40.1,12.4-40.1,22.1c0,17.9,46.2,24.5,73.6,25.6c4.1,0.2,8.3,0.3,12.5,0.3
	c4.2,0,8.3-0.1,12.5-0.3c27.3-1.1,73.6-7.7,73.6-25.6C342.1,406.8,337.6,402,328.8,397.9z"/>
<path class="st2" d="M256,73.9c-17.1,0-33.6,3.4-49.2,10c-15.1,6.4-28.6,15.5-40.3,27.2c-11.6,11.6-20.8,25.2-27.2,40.3
	c-6.6,15.6-10,32.2-10,49.2c0,26.8,8.8,52.7,26.2,77.1l97.6,136.8c0.7,0.9,1.7,1.5,2.9,1.5c1.1,0,2.2-0.6,2.9-1.5l97.6-136.8
	c17.1-24,26.1-50.6,26.1-77.1C382.6,130.7,325.8,73.9,256,73.9z M350.8,273.5L259,402.1l-3,4.1l-3-4.1l-91.8-128.6
	c-16.5-23.1-24.9-47.7-24.9-73c0-65.9,53.7-119.6,119.6-119.6c65.9,0,119.6,53.7,119.6,119.6C375.6,225.8,367.2,250.4,350.8,273.5z"
	/>
<path class="st2" d="M256,115.9c-46.7,0-84.6,38-84.6,84.6c0,46.7,38,84.6,84.6,84.6c46.7,0,84.6-38,84.6-84.6
	C340.6,153.8,302.7,115.9,256,115.9z M256,278.8c-43.2,0-78.3-35.1-78.3-78.3c0-43.2,35.1-78.3,78.3-78.3
	c43.2,0,78.3,35.1,78.3,78.3C334.3,243.7,299.2,278.8,256,278.8z"/>
<rect x="248.9" y="164.8" class="st3" width="14.3" height="71.5"/>
<rect x="220.3" y="193.3" class="st3" width="71.5" height="14.3"/>
</svg>
