<?xml version="1.0" encoding="utf-8"?>
<!-- Generator: Adobe Illustrator 19.0.0, SVG Export Plug-In . SVG Version: 6.00 Build 0)  -->
<svg version="1.1" id="Layer_1" xmlns="http://www.w3.org/2000/svg" xmlns:xlink="http://www.w3.org/1999/xlink" x="0px" y="0px"
	 viewBox="0 0 512 512" style="enable-background:new 0 0 512 512;" xml:space="preserve">
<style type="text/css">
	.st0{fill:#242D3C;}
	.st1{fill:#F37422;}
	.st2{fill:#FFFFFF;}
</style>
<path class="st0" d="M285.1,271.7l-8.5-2.4l-2.5-0.7l2.4-1.1l7.9-3.8c14.9-7.3,27.5-18.5,36.3-32.5c8.8-14.1,13.5-30.3,13.5-47
	c0-48.8-39.7-88.4-88.5-88.4c-48.8,0-88.4,39.7-88.4,88.4c0,16.7,4.7,32.9,13.5,47c8.8,14,21.3,25.3,36.3,32.5l7.9,3.8l2.4,1.2
	l-2.5,0.7l-8.5,2.4c-15.4,4.3-29.8,11.1-42.9,20.1c-12.8,8.8-24.1,19.5-33.5,31.9c-9.4,12.4-16.7,26.2-21.7,40.9
	c-5.1,15.1-7.7,30.9-7.7,47v3.1h272.8v-73l-0.4-0.7C353.9,307.4,322,282.1,285.1,271.7z M366.8,343.6v0.9v59.7v3.3v1h-1h-3.3H111
	h-3.5h-1.1l0.1-1.1l0.2-3.5c3.3-61.2,45.5-112.3,105-127.3c0.2-0.1,1-0.3,1.4-0.4l0,0l0,0c3.5-1.1,5.9-4.5,5.9-8.2
	c0-3.6-2.1-6.7-5.4-8.1c-30.6-12.9-50.4-42.6-50.4-75.8c0-45.3,36.9-82.2,82.2-82.2c45.3,0,82.2,36.9,82.2,82.2
	c0,33.2-19.8,62.9-50.4,75.8c-3.3,1.4-5.4,4.5-5.4,8.1c0,3.8,2.4,7.1,5.9,8.2c0.6,0.2,1.5,0.4,1.6,0.5c36.3,9.1,67.9,33,86.7,65.6
	l0.4,0.8l0.1,0.2V343.6z"/>
<circle class="st1" cx="377.4" cy="358.2" r="60.9"/>
<rect x="369.9" y="329.8" class="st2" width="14.9" height="56.6"/>
<rect x="349.1" y="350.7" class="st2" width="56.6" height="14.9"/>
</svg>
