<?xml version="1.0" encoding="utf-8"?>
<!-- Generator: Adobe Illustrator 19.0.0, SVG Export Plug-In . SVG Version: 6.00 Build 0)  -->
<svg version="1.1" id="Layer_1" xmlns="http://www.w3.org/2000/svg" xmlns:xlink="http://www.w3.org/1999/xlink" x="0px" y="0px"
	 viewBox="0 0 512 512" style="enable-background:new 0 0 512 512;" xml:space="preserve">
<style type="text/css">
	.st0{fill:#F37523;}
	.st1{fill:none;}
	.st2{fill:#FFFFFF;}
	.st3{fill:#2D3941;}
</style>
<circle class="st0" cx="407" cy="392.5" r="89"/>
<rect x="16" y="16" class="st1" width="480" height="480"/>
<rect x="16" y="16" class="st1" width="480" height="480"/>
<polygon class="st2" points="374.4,421.1 363.2,410.1 383.1,390.3 363.2,370.4 374.4,359.3 405.4,390.3 "/>
<rect x="16" y="16" class="st1" width="480" height="480"/>
<polygon class="st2" points="458.3,406.4 458.4,422.2 410.9,422.2 410.9,406.5 "/>
<rect x="16" y="16" class="st1" width="480" height="480"/>
<rect x="16" y="16" class="st1" width="480" height="480"/>
<rect x="16" y="16" class="st1" width="480" height="480"/>
<rect x="16" y="16" class="st1" width="480" height="480"/>
<rect x="16" y="16" class="st1" width="480" height="480"/>
<rect x="16" y="16" class="st1" width="480" height="480"/>
<rect x="16" y="16" class="st1" width="480" height="480"/>
<rect x="16" y="16" class="st1" width="480" height="480"/>
<rect x="16" y="16" class="st1" width="480" height="480"/>
<rect x="16" y="16" class="st1" width="480" height="480"/>
<rect x="16" y="16" class="st1" width="480" height="480"/>
<rect x="16" y="16" class="st1" width="480" height="480"/>
<rect x="16" y="16" class="st1" width="480" height="480"/>
<rect x="16" y="16" class="st1" width="480" height="480"/>
<rect x="16" y="16" class="st1" width="480" height="480"/>
<rect x="16" y="16" class="st1" width="480" height="480"/>
<rect x="16" y="16" class="st1" width="480" height="480"/>
<rect x="16" y="16" class="st1" width="480" height="480"/>
<rect x="16" y="16" class="st1" width="480" height="480"/>
<rect x="16" y="16" class="st1" width="480" height="480"/>
<rect x="16" y="16" class="st1" width="480" height="480"/>
<rect x="16" y="16" class="st1" width="480" height="480"/>
<rect x="16" y="16" class="st1" width="480" height="480"/>
<rect x="16" y="16" class="st1" width="480" height="480"/>
<rect x="16" y="16" class="st1" width="480" height="480"/>
<rect x="16" y="16" class="st1" width="480" height="480"/>
<rect x="212.6" y="195.7" class="st3" width="33.1" height="6.4"/>
<rect x="255" y="249.6" class="st3" width="36.2" height="6.4"/>
<rect x="255" y="276.6" class="st3" width="36.2" height="6.4"/>
<rect x="255" y="357.5" class="st3" width="36.2" height="6.4"/>
<rect x="255" y="384.6" class="st3" width="36.2" height="6.4"/>
<rect x="212.6" y="222.6" class="st3" width="78.6" height="6.4"/>
<rect x="212.6" y="303.7" class="st3" width="33.1" height="6.4"/>
<rect x="212.6" y="330.5" class="st3" width="78.6" height="6.4"/>
<rect x="318.5" y="249.6" class="st3" width="36.2" height="6.4"/>
<rect x="318.5" y="276.6" class="st3" width="78.7" height="6.4"/>
<rect x="318.5" y="222.6" class="st3" width="36.2" height="6.4"/>
<rect x="199.4" y="133.1" class="st3" width="6.4" height="6.4"/>
<rect x="230.9" y="133.1" class="st3" width="6.4" height="6.4"/>
<rect x="262.4" y="133.1" class="st3" width="6.4" height="6.4"/>
<path class="st3" d="M441.8,156.8v-47.2H167.9v47.2v6.4v2.4v2.4v261.8h123.4v-6.4H179h-4.7v-4.7V167.9l0,0v-2.4v-2.4h4.7h251.8h4.7
	v2.4v2.4l0,0v114.6h6.4V167.9v-2.4V156.8L441.8,156.8z M435.5,120.6v36.2h-4.7H179h-4.7v-36.2v-4.7h4.7h251.8h4.7L435.5,120.6
	L435.5,120.6z"/>
<path class="st3" d="M94.1,421.3c-13.3,0-24,10.7-24,24c0,13.3,10.7,24,24,24s24-10.7,24-24C118.1,432,107.3,421.3,94.1,421.3z
	 M94.1,462.9c-9.7,0-17.6-7.9-17.6-17.6c0-9.7,7.9-17.6,17.6-17.6s17.6,7.9,17.6,17.6C111.7,455,103.8,462.9,94.1,462.9z"/>
<rect x="135.4" y="421.3" class="st3" width="6.4" height="47.9"/>
<path class="st3" d="M386.3,83.1c13.3,0,24-10.7,24-24s-10.7-24-24-24c-13.3,0-24,10.7-24,24S373.1,83.1,386.3,83.1z M386.3,41.5
	c9.7,0,17.6,7.9,17.6,17.6s-7.9,17.6-17.6,17.6c-9.7,0-17.6-7.9-17.6-17.6S376.7,41.5,386.3,41.5z"/>
<rect x="338.7" y="35.1" class="st3" width="6.4" height="47.9"/>
<rect x="315" y="35.1" class="st3" width="6.4" height="47.9"/>
<path class="st3" d="M127.2,243.2c2.2,2.2,3.4,5.1,3.4,8.2v59.4c0,3.1-1.3,6.1-3.4,8.2s-5.1,3.4-8.2,3.4h-3.2v6.4h3.2
	c4.8,0,9.4-1.8,12.8-5.3c3.4-3.4,5.3-8,5.3-12.8v-59.4c0-4.8-1.8-9.4-5.3-12.8c-3.4-3.4-8-5.3-12.8-5.3h-3.2v6.4h3.2
	C122.1,239.8,124.9,241,127.2,243.2z"/>
<path class="st3" d="M27.1,310.9v-59.4c0-3.1,1.3-5.9,3.4-8.2c2.3-2.3,5.1-3.4,8.2-3.4h3.2v-6.4h-3.2c-4.8,0-9.4,1.8-12.8,5.3
	c-3.4,3.5-5.3,8.1-5.3,12.8v59.4c0,4.8,1.8,9.4,5.3,12.8c3.4,3.4,8,5.3,12.8,5.3h3.2v-6.4h-3.2c-3.1,0-6.1-1.3-8.2-3.4
	C28.2,316.8,27.1,313.9,27.1,310.9z"/>
<rect x="45.8" y="277.9" class="st3" width="6.4" height="6.4"/>
<rect x="74.2" y="277.9" class="st3" width="6.4" height="6.4"/>
<rect x="102.4" y="277.9" class="st3" width="6.4" height="6.4"/>
<rect x="16" y="16" class="st1" width="480" height="480"/>
</svg>
