<?xml version="1.0" encoding="utf-8"?>
<!-- Generator: Adobe Illustrator 20.0.0, SVG Export Plug-In . SVG Version: 6.00 Build 0)  -->
<svg version="1.1" id="Layer_1" xmlns="http://www.w3.org/2000/svg" xmlns:xlink="http://www.w3.org/1999/xlink" x="0px" y="0px"
	 viewBox="0 0 512 512" style="enable-background:new 0 0 512 512;" xml:space="preserve">
<style type="text/css">
	.st0{fill:#3C76F7;}
	.st1{fill:none;stroke:#222829;stroke-width:8;stroke-linejoin:round;stroke-miterlimit:10;}
</style>
<circle class="st0" cx="417" cy="417" r="31"/>
<circle class="st0" cx="95" cy="417" r="31"/>
<circle class="st0" cx="417" cy="95" r="31"/>
<circle class="st0" cx="95" cy="95" r="31"/>
<line class="st1" x1="150.7" y1="95" x2="163.1" y2="95"/>
<line class="st1" x1="175.5" y1="95" x2="187.9" y2="95"/>
<line class="st1" x1="200.3" y1="95" x2="212.6" y2="95"/>
<line class="st1" x1="225" y1="95" x2="237.4" y2="95"/>
<line class="st1" x1="249.8" y1="95" x2="262.2" y2="95"/>
<line class="st1" x1="274.6" y1="95" x2="287" y2="95"/>
<line class="st1" x1="299.4" y1="95" x2="311.7" y2="95"/>
<line class="st1" x1="324.1" y1="95" x2="336.5" y2="95"/>
<line class="st1" x1="348.9" y1="95" x2="361.3" y2="95"/>
<line class="st1" x1="150.7" y1="417" x2="163.1" y2="417"/>
<line class="st1" x1="175.5" y1="417" x2="187.9" y2="417"/>
<line class="st1" x1="200.3" y1="417" x2="212.6" y2="417"/>
<line class="st1" x1="225" y1="417" x2="237.4" y2="417"/>
<line class="st1" x1="249.8" y1="417" x2="262.2" y2="417"/>
<line class="st1" x1="274.6" y1="417" x2="287" y2="417"/>
<line class="st1" x1="299.4" y1="417" x2="311.7" y2="417"/>
<line class="st1" x1="324.1" y1="417" x2="336.5" y2="417"/>
<line class="st1" x1="348.9" y1="417" x2="361.3" y2="417"/>
<line class="st1" x1="95" y1="150.7" x2="95" y2="163.1"/>
<line class="st1" x1="95" y1="175.5" x2="95" y2="187.9"/>
<line class="st1" x1="95" y1="200.3" x2="95" y2="212.6"/>
<line class="st1" x1="95" y1="225" x2="95" y2="237.4"/>
<line class="st1" x1="95" y1="249.8" x2="95" y2="262.2"/>
<line class="st1" x1="95" y1="274.6" x2="95" y2="287"/>
<line class="st1" x1="95" y1="299.4" x2="95" y2="311.7"/>
<line class="st1" x1="95" y1="324.1" x2="95" y2="336.5"/>
<line class="st1" x1="95" y1="348.9" x2="95" y2="361.3"/>
<line class="st1" x1="417" y1="150.7" x2="417" y2="163.1"/>
<line class="st1" x1="417" y1="175.5" x2="417" y2="187.9"/>
<line class="st1" x1="417" y1="200.3" x2="417" y2="212.6"/>
<line class="st1" x1="417" y1="225" x2="417" y2="237.4"/>
<line class="st1" x1="417" y1="249.8" x2="417" y2="262.2"/>
<line class="st1" x1="417" y1="274.6" x2="417" y2="287"/>
<line class="st1" x1="417" y1="299.4" x2="417" y2="311.7"/>
<line class="st1" x1="417" y1="324.1" x2="417" y2="336.5"/>
<line class="st1" x1="417" y1="348.9" x2="417" y2="361.3"/>
<circle class="st1" cx="256" cy="256" r="117.7"/>
<ellipse class="st1" cx="256" cy="256" rx="43.4" ry="117.7"/>
<ellipse class="st1" cx="256" cy="256" rx="80.5" ry="117.7"/>
<line class="st1" x1="256" y1="138.3" x2="256" y2="373.7"/>
<line class="st1" x1="138.3" y1="256" x2="373.7" y2="256"/>
<line class="st1" x1="373.7" y1="367.5" x2="361.3" y2="367.5"/>
<line class="st1" x1="144.5" y1="367.5" x2="132.1" y2="367.5"/>
<line class="st1" x1="373.7" y1="144.5" x2="361.3" y2="144.5"/>
<line class="st1" x1="144.5" y1="144.5" x2="132.1" y2="144.5"/>
</svg>
