<?xml version="1.0" encoding="utf-8"?>
<!-- Generator: Adobe Illustrator 19.0.0, SVG Export Plug-In . SVG Version: 6.00 Build 0)  -->
<svg version="1.1" id="Layer_1" xmlns="http://www.w3.org/2000/svg" xmlns:xlink="http://www.w3.org/1999/xlink" x="0px" y="0px"
	 viewBox="0 0 512 512" style="enable-background:new 0 0 512 512;" xml:space="preserve">
<style type="text/css">
	.st0{fill:#F37523;stroke:#F37523;stroke-miterlimit:10;}
	.st1{fill:#FFFFFF;}
	.st2{fill:none;stroke:#2D3941;stroke-width:6;stroke-linejoin:round;stroke-miterlimit:10;}
</style>
<circle class="st0" cx="362.7" cy="103.3" r="33.3"/>
<circle class="st0" cx="136" cy="143.3" r="33.3"/>
<circle class="st0" cx="256" cy="323.3" r="133.3"/>
<path class="st1" d="M196,470V323.3c0-33.2,26.8-60,60-60s60,26.8,60,60V470"/>
<circle class="st1" cx="256" cy="323.3" r="33.3"/>
<path class="st2" d="M196,470V323.3c0-33.2,26.8-60,60-60s60,26.8,60,60V470"/>
<path class="st2" d="M289.3,330c0,18.4-14.9,33.3-33.3,33.3s-33.3-14.9-33.3-33.3"/>
<line class="st2" x1="216" y1="410" x2="296" y2="410"/>
<line class="st2" x1="216" y1="436.7" x2="296" y2="436.7"/>
<line class="st2" x1="236" y1="143.3" x2="116" y2="143.3"/>
<line class="st2" x1="262.7" y1="143.3" x2="249.3" y2="143.3"/>
<line class="st2" x1="282.7" y1="243.3" x2="282.7" y2="123.3"/>
<line class="st2" x1="189.3" y1="143.3" x2="189.3" y2="70"/>
<polyline class="st2" points="256,123.3 256,103.3 342.7,103.3 "/>
<line class="st2" x1="256" y1="243.3" x2="256" y2="190"/>
<polyline class="st2" points="302.7,170 362.7,170 362.7,70 "/>
<polyline class="st2" points="229.3,243.3 229.3,170 262.7,170 "/>
<line class="st2" x1="356" y1="50" x2="369.3" y2="50"/>
<line class="st2" x1="182.7" y1="50" x2="196" y2="50"/>
<line class="st2" x1="382.7" y1="103.3" x2="396" y2="103.3"/>
<line class="st2" x1="409.3" y1="103.3" x2="422.7" y2="103.3"/>
<line class="st2" x1="436" y1="103.3" x2="449.3" y2="103.3"/>
<line class="st2" x1="422.7" y1="210" x2="436" y2="210"/>
<line class="st2" x1="89.3" y1="143.3" x2="102.7" y2="143.3"/>
<line class="st2" x1="62.7" y1="143.3" x2="76" y2="143.3"/>
<line class="st2" x1="76" y1="76.7" x2="89.3" y2="76.7"/>
<line class="st2" x1="129.3" y1="50" x2="142.7" y2="50"/>
<polyline class="st2" points="136,163.3 136,196.7 202.7,196.7 202.7,243.3 "/>
<polyline class="st2" points="136,123.3 136,76.7 102.7,76.7 "/>
<polyline class="st2" points="409.3,210 309.3,210 309.3,243.3 "/>
<line class="st2" x1="209.3" y1="170" x2="196" y2="170"/>
<line class="st2" x1="182.7" y1="170" x2="169.3" y2="170"/>
<polyline class="st2" points="282.7,83.3 282.7,50 209.3,50 "/>
<polyline class="st2" points="389.3,190 389.3,170 436,170 "/>
<line class="st2" x1="336" y1="303.3" x2="349.3" y2="303.3"/>
<line class="st2" x1="336" y1="330" x2="349.3" y2="330"/>
<line class="st2" x1="336" y1="356.7" x2="349.3" y2="356.7"/>
<line class="st2" x1="162.7" y1="303.3" x2="176" y2="303.3"/>
<line class="st2" x1="162.7" y1="330" x2="176" y2="330"/>
<line class="st2" x1="162.7" y1="356.7" x2="176" y2="356.7"/>
<line class="st2" x1="182.7" y1="223.3" x2="129.3" y2="223.3"/>
<line class="st2" x1="116" y1="223.3" x2="102.7" y2="223.3"/>
</svg>
