<?xml version="1.0" encoding="utf-8"?>
<!-- Generator: Adobe Illustrator 19.0.0, SVG Export Plug-In . SVG Version: 6.00 Build 0)  -->
<svg version="1.1" id="Layer_1" xmlns="http://www.w3.org/2000/svg" xmlns:xlink="http://www.w3.org/1999/xlink" x="0px" y="0px"
	 viewBox="0 0 512 512" style="enable-background:new 0 0 512 512;" xml:space="preserve">
<style type="text/css">
	.st0{fill:#F37422;}
	.st1{fill:#281C44;}
</style>
<circle class="st0" cx="102.6" cy="300.7" r="19.2"/>
<circle class="st0" cx="409.4" cy="300.7" r="19.2"/>
<circle class="st0" cx="256" cy="96.3" r="19.2"/>
<g>
	<path class="st1" d="M256,456.8c-5.1,0-10.1-1.9-14.8-5.6l-0.7-0.5l0.9,0.1c4.5,0.5,9.3,0.8,14.6,0.8c5.3,0,10.1-0.2,14.6-0.8
		l0.9-0.1l-0.7,0.5C266.1,454.9,261.1,456.8,256,456.8z"/>
	<path class="st1" d="M270.6,450.9c-4.7,3.7-9.6,5.6-14.6,5.6c-5,0-9.9-1.9-14.6-5.6c4.8,0.5,9.7,0.8,14.6,0.8
		C260.9,451.7,265.8,451.5,270.6,450.9 M272.3,450.2l-1.7,0.2c-4.5,0.5-9.3,0.8-14.6,0.8c-5.3,0-10.1-0.2-14.6-0.8l-1.7-0.2l1.4,1.1
		c4.8,3.8,9.8,5.7,14.9,5.7s10.2-1.9,14.9-5.7L272.3,450.2L272.3,450.2z"/>
</g>
<g>
	<path class="st1" d="M264.2,449.2c1.1-0.6,2.3-1.3,3.3-2.2l0.1,0l0.1,0c2.6-0.2,5.3-0.5,7.8-0.9l0.7-0.1l-0.4,0.5
		c-0.8,0.9-1.5,1.7-2.3,2.3l-0.1,0.1l-0.1,0c-2.9,0.3-5.8,0.5-9,0.8l-1.3,0.1L264.2,449.2z"/>
	<path class="st1" d="M275.5,446.4c-0.8,0.9-1.5,1.6-2.3,2.3c-2.9,0.3-5.9,0.5-8.9,0.8c1.1-0.5,2.3-1.3,3.4-2.2
		C270.3,447,272.9,446.7,275.5,446.4 M276.8,445.7l-1.3,0.2l0,0c-2.6,0.3-5.2,0.7-7.8,0.9l-0.2,0l-0.1,0.1c-1,0.8-2.2,1.6-3.3,2.1
		l-2.3,1.1l2.5-0.2c3.2-0.2,6-0.4,9-0.8l0.2,0l0.1-0.1c0.8-0.7,1.6-1.5,2.3-2.3L276.8,445.7L276.8,445.7z"/>
</g>
<g>
	<path class="st1" d="M247.7,449.7c-2.9-0.1-5.9-0.4-9-0.8l-0.1,0l-2.9-2.9l0.8,0.1c2.6,0.4,5.3,0.7,7.8,0.9l0.1,0l0.1,0
		c0.9,0.7,1.8,1.3,2.7,1.8l1.5,0.9L247.7,449.7z"/>
	<path class="st1" d="M236.5,446.4c2.6,0.4,5.2,0.7,7.8,0.9c1.1,0.9,2.3,1.5,3.4,2.2c-2.9-0.1-6-0.4-8.9-0.8
		C238,447.9,237.2,447.1,236.5,446.4 M235,445.6l1.1,1.1l1.5,1.5l0.8,0.8l0.1,0.1l0.2,0c3.1,0.3,6.1,0.7,9,0.8l1.9,0.1l-1.7-1
		c-0.2-0.1-0.4-0.2-0.6-0.4c-0.9-0.5-1.8-1.1-2.7-1.8l-0.1-0.1l-0.2,0c-2.6-0.2-5.2-0.4-7.8-0.9L235,445.6L235,445.6z"/>
</g>
<g>
	<path class="st1" d="M256,451.5c2.8,0,5.5-0.7,8.2-2.3l0.1,0l0.1,0c3.4-0.1,6.2-0.4,8.9-0.8l0.7-0.1l-0.5,0.5
		c-0.9,0.9-1.8,1.7-2.6,2.3l-0.1,0l-0.1,0c-4.5,0.5-9.3,0.8-14.6,0.8V451.5z"/>
	<path class="st1" d="M273.2,448.7c-0.9,0.9-1.7,1.6-2.6,2.3c-4.8,0.5-9.7,0.8-14.6,0.8c2.8,0,5.6-0.8,8.3-2.3
		C267.3,449.3,270.3,449.1,273.2,448.7 M274.6,447.9l-1.5,0.2c-2.7,0.4-5.5,0.6-8.9,0.8l-0.1,0L264,449c-2.7,1.5-5.3,2.2-8,2.2v1
		c5.3,0,10.1-0.3,14.7-0.8l0.1,0l0.1-0.1c0.9-0.7,1.8-1.5,2.7-2.3L274.6,447.9L274.6,447.9z"/>
</g>
<g>
	<path class="st1" d="M256,452c-4.2,0-8.9-0.2-14.6-0.8l-0.1,0l-0.1,0c-0.9-0.7-1.8-1.4-2.6-2.3l-0.5-0.5l0.7,0.1
		c2.7,0.4,5.5,0.6,8.9,0.8l0.1,0l0.1,0c2.7,1.5,5.4,2.3,8.2,2.3V452z"/>
	<path class="st1" d="M238.8,448.7c2.9,0.4,5.9,0.7,8.9,0.8c2.7,1.5,5.5,2.3,8.3,2.3c-4.9,0-9.8-0.3-14.6-0.8
		C240.5,450.3,239.6,449.5,238.8,448.7 M237.4,447.9l1.1,1.1c0.9,0.9,1.8,1.7,2.7,2.3l0.1,0.1l0.1,0c5.7,0.5,10.4,0.8,14.7,0.8v-1
		c-2.7,0-5.4-0.7-8-2.2l-0.1-0.1l-0.1,0c-3.4-0.1-6.2-0.4-8.9-0.8L237.4,447.9L237.4,447.9z"/>
</g>
<g>
	<g>
		<path class="st1" d="M270.7,455.5c2.2-1.5,4.5-3.4,6.6-5.6l0.1-0.1l0.1,0c26.7-3.8,51.9-14.8,73-31.8c0.3-0.2,0.8-0.7,1.5-1.3
			c0.4-0.4,0.8-0.7,1.3-1.2c-0.5-0.4-1.1-0.9-1.2-1c-0.4-0.4-1-0.9-1.5-1.3c-13.7-11-29.2-19.5-46-25.3l-0.2-0.1l0.1-0.4
			c0.3-1.5,0.6-2.9,0.9-4.5l0.1-0.3l0.3,0.1c17.7,5.9,34.1,15,48.7,26.9c0.4,0.4,1,0.9,1.5,1.3l0.1,0.1l0,0.1
			c0.1,0.2,0.7,0.7,1.2,1.1c1.7-1.5,3-2.7,3-2.7c17.7-16.9,31.1-38.1,38.7-61.2l0.1-0.2l5.1,1.6l-0.1,0.2
			c-8.6,26.1-24.1,49.5-44.9,67.7c-24.7,21.9-55.2,35.1-88.3,38.3l-1,0.1L270.7,455.5z"/>
		<path class="st1" d="M399.3,348.5l4.6,1.4c-8.6,26.1-24.1,49.4-44.8,67.6c-24.7,21.9-55.6,35.1-88.2,38.3c2.3-1.5,4.6-3.5,6.7-5.7
			c26.7-3.8,52-14.8,73.2-31.8c0.5-0.3,1.6-1.4,3.1-2.6c-0.5-0.4-1.3-1.1-1.4-1.2c-0.4-0.4-1-0.9-1.5-1.3
			c-13.8-11.1-29.4-19.6-46-25.3c0.3-1.5,0.7-3.1,1-4.7c17.6,5.9,34,14.9,48.6,26.8c0.4,0.4,1,0.9,1.5,1.3c0,0.1,1,1,1.4,1.3
			c1.7-1.6,3.2-2.8,3.2-2.8C378.2,392.7,391.5,371.8,399.3,348.5 M398.9,347.8l-0.2,0.5c-7.6,23-21,44.2-38.7,61.1c0,0,0,0,0,0
			c0,0-1.3,1.1-2.8,2.5c-0.3-0.3-0.7-0.6-0.9-0.8V411l-0.2-0.2c-0.5-0.4-1.1-0.9-1.5-1.3l0,0l0,0c-14.6-11.9-31.1-21-48.8-26.9
			l-0.5-0.2l-0.1,0.6c-0.3,1.6-0.7,3.2-1,4.7l-0.1,0.4l0.4,0.2c16.7,5.7,32.2,14.2,45.9,25.2c0.5,0.4,1.1,0.9,1.5,1.3
			c0.1,0.1,0.6,0.5,1,0.9c-0.4,0.3-0.8,0.7-1.1,1c-0.6,0.6-1.1,1-1.4,1.2l0,0l0,0c-21.1,17-46.3,27.9-72.9,31.7l-0.2,0l-0.1,0.1
			c-2.1,2.2-4.3,4.1-6.6,5.6l-1.7,1.1l2-0.2c33.2-3.2,63.8-16.5,88.5-38.4c20.8-18.3,36.3-41.7,45-67.8l0.2-0.5l-0.5-0.2l-4.6-1.4
			L398.9,347.8L398.9,347.8z"/>
	</g>
	<g>
		<path class="st1" d="M241.3,456.1c-32.9-3.2-63.4-16.5-88.2-38.3c-20.8-18.3-36.3-41.7-44.9-67.7l-0.1-0.2l5.1-1.6l0.1,0.2
			c7.6,22.9,20.9,44,38.6,61l0,0c0,0,1.3,1.2,3,2.8c0.4-0.4,1.3-1.1,1.3-1.1c0.4-0.4,1-0.9,1.5-1.3c14.6-11.9,31-20.9,48.7-26.9
			l0.3-0.1l0.1,0.3c0.2,0.8,0.3,1.5,0.5,2.3c0.2,0.8,0.3,1.6,0.5,2.4l0,0.2l-0.2,0.1c-16.7,5.8-32.1,14.3-45.8,25.3
			c-0.4,0.4-1,0.9-1.5,1.3c0,0-0.1,0.1-0.3,0.2c-0.3,0.2-0.7,0.6-1,0.9c1.1,1,2.2,2,2.8,2.4c21.1,17,46.4,28,73.1,31.8l0.1,0
			l0.1,0.1c2.2,2.3,4.3,4.1,6.6,5.6l0.8,0.6L241.3,456.1z"/>
		<path class="st1" d="M113,348.6c7.6,23.1,20.9,44,38.7,61.1c0,0,1.4,1.3,3.2,2.9c0.3-0.3,1.4-1.3,1.4-1.3c0.4-0.4,1-0.9,1.5-1.3
			c14.6-11.9,31.1-20.9,48.6-26.8c0.3,1.5,0.7,3.2,1,4.7c-16.5,5.7-32.1,14.2-45.9,25.3c-0.4,0.4-1,0.9-1.5,1.3
			c-0.1,0.1-1,0.8-1.5,1.3c1.3,1.2,2.4,2.2,3.1,2.6c21.2,17,46.4,28,73.2,31.8c2.2,2.3,4.4,4.1,6.7,5.7
			c-32.5-3.2-63.3-16.5-88.1-38.3C132.4,399.3,117,376,108.4,350L113,348.6 M113.3,347.9l-0.5,0.1l-4.6,1.4l-0.5,0.2l0.2,0.5
			c8.6,26.1,24.2,49.5,45,67.8c24.9,21.9,55.4,35.2,88.4,38.4l2,0.2l-1.7-1.1c-2.3-1.5-4.4-3.3-6.6-5.6l-0.1-0.1l-0.2,0
			c-26.6-3.8-51.8-14.8-72.9-31.7c-0.6-0.4-1.6-1.3-2.6-2.2c0.3-0.3,0.6-0.5,0.8-0.7c0.1-0.1,0.2-0.2,0.3-0.2
			c0.5-0.4,1.1-0.9,1.5-1.3c13.7-11,29.1-19.5,45.7-25.2l0.4-0.1l-0.1-0.4c-0.2-0.8-0.3-1.6-0.5-2.3c-0.2-0.8-0.3-1.6-0.5-2.3
			l-0.1-0.5l-0.5,0.2c-17.7,5.9-34.1,15-48.8,26.9c-0.5,0.4-1.1,0.9-1.6,1.3c0,0-0.6,0.6-1.1,1c-1.6-1.5-2.8-2.6-2.8-2.6
			c-17.7-16.9-31-38-38.6-60.8L113.3,347.9L113.3,347.9z"/>
	</g>
	<g>
		<path class="st1" d="M304.4,294.7l0-0.2c-0.4-24.5-2.8-48.5-6.8-69.5l-0.3-2c0-0.1-0.1-0.6-0.1-1c0-0.3-0.1-0.5-0.1-0.8
			c-0.7,0.2-1.4,0.4-2,0.6c-0.7,0.2-1.2,0.4-1.7,0.5c-12.1,3-24.6,4.6-37.3,4.6c-12.7,0-25.3-1.5-37.3-4.6c-0.4-0.1-0.9-0.3-1.5-0.4
			c-0.6-0.2-1.3-0.4-2.1-0.6c-0.2,0.6-0.3,1.6-0.4,1.7l-0.3,2c-4.1,21.1-6.4,45.2-6.8,69.5l0,0.2h-5.3l0-0.3
			c0.3-24.5,2.7-49,6.9-70.9l0.3-2c0,0,0.3-1.1,0.4-1.7c-0.6-0.2-1.2-0.4-1.7-0.5c-0.7-0.2-1.3-0.4-1.9-0.6
			c-17.6-5.9-34.4-15.2-48.7-26.9c-0.4-0.4-1-0.9-1.5-1.3c-0.1-0.1-0.4-0.2-1-0.8c-0.2-0.1-0.3-0.3-0.5-0.4
			c-0.9,0.8-1.8,1.8-2.7,2.6c-17.8,16.9-31.2,38.1-38.8,61.3l-0.1,0.2l-5.1-1.6l0.1-0.2c8.7-26.2,24.2-49.6,44.9-67.7
			c8.7-7.6,18.1-14.2,28.1-19.7l0.2-0.1l2.4,4.7l-0.2,0.1c-7.6,4.1-14.9,9-21.8,14.6c-0.6,0.5-1.1,1-1.7,1.4c-0.4,0.3-0.8,0.7-1.2,1
			c0.3,0.2,0.6,0.5,0.9,0.7c0.3,0.2,0.5,0.4,0.6,0.4c0.4,0.4,1,0.9,1.5,1.3c15.3,12.4,33.3,21.8,52,27.2c13.8,4,28,6.1,42.3,6.1
			c14.4,0,28.6-2.1,42.2-6.1c19.1-5.5,36.7-14.7,52.2-27.2c0.4-0.4,1-0.9,1.5-1.3c0,0,0.1-0.1,0.2-0.2c0.2-0.2,0.6-0.6,1-0.9
			c-0.9-0.8-1.8-1.6-2.8-2.4c-6.8-5.5-14.2-10.5-21.9-14.7l-0.2-0.1l2.4-4.7l0.2,0.1c10.2,5.6,19.7,12.2,28.2,19.8
			c20.8,18.4,36.3,41.8,44.9,67.7l0.1,0.2l-5.1,1.6l-0.1-0.2c-7.7-23-21.1-44.2-38.9-61.2c-0.9-0.8-1.9-1.6-2.9-2.6
			c-0.4,0.4-1.3,1.2-1.3,1.2c-0.4,0.4-1,0.9-1.5,1.3c-14.5,11.9-30.9,20.9-48.7,26.9c-0.9,0.2-1.9,0.5-3,0.9l-0.6,0.2
			c0.1,0.7,0.3,1.9,0.3,1.9l0.3,2c4.2,21.7,6.5,46.3,6.9,70.9l0,0.3H304.4z"/>
		<path class="st1" d="M330.9,164.3c10.1,5.6,19.6,12.2,28.1,19.7c20.7,18.3,36.2,41.5,44.8,67.6l-4.6,1.4
			c-7.7-23.2-21.2-44.3-38.9-61.3c-1-0.9-2-1.7-3.1-2.7c-0.3,0.3-1.4,1.3-1.4,1.3c-0.4,0.4-1,0.9-1.5,1.3
			c-14.6,12-31,20.9-48.6,26.8c-1.1,0.2-2.4,0.7-3.8,1.1c0.1,0.7,0.3,2.1,0.3,2.1c0.1,0.7,0.2,1.3,0.3,2c4.1,21.6,6.5,45.9,6.9,70.9
			h-4.8c-0.4-24.4-2.7-48.3-6.8-69.6c-0.1-0.7-0.2-1.3-0.3-2c0-0.2-0.2-1.3-0.3-2.1c-1.6,0.4-3.1,0.9-3.9,1.1
			c-12.1,3.1-24.6,4.6-37.3,4.6c-12.6,0-25.2-1.5-37.3-4.6c-0.9-0.2-2.2-0.7-3.8-1.1c-0.2,0.7-0.4,1.9-0.4,2c-0.1,0.7-0.2,1.3-0.3,2
			c-4.1,21.4-6.4,45.1-6.8,69.6h-4.8c0.3-25,2.7-49.2,6.9-70.9c0.1-0.7,0.2-1.3,0.3-2c0,0,0.3-1.3,0.4-2c-1.4-0.4-2.7-0.9-3.8-1.2
			c-17.6-5.9-34.2-15-48.6-26.8c-0.4-0.4-1-0.9-1.5-1.3c-0.1,0-1.1-0.9-1.6-1.3c-1,0.9-2,1.9-2.8,2.7c-17.9,17-31.2,37.9-38.8,61.4
			l-4.6-1.4c8.6-26.1,24-49.4,44.8-67.6c8.6-7.5,18.1-14.2,28-19.6l2.2,4.3c-7.6,4.1-14.9,9-21.8,14.6c-1.1,1-2.2,1.7-3.2,2.6
			c0.7,0.5,1.5,1.2,1.6,1.3c0.4,0.4,1,0.9,1.5,1.3c15.4,12.4,33.3,21.8,52.1,27.3c13.7,4,27.9,6.1,42.4,6.1
			c14.5,0,28.7-2.1,42.3-6.1c19.2-5.6,36.7-14.7,52.3-27.3c0.4-0.4,1-0.9,1.5-1.3c0.1-0.1,0.9-0.8,1.4-1.3c-1-0.9-2-1.7-3.1-2.6
			c-6.9-5.6-14.2-10.5-21.9-14.7L330.9,164.3 M330.7,163.6l-0.2,0.5l-2.2,4.3l-0.2,0.4l0.4,0.2c7.7,4.2,15,9.2,21.8,14.7
			c0.9,0.7,1.8,1.5,2.6,2.2c-0.3,0.3-0.6,0.5-0.8,0.7c-0.1,0.1-0.2,0.2-0.3,0.2c-0.5,0.4-1.1,0.9-1.5,1.3
			c-15.5,12.5-33.1,21.6-52.1,27.1c-13.6,4-27.8,6.1-42.2,6.1c-14.3,0-28.5-2-42.3-6.1c-18.7-5.4-36.6-14.8-51.9-27.2
			c-0.5-0.4-1.1-0.9-1.5-1.3c-0.1-0.1-0.2-0.2-0.6-0.5c-0.2-0.1-0.4-0.3-0.6-0.5c0.3-0.3,0.6-0.5,1-0.8c0.6-0.4,1.1-0.9,1.7-1.4
			c6.9-5.5,14.2-10.4,21.7-14.5l0.4-0.2l-0.2-0.4l-2.2-4.3l-0.2-0.5L181,164c-10,5.5-19.4,12.1-28.1,19.7
			c-20.7,18.1-36.3,41.6-45,67.8l-0.2,0.5l0.5,0.2l4.6,1.4l0.5,0.1l0.2-0.5c7.5-23.1,20.9-44.3,38.7-61.2c0.8-0.8,1.6-1.6,2.5-2.4
			c0.1,0.1,0.2,0.2,0.3,0.3c0.6,0.5,0.9,0.7,1.1,0.8c0.5,0.4,1,0.8,1.4,1.2c14.3,11.7,31.2,21,48.8,26.9c0.6,0.2,1.2,0.4,1.9,0.6
			c0.5,0.2,1,0.3,1.5,0.5c-0.1,0.7-0.3,1.5-0.3,1.5l-0.2,1l-0.2,1c-4.2,21.9-6.6,46.4-6.9,70.9l0,0.5h0.5h4.8h0.5l0-0.5
			c0.3-24.4,2.7-48.4,6.8-69.5l0.2-1.1l0.1-0.9l0,0v0c0-0.1,0.1-0.8,0.3-1.4c0.7,0.2,1.3,0.4,1.8,0.5c0.6,0.2,1.1,0.3,1.5,0.4
			c12.1,3,24.7,4.6,37.4,4.6c12.7,0,25.3-1.5,37.4-4.6c0.4-0.1,1-0.3,1.7-0.5c0.5-0.1,1.1-0.3,1.7-0.5c0,0.2,0.1,0.4,0.1,0.5
			c0.1,0.4,0.1,0.8,0.1,0.9l0,0l0,0l0.3,2c4,21,6.3,45,6.8,69.5l0,0.5h0.5h4.8h0.5l0-0.5c-0.3-24.7-2.7-49.2-6.9-71l-0.3-2
			c0,0,0,0,0,0c0,0-0.1-0.9-0.3-1.6l0.4-0.1c1.1-0.3,2.1-0.7,3-0.8l0,0l0,0c17.9-6,34.3-15,48.8-26.9c0.5-0.4,1.1-0.9,1.6-1.3
			c0,0,0.6-0.6,1.1-1c1,0.9,1.8,1.6,2.7,2.4c17.7,16.9,31.1,38.1,38.8,61.1l0.2,0.5l0.5-0.1l4.6-1.4l0.5-0.2l-0.2-0.5
			c-8.6-25.9-24.1-49.4-45-67.8c-8.5-7.5-18-14.2-28.2-19.8L330.7,163.6L330.7,163.6z"/>
	</g>
	<g>
		<path class="st1" d="M219.3,384.3c-0.3-1.5-0.7-3.1-1-4.7l0-0.2l0.2-0.1c12.1-3,24.7-4.6,37.5-4.6c12.8,0,25.4,1.5,37.5,4.6
			l0.2,0.1l0,0.2c-0.3,1.6-0.7,3.2-1,4.7l-0.1,0.3l-0.3-0.1c-12-3-24.2-4.5-36.4-4.5c-12.3,0-24.5,1.5-36.4,4.5l-0.3,0.1
			L219.3,384.3z"/>
		<path class="st1" d="M256,374.9c12.8,0,25.3,1.5,37.4,4.6c-0.3,1.6-0.7,3.2-1,4.7c-11.9-2.9-24.1-4.5-36.4-4.5
			c-12.4,0-24.6,1.5-36.4,4.5c-0.3-1.5-0.7-3.1-1-4.7C230.7,376.5,243.4,374.9,256,374.9 M256,374.4c-12.8,0-25.4,1.5-37.5,4.6
			l-0.5,0.1l0.1,0.5c0.3,1.6,0.7,3.2,1,4.7l0.1,0.5l0.5-0.1c11.8-3,24-4.5,36.3-4.5c12.1,0,24.4,1.5,36.3,4.5l0.5,0.1l0.1-0.5
			c0.3-1.5,0.7-3.1,1-4.7l0.1-0.5l-0.5-0.1C281.4,376,268.8,374.4,256,374.4L256,374.4z"/>
	</g>
	<g>
		<path class="st1" d="M244.3,447.6c-2.6-0.2-5.3-0.6-7.9-0.9l-0.1,0l-0.3-0.4c-0.6-0.7-1.3-1.5-1.8-2.2
			c-6.6-8.4-12.5-20.4-17.4-35.6c-1.7-5.4-3.4-11.4-4.9-17.9c-0.1-0.3-0.1-0.7-0.2-1c-0.1-0.3-0.2-0.7-0.2-1c-0.1-0.3-0.1-0.6-0.2-1
			c-0.1-0.3-0.2-0.7-0.2-1c-0.3-1.6-0.7-3.1-1-4.7c-0.2-0.6-0.3-1.3-0.4-2c-0.2-0.6-0.3-1.3-0.4-2c-4.2-21.7-6.5-46.2-6.9-70.9
			l0-0.3h5.3l0,0.2c0.3,24.8,2.6,48.2,6.6,69.5l0.3,2c0.2,0.6,0.3,1.3,0.4,2c0.2,0.8,0.3,1.5,0.5,2.3c0.2,0.8,0.3,1.6,0.5,2.3
			c0.1,0.3,0.1,0.7,0.2,1c0.1,0.3,0.2,0.7,0.2,1c0.1,0.3,0.1,0.6,0.2,1c0.1,0.3,0.2,0.7,0.2,1c1.6,6.7,3.3,13,5.2,18.7
			c6.3,19.1,14.1,32.7,22.4,39.2l0.7,0.5L244.3,447.6z"/>
		<path class="st1" d="M207.4,307.1c0.3,24.9,2.6,48.5,6.7,69.6c0.1,0.7,0.2,1.3,0.3,2c0.2,0.7,0.3,1.3,0.4,2c0.3,1.5,0.7,3.2,1,4.7
			c0.1,0.7,0.3,1.3,0.4,2c0.1,0.7,0.3,1.3,0.4,2c1.5,6.5,3.3,12.9,5.2,18.8c6.4,19.4,14.2,32.8,22.5,39.4c-2.6-0.2-5.2-0.5-7.8-0.9
			c-0.7-0.8-1.4-1.6-2.1-2.5c-6.5-8.3-12.4-20.3-17.3-35.5c-1.7-5.6-3.4-11.6-4.9-17.9c-0.1-0.7-0.3-1.3-0.4-2
			c-0.1-0.7-0.3-1.3-0.4-2c-0.3-1.5-0.7-3.1-1-4.7c-0.2-0.7-0.3-1.3-0.4-2c-0.2-0.7-0.3-1.3-0.4-2c-4.1-21.6-6.5-46.1-6.9-70.9
			H207.4 M207.9,306.6h-0.5h-4.8h-0.5l0,0.5c0.3,24.7,2.7,49.2,6.9,71c0.1,0.6,0.2,1.3,0.4,2c0.1,0.6,0.2,1.3,0.4,2
			c0.3,1.6,0.7,3.1,1,4.7c0.1,0.3,0.1,0.7,0.2,1c0.1,0.3,0.2,0.6,0.2,0.9c0.1,0.3,0.1,0.7,0.2,1c0.1,0.3,0.2,0.6,0.2,0.9
			c1.6,6.5,3.2,12.5,4.9,17.9c4.9,15.3,10.8,27.3,17.4,35.7c0.6,0.8,1.2,1.5,1.8,2.2l0.2,0.3l0.1,0.1l0.2,0c2.6,0.3,5.2,0.7,7.9,0.9
			l1.7,0.1l-1.3-1c-8.3-6.5-16-20.1-22.3-39.1c-1.9-5.7-3.6-12-5.2-18.7c-0.1-0.3-0.1-0.7-0.2-1c-0.1-0.3-0.2-0.6-0.2-0.9
			c-0.1-0.3-0.1-0.7-0.2-1c-0.1-0.3-0.2-0.6-0.2-0.9c-0.2-0.8-0.3-1.6-0.5-2.4c-0.2-0.8-0.3-1.6-0.5-2.3c-0.1-0.6-0.2-1.3-0.4-2
			l-0.3-1.9c-4.1-21.3-6.3-44.7-6.6-69.5L207.9,306.6L207.9,306.6z"/>
	</g>
	<g>
		<path class="st1" d="M267.5,447c8.4-6.4,15.9-19.6,22.4-39.1c1.7-5.4,3.6-11.8,5.2-18.7c0.1-0.3,0.1-0.7,0.2-1
			c0.1-0.3,0.2-0.6,0.2-1c0.1-0.3,0.1-0.7,0.2-1c0.1-0.3,0.2-0.6,0.2-1c0.3-1.5,0.7-3.1,1-4.7c0.2-0.7,0.3-1.3,0.4-2l0.3-2
			c4-21,6.3-45,6.6-69.5l0-0.2h5.3l0,0.3c-0.3,24.7-2.7,49.2-6.9,70.9c-0.2,0.7-0.3,1.3-0.4,1.9c-0.2,0.7-0.3,1.3-0.4,2
			c-0.2,0.8-0.3,1.5-0.5,2.3c-0.2,0.8-0.3,1.6-0.5,2.4c-0.1,0.3-0.1,0.7-0.2,1c-0.1,0.3-0.2,0.6-0.2,1c-0.1,0.3-0.1,0.7-0.2,1
			c-0.1,0.3-0.2,0.6-0.2,1c-1.6,7.1-3.6,13.6-4.9,17.9c-4.8,15.2-10.7,27.1-17.4,35.6c-0.4,0.6-0.9,1.1-1.4,1.6
			c-0.2,0.3-0.5,0.5-0.7,0.8l-0.1,0.1l-0.1,0c-2.6,0.4-5.3,0.7-7.9,0.9l-0.8,0.1L267.5,447z"/>
		<path class="st1" d="M309.4,307.1c-0.3,24.9-2.7,49.3-6.9,70.9c-0.2,0.7-0.3,1.3-0.4,2c-0.2,0.7-0.3,1.3-0.4,2
			c-0.3,1.5-0.7,3.2-1,4.7c-0.1,0.7-0.3,1.3-0.4,2c-0.1,0.7-0.3,1.3-0.4,2c-1.4,6.3-3.2,12.3-4.9,17.9
			c-4.9,15.4-10.8,27.3-17.3,35.5c-0.7,0.9-1.4,1.6-2.1,2.4c-2.6,0.4-5.2,0.7-7.8,0.9c8.4-6.4,16-19.8,22.5-39.2
			c1.9-5.9,3.7-12.1,5.2-18.8c0.1-0.7,0.3-1.3,0.4-2c0.1-0.7,0.3-1.3,0.4-2c0.3-1.5,0.7-3.1,1-4.7c0.2-0.7,0.3-1.3,0.4-2
			c0.1-0.7,0.2-1.3,0.3-2c4-21,6.3-44.8,6.7-69.6H309.4 M309.9,306.6h-0.5h-4.8h-0.5l0,0.5c-0.3,24.5-2.6,48.5-6.6,69.5l-0.2,1.4
			l-0.1,0.6c-0.1,0.7-0.2,1.3-0.4,1.9l0,0l0,0c-0.3,1.6-0.7,3.2-1,4.7c-0.1,0.3-0.1,0.6-0.2,1c-0.1,0.3-0.2,0.7-0.2,1
			c-0.1,0.3-0.1,0.6-0.2,0.9c-0.1,0.3-0.2,0.7-0.2,1c-1.6,6.9-3.5,13.3-5.2,18.7c-6.5,19.5-14,32.6-22.3,39l-1.4,1l1.7-0.1
			c2.6-0.2,5.3-0.4,7.9-0.9l0.2,0l0.1-0.1c0.2-0.3,0.5-0.5,0.7-0.8c0.5-0.5,1-1.1,1.4-1.6c6.7-8.5,12.6-20.5,17.4-35.7
			c1.4-4.3,3.3-10.9,4.9-17.9c0.1-0.3,0.1-0.6,0.2-1c0.1-0.3,0.2-0.7,0.2-1c0.1-0.3,0.1-0.6,0.2-0.9c0.1-0.3,0.2-0.7,0.2-1
			c0.2-0.7,0.3-1.5,0.5-2.3c0.2-0.8,0.3-1.6,0.5-2.3c0.1-0.7,0.2-1.3,0.4-1.9l0,0l0,0c0.1-0.7,0.2-1.3,0.4-1.9l0,0l0,0
			c4.2-21.8,6.6-46.3,6.9-71L309.9,306.6L309.9,306.6z"/>
	</g>
	<g>
		<path class="st1" d="M127.9,303.3l0-0.3c0.1-0.7,0.1-1.6,0.1-2.4c0-0.8,0-1.6-0.1-2.4l0-0.3H233v5.3H127.9z"/>
		<path class="st1" d="M232.8,298.3v4.8h-21.6h-2h-2h-4.8h-2h-2l0,0h-70.3c0.1-0.8,0.1-1.6,0.1-2.4s0-1.6-0.1-2.4h70.4h2h2h4.8h2h2
			H232.8 M233.3,297.8h-0.5h-21.5h-2h-2h-4.8h-2h-2h-70.4h-0.6l0.1,0.6c0.1,0.7,0.1,1.6,0.1,2.3s0,1.6-0.1,2.3l-0.1,0.6h0.6h70.3h2
			h2h4.8h2h2h21.6h0.5v-0.5v-4.8V297.8L233.3,297.8z"/>
	</g>
	<g>
		<path class="st1" d="M278.9,303.3v-5.3h105.2l0,0.3c-0.1,0.7-0.1,1.6-0.1,2.4c0,0.8,0,1.6,0.1,2.4l0,0.3H278.9z"/>
		<path class="st1" d="M383.8,298.3c-0.1,0.8-0.1,1.6-0.1,2.4s0,1.6,0.1,2.4h-70.4h-2h-2h-4.8h-2h-2h-21.6v-4.8h21.6h2.1h2h4.8h2h2
			l0,0H383.8 M384.4,297.8h-0.6h-70.3h-2h-2h-4.8h-2h-2.1h-21.6h-0.5v0.5v4.8v0.5h0.5h21.6h2h2h4.8h2h2h70.4h0.6l-0.1-0.6
			c-0.1-0.7-0.1-1.6-0.1-2.3s0-1.6,0.1-2.3L384.4,297.8L384.4,297.8z"/>
	</g>
	<g>
		<path class="st1" d="M102.6,322.5c-12,0-21.8-9.8-21.8-21.8s9.8-21.8,21.8-21.8c9.6,0,18,6.2,20.8,15.3c0.2,0.8,0.4,1.5,0.6,2.3
			c0.3,1.2,0.4,2.5,0.4,4.2c0,1.4-0.2,2.8-0.4,4.2c-0.1,0.8-0.3,1.6-0.6,2.3C120.6,316.4,112.2,322.5,102.6,322.5z M102.6,284.2
			c-9.1,0-16.5,7.4-16.5,16.5s7.4,16.5,16.5,16.5s16.5-7.4,16.5-16.5S111.7,284.2,102.6,284.2z"/>
		<path class="st1" d="M102.6,279.1c9.7,0,17.9,6.3,20.6,15.2c0.2,0.8,0.4,1.5,0.5,2.3c0.3,1.3,0.4,2.7,0.4,4.1s-0.2,2.8-0.4,4.1
			c-0.1,0.8-0.3,1.5-0.5,2.3c-2.7,8.7-10.9,15.2-20.6,15.2c-11.9,0-21.6-9.7-21.6-21.6S90.7,279.1,102.6,279.1 M102.6,317.5
			c9.3,0,16.8-7.5,16.8-16.8s-7.5-16.8-16.8-16.8s-16.8,7.5-16.8,16.8S93.3,317.5,102.6,317.5 M102.6,278.6
			c-12.2,0-22.1,9.9-22.1,22.1s9.9,22.1,22.1,22.1c9.7,0,18.2-6.2,21.1-15.5c0.2-0.8,0.4-1.6,0.6-2.4c0.2-1.3,0.4-2.8,0.4-4.2
			c0-1.6-0.1-3-0.4-4.2c-0.1-0.8-0.3-1.6-0.6-2.3C120.8,284.8,112.3,278.6,102.6,278.6L102.6,278.6z M102.6,317
			c-9,0-16.3-7.3-16.3-16.3s7.3-16.3,16.3-16.3s16.3,7.3,16.3,16.3S111.6,317,102.6,317L102.6,317z"/>
	</g>
	<g>
		<path class="st1" d="M409.4,322.5c-9.6,0-18-6.2-20.8-15.3c-0.2-0.8-0.4-1.5-0.6-2.3c-0.3-1.2-0.4-2.5-0.4-4.2
			c0-1.4,0.2-2.8,0.4-4.2c0.1-0.8,0.3-1.6,0.6-2.3c2.9-9.2,11.2-15.3,20.8-15.3c11.9,0,21.7,9.8,21.8,21.8
			C431.2,312.7,421.4,322.5,409.4,322.5z M409.4,284.2c-9.1,0-16.5,7.4-16.5,16.5s7.4,16.5,16.5,16.5s16.5-7.4,16.5-16.5
			S418.5,284.2,409.4,284.2z"/>
		<path class="st1" d="M409.4,279.1c11.9,0,21.5,9.7,21.6,21.6c0,11.9-9.7,21.6-21.6,21.6c-9.7,0-17.9-6.3-20.6-15.2
			c-0.2-0.8-0.4-1.5-0.5-2.3c-0.3-1.3-0.4-2.7-0.4-4.1s0.2-2.8,0.4-4.1c0.1-0.8,0.3-1.5,0.5-2.3
			C391.5,285.5,399.7,279.1,409.4,279.1 M409.4,317.5c9.2,0,16.8-7.5,16.8-16.8s-7.5-16.8-16.8-16.8s-16.8,7.5-16.8,16.8
			S400.1,317.5,409.4,317.5 M409.4,278.6c-9.7,0-18.2,6.2-21.1,15.5c-0.2,0.8-0.4,1.6-0.6,2.4c-0.2,1.3-0.4,2.8-0.4,4.2
			c0,1.6,0.1,3,0.4,4.2c0.1,0.8,0.3,1.6,0.6,2.3c2.9,9.3,11.3,15.5,21.1,15.5c12.2,0,22.1-9.9,22.1-22.1
			C431.4,288.5,421.5,278.6,409.4,278.6L409.4,278.6z M409.4,317c-9,0-16.3-7.3-16.3-16.3s7.3-16.3,16.3-16.3s16.3,7.3,16.3,16.3
			S418.4,317,409.4,317L409.4,317z"/>
	</g>
	<g>
		<path class="st1" d="M256,201.2c-1,0-2.1-0.7-2.4-1.7c-16-39.6-34.7-86.1-37-92.1l-0.2-0.4c-0.9-3.8-1.4-7.4-1.6-10.7
			c0-22.6,18.4-41,41-41s41,18.4,41,41c0,3.7-0.5,7.3-1.4,10.6c-0.7,2.5-12.9,32.8-37.1,92.6C258.1,200.4,257,201.2,256,201.2z
			 M256,60.5c-9.6,0-18.6,3.8-25.3,10.6c-6.7,6.7-10.3,15.6-10.2,25c0,3.1,0.4,6.2,1.3,9.3l0,0.2v0.1c1.1,3.3,24.4,61,30.8,77
			l3.5,8.6l3.5-8.6c9.3-22.8,29.9-73.9,31-77.2l0,0v-0.1c0.8-3.1,1.2-6.2,1.2-9.2C291.7,76.6,275.7,60.5,256,60.5z"/>
		<path class="st1" d="M255.9,55.5c22.5,0,40.8,18.3,40.8,40.8c0,3.5-0.4,7.1-1.4,10.6c-0.8,2.6-14.3,36.3-37.1,92.6
			c-0.3,0.9-1.3,1.5-2.2,1.5c-0.9,0-1.9-0.7-2.2-1.5c-16.5-40.7-34.8-86.2-37-92.1l-0.2-0.4c-0.9-3.6-1.4-7.2-1.5-10.6
			C215.1,73.8,233.4,55.5,255.9,55.5 M256.1,192l3.7-9.2c8.9-22,29.9-73.8,31-77.2v-0.1v-0.1c0.8-2.9,1.2-6.1,1.2-9.2
			c0-19.8-16.1-36-36-36s-36,16.1-35.8,35.9c0,3.1,0.4,6.2,1.3,9.4v0.1v0.1c1.1,3.4,23.9,59.9,30.9,77.1L256.1,192 M255.9,55
			c-22.8,0-41.3,18.5-41.3,41.3c0.1,3.3,0.6,6.9,1.5,10.7l0,0.1l0,0.1l0.2,0.4c2.3,6.1,20.9,52.5,37,92.1c0.4,1,1.5,1.8,2.6,1.8
			c1.1,0,2.3-0.8,2.6-1.9c24.2-59.8,36.3-90.1,37.1-92.6c1-3.4,1.4-7,1.4-10.7C297.2,73.5,278.7,55,255.9,55L255.9,55z M222,105.7
			L222,105.7v-0.1v-0.1l0-0.1c-0.9-3.1-1.3-6.2-1.3-9.2c-0.1-9.3,3.5-18.2,10.1-24.9c6.7-6.8,15.6-10.5,25.2-10.5
			c19.6,0,35.5,15.9,35.5,35.5c0,2.9-0.4,6-1.2,9l0,0.1v0.1v0.1v0c-1.3,3.9-21.7,54.5-30.9,77.1l-3.2,8l-3.2-8
			C246.4,166.8,223.4,109.7,222,105.7L222,105.7z"/>
	</g>
	<g>
		<rect x="253.4" y="272.5" class="st1" width="5.3" height="5.3"/>
		<path class="st1" d="M258.4,272.8v4.8h-4.8v-4.8H258.4 M258.9,272.3h-0.5h-4.8h-0.5v0.5v4.8v0.5h0.5h4.8h0.5v-0.5v-4.8V272.3
			L258.9,272.3z"/>
	</g>
	<g>
		<rect x="253.4" y="298.1" class="st1" width="5.3" height="5.3"/>
		<path class="st1" d="M258.4,298.3v4.8h-4.8v-4.8H258.4 M258.9,297.8h-0.5h-4.8h-0.5v0.5v4.8v0.5h0.5h4.8h0.5v-0.5v-4.8V297.8
			L258.9,297.8z"/>
	</g>
	<g>
		<rect x="253.4" y="323.7" class="st1" width="5.3" height="5.3"/>
		<path class="st1" d="M258.4,323.9v4.8h-4.8v-4.8H258.4 M258.9,323.4h-0.5h-4.8h-0.5v0.5v4.8v0.5h0.5h4.8h0.5v-0.5v-4.8V323.4
			L258.9,323.4z"/>
	</g>
</g>
</svg>
