<?xml version="1.0" encoding="utf-8"?>
<!-- Generator: Adobe Illustrator 20.1.0, SVG Export Plug-In . SVG Version: 6.00 Build 0)  -->
<svg version="1.1" id="Layer_1" xmlns="http://www.w3.org/2000/svg" xmlns:xlink="http://www.w3.org/1999/xlink" x="0px" y="0px"
	 viewBox="0 0 512 512" style="enable-background:new 0 0 512 512;" xml:space="preserve">
<style type="text/css">
	.st0{fill:#F37422;}
</style>
<g>
	<circle class="st0" cx="256" cy="55.7" r="23.9"/>
	<path class="st0" d="M447.3,279.3c-13.7,0-25.6,8.7-29.8,21.8c-0.3,0.7-0.5,1.4-0.7,2.2c-0.3-0.1-0.7-0.2-1.1-0.2h-88.9v0
		c0,0,0,0,0-0.1c-0.5-31.6-3.5-62.4-8.7-89l-0.2-1.3c0.3-0.1,0.5-0.1,0.8-0.2c0.1,0,0.3-0.1,0.4-0.1c22.8-7.7,43.7-19.2,62-34.3
		c0.3-0.3,0.6-0.5,0.9-0.7c0.3,0.2,0.6,0.5,0.8,0.7c21.6,20.6,38,46.4,47.4,74.6c0.1,0.2,0.1,0.4,0.2,0.5l0.1,0.2
		c0.7,1.4,2.2,2.3,3.7,2.3c0.4,0,0.8-0.1,1.2-0.2l6.4-2c1.1-0.4,2.1-1.2,2.6-2.3c0.5-1.1,0.4-2.4-0.1-3.4
		c-11-32.9-30.7-62.6-57.1-85.9c-10.6-9.4-22.7-17.9-35.9-25.2c0,0-0.1,0-0.1-0.1l-0.2-0.1c-0.6-0.3-1.2-0.4-1.8-0.4
		c-1.5,0-2.9,0.8-3.7,2.2l-3,5.9c-0.5,1-0.6,2.1-0.2,3.2c0.3,1,1.1,1.9,2.1,2.4l0.2,0.1c9.2,5,18.1,11,26.4,17.7
		c-18.9,15.2-40.2,26.3-63.3,32.9c-16.8,4.9-34.1,7.4-51.5,7.4c-17.2,0-34.6-2.5-51.6-7.4c-22.8-6.6-44.6-18-63.2-33
		c8.3-6.7,17.1-12.6,26.2-17.5l0.2-0.1c1-0.5,1.7-1.4,2.1-2.4s0.3-2.2-0.2-3.2l-3-5.9c-0.7-1.4-2.2-2.2-3.7-2.2
		c-0.6,0-1.2,0.1-1.8,0.4l-0.2,0.1c0,0-0.1,0-0.1,0.1c-12.7,7-24.7,15.4-35.8,25.1c-26.3,23-46,52.7-57.1,85.9
		c-0.5,1.1-0.6,2.3-0.1,3.4c0.5,1.1,1.4,2,2.6,2.3l6.4,2c0.4,0.1,0.8,0.2,1.2,0.2c1.5,0,3-0.8,3.7-2.3l0.1-0.2
		c0.1-0.2,0.2-0.4,0.2-0.6c9.3-28.3,25.6-54.1,47.3-74.7c0.3-0.3,0.6-0.5,0.8-0.8c0.3,0.3,0.5,0.5,0.6,0.5c0.1,0.1,0.2,0.2,0.3,0.3
		c18.2,14.9,39.7,26.8,62,34.3c0.3,0.1,0.7,0.2,1,0.3l-0.2,1.1c-5.3,27.6-8.3,58.4-8.7,89.1l0,0.3H96.3c-0.4,0-0.8,0.1-1.2,0.2
		c0-0.1-0.1-0.2-0.1-0.3c-0.1-0.4-0.2-0.9-0.4-1.4c0-0.1,0-0.1-0.1-0.2c-4-13.1-16-22-29.9-22c-17.3,0-31.3,14-31.3,31.3
		s14,31.3,31.3,31.3c13.8,0,25.7-8.7,29.8-21.8c0.3-0.7,0.5-1.5,0.7-2.3c0.3,0.1,0.7,0.2,1,0.2c0,0,0,0,0,0l88.8-0.1
		c0,0.1,0,0.1,0,0.2v0.4c0,0,0,0,0,0.1c0.5,31.6,3.5,62.4,8.7,89c0.1,0.5,0.1,1,0.2,1.5c-0.2,0-0.5,0.1-0.7,0.2l-0.4,0.1
		c-22.7,7.7-43.6,19.2-62,34.3c-0.3,0.2-0.5,0.4-0.8,0.6c-0.6-0.5-0.9-0.9-1-1c-21.5-20.6-37.8-46.4-47.1-74.4
		c-0.1-0.2-0.1-0.4-0.2-0.5l-0.1-0.2c-0.7-1.4-2.2-2.3-3.7-2.3c-0.4,0-0.8,0.1-1.2,0.2l-6.4,2c-1.1,0.4-2.1,1.2-2.6,2.3
		c-0.5,1.1-0.4,2.4,0.1,3.4c11,33,30.7,62.7,57.1,85.9c31.6,27.8,70.3,44.6,112,48.7c0,0,2.7,0.4,3,0.3c5.3,1.9,10.6,2.8,16,2.8
		c5.8,0,11.6-1.1,17.2-3.2c0,0,1.8-0.1,1.8-0.1c42.2-4.1,81-20.9,112.4-48.8c26.4-23.1,46.1-52.8,57.1-85.9c0.5-1.1,0.6-2.3,0.1-3.4
		c-0.5-1.1-1.4-2-2.6-2.3l-6.4-2c-0.4-0.1-0.8-0.2-1.2-0.2c-1.5,0-3,0.8-3.7,2.3l-0.1,0.2c-0.1,0.2-0.2,0.4-0.2,0.6
		c-9.3,28.2-25.6,54-47.2,74.6c-0.1,0.1-0.4,0.4-0.9,0.8c-0.4-0.3-0.6-0.5-0.6-0.6c-0.1-0.1-0.2-0.2-0.3-0.3
		c-18.7-15.2-39.6-26.8-62-34.3l-0.4-0.1c-0.4-0.1-0.7-0.2-1.1-0.2c0-0.2,0.1-0.3,0.1-0.5c0-0.1,0.1-0.2,0.1-0.3
		c5.3-27.4,8.3-58.2,8.7-89.1l0-0.4c0-0.1,0-0.1,0-0.2l88.9,0.1c0,0,0,0,0,0c0.4,0,0.8-0.1,1.2-0.2c0,0.1,0.1,0.3,0.1,0.4
		c0.1,0.4,0.2,0.9,0.4,1.4c0,0.1,0,0.1,0.1,0.2c4,13.1,16,22,29.9,22c8.3,0,16.2-3.3,22.1-9.2c5.9-5.9,9.2-13.8,9.2-22.1
		C478.4,293.3,464.4,279.3,447.3,279.3z M197,423.6C197,423.6,197,423.6,197,423.6c0,0.1,0,0.1,0,0.2c1.7,7.4,3.7,14.8,6.2,22.5
		c6.2,19.3,13.7,34.6,22.2,45.5l-1.6-0.2c-0.3,0-0.6,0-0.9,0c-29.8-5.5-57.8-18.3-81.6-37.4C158,440.9,176.7,430.6,197,423.6z
		 M267.9,489.7l-4,3.6c0,0-4.6,0.1-7.9,0.1c-3.2,0-8.3-0.2-8.3-0.2l-3.7-3.7c-9.6-7.6-19-24.2-26.5-46.9c-2.1-6.3-4.2-13.7-6.3-22.7
		c0-0.3-0.1-0.6-0.1-0.9c0.1,0,0.2,0,0.4-0.1l0.2-0.1c14.4-3.6,29.3-5.4,44.2-5.4c14.8,0,29.7,1.8,44.2,5.5l0.2,0.1
		c0.2,0.1,0.4,0.1,0.6,0.1c0,0.2-0.1,0.4-0.1,0.5c0,0,0,0.1,0,0.1c0,0.1,0,0.1,0,0.2c-2.1,9.1-4.7,17.5-6.4,23
		C286.5,466.6,277.6,482.3,267.9,489.7z M286.4,491.8c8.8-11.2,16.2-26.5,22.3-45.5l0.3-1c1.6-5.3,4-13.2,5.9-21.7
		c0-0.2,0.1-0.3,0.1-0.5c0.1,0,0.2,0.1,0.3,0.1c20.5,7.1,39.2,17.4,55.8,30.6C346.5,473.6,317.3,486.6,286.4,491.8z M227.3,317.8
		c2.3,0,4.1-1.8,4.1-4.1v-6.6c0-2.3-1.8-4.1-4.1-4.1h-27.4v-0.1c0.5-30.5,3.4-60.2,8.4-85.9c0-0.1,0-0.1,0-0.2l0-0.1
		c0.1,0,0.2,0.1,0.3,0.1c15,3.9,31,5.9,47.5,5.9c15.8,0,31.8-2,47.4-5.8c0.1,0,0.2,0,0.3-0.1l0,0c0,0.1,0,0.1,0,0.2
		c5,26.3,7.9,56,8.4,85.9v0.2v0h-27.7c-2.3,0-4.1,1.8-4.1,4.1v6.6c0,2.3,1.8,4.1,4.1,4.1l27.5,0c0,0.1,0,0.2,0,0.2v0.2
		c-0.4,30.1-3.2,59.8-8.2,85.9c0,0.1,0,0.1,0,0.2l0,0.1c0,0,0,0,0,0c-15.2-3.9-31.3-5.9-47.8-5.9c-16,0-32.1,2-47.8,5.9
		c0,0-0.1,0-0.1,0.1l0-0.3c0,0,0-0.1,0-0.1c-5-26.9-7.8-55.8-8.2-86l0-0.2c0-0.1,0-0.2,0-0.2L227.3,317.8z"/>
	<path class="st0" d="M202.6,70c0.1,0.3,0.2,0.6,0.3,0.9l0.2,0.3c3.2,8.3,26.7,66.7,46,114.6c1,2.8,3.8,4.8,6.9,4.8
		c3,0,5.9-2.1,6.8-4.9C297.4,100.1,308.2,73,309.1,70c1.3-4.6,1.9-9.4,1.9-14.3c0-30.5-24.8-55.2-55.2-55.2
		c-30.5,0-55.2,24.8-55.2,55.2c0,0.1,0,0.2,0,0.2C200.8,60.6,201.5,65.3,202.6,70z M215.8,55.4c-0.1-10.7,4-20.7,11.5-28.3
		c7.6-7.8,17.8-12,28.6-12c22.2,0,40.4,18.1,40.5,40.4c0,3.4-0.5,6.9-1.4,10.4c0,0.1,0,0.2-0.1,0.2c-2.3,6.4-26.3,65.8-38.4,95.6
		l-0.6,1.4l-0.6-1.4c-2.3-5.7-6.2-15.5-10.8-26.9c-10.1-25.2-25.3-62.8-27.3-68.4c0-0.3-0.1-0.5-0.1-0.8
		C216.3,62.5,215.8,59.1,215.8,55.4z"/>
	<path class="st0" d="M252.8,286.1h6.6c2.3,0,4.1-1.8,4.1-4.1v-6.6c0-2.3-1.8-4.1-4.1-4.1h-6.6c-2.3,0-4.1,1.8-4.1,4.1v6.6
		C248.6,284.3,250.5,286.1,252.8,286.1z"/>
	<path class="st0" d="M252.8,318h6.6c2.3,0,4.1-1.8,4.1-4.1v-6.6c0-2.3-1.8-4.1-4.1-4.1h-6.6c-2.3,0-4.1,1.8-4.1,4.1v6.6
		C248.6,316.2,250.5,318,252.8,318z"/>
	<path class="st0" d="M252.8,350h6.6c2.3,0,4.1-1.8,4.1-4.1v-6.6c0-2.3-1.8-4.1-4.1-4.1h-6.6c-2.3,0-4.1,1.8-4.1,4.1v6.6
		C248.6,348.1,250.5,350,252.8,350z"/>
</g>
</svg>
