<?xml version="1.0" encoding="utf-8"?>
<!-- Generator: Adobe Illustrator 20.0.0, SVG Export Plug-In . SVG Version: 6.00 Build 0)  -->
<svg version="1.1" id="Layer_1" xmlns="http://www.w3.org/2000/svg" xmlns:xlink="http://www.w3.org/1999/xlink" x="0px" y="0px"
	 viewBox="0 0 512 512" style="enable-background:new 0 0 512 512;" xml:space="preserve">
<style type="text/css">
	.st0{fill:#F37522;}
</style>
<path class="st0" d="M454.9,382.6c5,0,9.1,4.1,9.1,9.1c0,5-4.1,9.1-9.1,9.1H218.9c0.5-2.9,0.8-6,0.8-9.1c0-3.1-0.5-6-0.8-9.1H454.9z
	 M364.5,256c0-9.9-8.1-18.1-18.1-18.1c-9.9,0-18.1,8.1-18.1,18.1c0,9.9,8.1,18.1,18.1,18.1S364.5,265.9,364.5,256z M310.3,256
	c0-20,16.2-36.2,36.2-36.2s36.2,16.2,36.2,36.2s-16.2,36.2-36.2,36.2C326.4,292.2,310.3,276,310.3,256z M165.5,409.7
	c9.9,0,18.1-8.1,18.1-18.1c0-10-8.1-18.1-18.1-18.1c-10,0-18.1,8.1-18.1,18.1C147.4,401.6,155.6,409.7,165.5,409.7z M165.5,355.5
	c20,0,36.2,16.2,36.2,36.2s-16.2,36.2-36.2,36.2s-36.2-16.2-36.2-36.2C129.4,371.6,145.6,355.5,165.5,355.5z M57.1,382.6h55.1
	c-0.5,2.9-0.8,5.9-0.8,9.1c0,3,0.5,6,0.8,9.1H57.1c-5,0-9.1-4.1-9.1-9.1C48,386.7,52.1,382.6,57.1,382.6z M57.1,246.9h236.1
	c-0.5,2.9-0.8,5.9-0.8,9.1c0,3,0.5,6,0.8,9.1H57.1c-5,0-9.1-4.1-9.1-9.1S52.1,246.9,57.1,246.9z M57.1,129.4c-5,0-9.1-4.1-9.1-9.1
	s4.1-9.1,9.1-9.1h55.1c-0.5,2.9-0.8,5.9-0.8,9.1c0,3,0.5,6,0.8,9.1H57.1z M165.5,102.3c-9.9,0-18.1,8.1-18.1,18.1
	s8.1,18.1,18.1,18.1c10,0,18.1-8.1,18.1-18.1S175.5,102.3,165.5,102.3z M165.5,156.5c-20,0-36.2-16.2-36.2-36.2s16.2-36.2,36.2-36.2
	s36.2,16.2,36.2,36.2S185.6,156.5,165.5,156.5z M454.9,129.4H218.9c0.5-2.9,0.8-6,0.8-9.1c0-3.1-0.5-6-0.8-9.1h236.1
	c5,0,9.1,4.1,9.1,9.1S459.9,129.4,454.9,129.4z M454.9,265.1h-55.1c0.5-2.9,0.8-6,0.8-9.1c0-3.1-0.5-6-0.8-9.1h55.1
	c5,0,9.1,4.1,9.1,9.1S459.9,265.1,454.9,265.1z"/>
</svg>
