<?xml version="1.0" encoding="utf-8"?>
<!-- Generator: Adobe Illustrator 20.0.0, SVG Export Plug-In . SVG Version: 6.00 Build 0)  -->
<svg version="1.1" id="Layer_1" xmlns="http://www.w3.org/2000/svg" xmlns:xlink="http://www.w3.org/1999/xlink" x="0px" y="0px"
	 viewBox="0 0 512 512" style="enable-background:new 0 0 512 512;" xml:space="preserve">
<style type="text/css">
	.st0{fill:none;stroke:#F37522;stroke-width:15;stroke-miterlimit:10;}
</style>
<polyline class="st0" points="154.4,236.6 105.5,285.5 56.4,236.6 "/>
<path class="st0" d="M282.3,68c0,0-176.8,0.1-176.8,217.7"/>
<polyline class="st0" points="357.6,275.1 406.5,226 455.5,275.1 "/>
<path class="st0" d="M229.8,443.7c0,0,176.8-0.1,176.8-217.7"/>
<rect x="338.7" y="33.3" class="st0" width="139.9" height="139.9"/>
<rect x="33.6" y="338.9" class="st0" width="139.9" height="139.9"/>
</svg>
