<?xml version="1.0" encoding="utf-8"?>
<!-- Generator: Adobe Illustrator 21.1.0, SVG Export Plug-In . SVG Version: 6.00 Build 0)  -->
<svg version="1.1" id="Layer_1" xmlns="http://www.w3.org/2000/svg" xmlns:xlink="http://www.w3.org/1999/xlink" x="0px" y="0px"
	 viewBox="0 0 512 512" style="enable-background:new 0 0 512 512;" xml:space="preserve">
<style type="text/css">
	.st0{fill:#F47422;}
</style>
<title>feat</title>
<path class="st0" d="M470.3,388.2c-4.1,0-7.5-3.4-7.5-7.5V73.5c0-13.3-10.9-24.2-24.3-24.2h-3.8c-4.1,0-7.5-3.4-7.5-7.5
	s3.4-7.5,7.5-7.5h3.8c21.6,0.1,39.2,17.7,39.2,39.2v307.2C477.8,384.8,474.4,388.2,470.3,388.2z"/>
<path class="st0" d="M438.5,477.8H131.3c-4.1,0-7.5-3.4-7.5-7.5s3.4-7.5,7.5-7.5h307.2c13.3,0,24.2-10.9,24.2-24.3v-3.8
	c0-4.1,3.4-7.5,7.5-7.5s7.5,3.4,7.5,7.5v3.8C477.7,460.1,460.1,477.7,438.5,477.8z"/>
<path class="st0" d="M77.3,477.8h-3.8c-21.6-0.1-39.2-17.7-39.2-39.2V131.3c0-4.1,3.4-7.5,7.5-7.5s7.5,3.4,7.5,7.5v307.2
	c0,13.3,10.9,24.2,24.3,24.2h3.8c4.1,0,7.5,3.4,7.5,7.5S81.4,477.8,77.3,477.8z"/>
<path class="st0" d="M41.7,84.8c-4.1,0-7.5-3.4-7.5-7.5v-3.8c0.1-21.6,17.7-39.2,39.2-39.2h307.2c4.1,0,7.5,3.4,7.5,7.5
	s-3.4,7.5-7.5,7.5H73.5c-13.3,0-24.2,10.9-24.2,24.3v3.8C49.2,81.4,45.9,84.8,41.7,84.8z"/>
<path class="st0" d="M355.2,81c-1.9,0-3.8-0.7-5.3-2.2c-2.9-2.9-2.9-7.7,0-10.6l26.4-26.4l-26.4-26.4c-2.9-2.9-2.9-7.7,0-10.6
	c2.9-2.9,7.7-2.9,10.6,0l31.7,31.7c2.9,2.9,2.9,7.7,0,10.6l-31.7,31.7C359,80.3,357.1,81,355.2,81z"/>
<path class="st0" d="M156.8,509.5c-1.9,0-3.8-0.7-5.3-2.2l-31.7-31.7c-2.9-2.9-2.9-7.7,0-10.6l31.7-31.7c2.9-2.9,7.7-2.9,10.6,0
	c2.9,2.9,2.9,7.7,0,10.6l-26.4,26.4l26.4,26.4c2.9,2.9,2.9,7.7,0,10.6C160.7,508.8,158.8,509.5,156.8,509.5z"/>
<path class="st0" d="M470.3,394.4c-1.9,0-3.8-0.7-5.3-2.2l-31.7-31.7c-2.9-2.9-2.9-7.7,0-10.6c2.9-2.9,7.7-2.9,10.6,0l26.4,26.4
	l26.4-26.4c2.9-2.9,7.7-2.9,10.6,0c2.9,2.9,2.9,7.7,0,10.6l-31.7,31.7C474.1,393.7,472.2,394.4,470.3,394.4z"/>
<path class="st0" d="M73.5,164.3c-1.9,0-3.8-0.7-5.3-2.2l-26.4-26.4l-26.4,26.4c-2.9,2.9-7.7,2.9-10.6,0c-2.9-2.9-2.9-7.7,0-10.6
	l31.7-31.7c2.9-2.9,7.7-2.9,10.6,0l31.7,31.7c2.9,2.9,2.9,7.7,0,10.6C77.3,163.6,75.4,164.3,73.5,164.3z"/>
<path class="st0" d="M231.8,405.6c-0.4,0-0.9,0-1.3-0.1c-9.6-1.7-19-4.5-28-8.2c-2.8-1.2-4.7-3.9-4.7-6.9v-33
	c-0.1,0-0.1-0.1-0.2-0.1l-30,13.8c-2.8,1.3-6,0.7-8.2-1.3c-7.1-6.6-13.6-14-19.1-22c-1.7-2.5-1.8-5.8-0.2-8.3l17.8-27.8
	c0-0.1-0.1-0.2-0.1-0.2l-32.8-4.7c-3-0.4-5.5-2.6-6.2-5.6c-2.4-9.4-3.8-19.1-4.1-28.8c-0.1-3,1.6-5.8,4.4-7.1l29.9-13.6
	c0-0.1,0-0.3,0.1-0.4l-24.9-21.5c-2.3-2-3.2-5.2-2.2-8.1c3.1-9.2,7.2-18.1,12.2-26.5c1.5-2.6,4.5-4,7.5-3.6l32.6,4.8
	c0-0.1,0.1-0.1,0.1-0.2l-9.3-31.6c-0.9-2.9,0.1-6.1,2.5-8c7.6-6.1,15.9-11.4,24.5-15.7c2.7-1.4,6-1,8.3,1l24.9,21.6
	c0.1,0,0.2-0.1,0.3-0.1l9.3-31.7c0.9-2.9,3.4-5,6.4-5.4c9.6-1,19.4-1,29.1,0c3,0.3,5.6,2.4,6.4,5.4l9.3,31.8c0.1,0,0.2,0,0.2,0.1
	l25-21.7c2.3-2,5.6-2.4,8.3-1c8.7,4.4,16.9,9.6,24.5,15.7c2.4,1.9,3.4,5.1,2.5,8l-9.3,31.6c0,0.1,0.1,0.1,0.1,0.2l32.6-4.8
	c3-0.4,6,1,7.5,3.6c5,8.4,9.1,17.3,12.2,26.5c1,2.9,0.1,6.1-2.2,8.1l-25,21.5c0,0.1,0,0.2,0.1,0.4l30,13.7c2.8,1.3,4.5,4.1,4.4,7.1
	c-0.4,9.7-1.8,19.4-4.1,28.8c-0.7,3-3.2,5.2-6.2,5.6l-32.6,4.7c0,0.1-0.1,0.1-0.1,0.2l17.9,27.8c1.7,2.6,1.6,5.9-0.2,8.4
	c-5.6,7.9-12,15.3-19,22c-2.2,2.1-5.5,2.6-8.3,1.4l-30-13.8c-0.1,0-0.1,0.1-0.2,0.1v33.1c0,3-1.8,5.8-4.7,6.9
	c-9,3.7-18.4,6.4-28,8.2c-3,0.5-6-0.8-7.6-3.3l-17.8-27.7c-0.1,0-0.3,0-0.4,0l-17.8,27.7C236.8,404.3,234.4,405.6,231.8,405.6z
	 M260.3,359.3c2.5,0,4.9,1.3,6.3,3.4l17.4,27c5.2-1.2,10.4-2.7,15.4-4.5v-32.2c0-2.7,1.4-5.1,3.7-6.5c2.3-1.3,4.5-2.7,6.5-4.1
	c2.2-1.5,5-1.8,7.4-0.7l29.1,13.4c3.7-3.8,7.3-7.9,10.5-12.1l-17.4-27c-1.4-2.2-1.6-5.1-0.4-7.4c1.1-2.3,2.3-4.7,3.3-7.1
	c1-2.4,3.2-4.1,5.9-4.5l31.6-4.5c1.1-5.2,1.8-10.6,2.3-15.9l-29.1-13.2c-2.4-1.1-4.1-3.4-4.4-6.1c-0.3-2.5-0.7-5-1.2-7.6l0-0.2
	c-0.5-2.6,0.5-5.3,2.5-7l24.3-20.9c-1.9-5-4.2-9.9-6.7-14.6l-31.7,4.6c-2.7,0.4-5.3-0.7-7-2.8c-1.6-2-3.2-3.9-5-5.7
	c-1.9-1.9-2.6-4.7-1.8-7.3l9.1-30.8c-4.3-3.2-8.8-6.1-13.5-8.7l-24.2,21c-2,1.7-4.8,2.3-7.3,1.4c-2.4-0.8-4.8-1.4-7.4-2.1
	c-2.6-0.7-4.7-2.6-5.4-5.2l-9.1-30.9c-5.4-0.3-10.7-0.3-16.1,0l-9.1,30.9c-0.8,2.6-2.9,4.6-5.6,5.2c-2.4,0.5-4.8,1.2-7.2,2
	c-2.5,0.9-5.4,0.4-7.4-1.4l-24.2-21c-4.7,2.6-9.2,5.5-13.5,8.7l9.1,30.8c0.8,2.6,0.1,5.4-1.8,7.3c-1.7,1.8-3.4,3.7-5,5.7
	c-1.7,2.1-4.3,3.2-7,2.8l-31.7-4.6c-2.5,4.7-4.8,9.6-6.7,14.6l24.3,20.9c2.1,1.8,3,4.5,2.4,7.2c-0.5,2.5-0.9,5-1.2,7.6
	c-0.3,2.7-1.9,5-4.4,6.1L130,276.6c0.4,5.3,1.2,10.6,2.3,15.9l31.9,4.6c2.7,0.4,4.9,2.2,5.9,4.7c0.9,2.3,2,4.6,3.1,6.8
	c1.3,2.4,1.2,5.3-0.3,7.6l-17.4,27c3.2,4.3,6.7,8.3,10.5,12.1l29.2-13.4c2.4-1.1,5.2-0.9,7.4,0.7c1.9,1.3,4.1,2.7,6.5,4.1
	c2.3,1.3,3.7,3.8,3.7,6.5v32.1c5,1.8,10.2,3.3,15.4,4.5l17.4-27c1.5-2.3,4.1-3.6,6.9-3.4c1.2,0.1,2.4,0.2,3.6,0.2
	c1,0,2.1-0.1,3.3-0.2l0.4,0C260,359.3,260.1,359.3,260.3,359.3z"/>
<path class="st0" d="M256,330.6c-35.9,0-65-29.2-65-65c0-35.9,29.2-65,65-65s65,29.2,65,65C321,301.4,291.9,330.6,256,330.6z
	 M256,215.5c-27.6,0-50,22.4-50,50s22.4,50,50,50c27.6,0,50-22.4,50-50S283.6,215.5,256,215.5z"/>
<circle class="st0" cx="256" cy="265.6" r="27.4"/>
</svg>
