<?xml version="1.0" encoding="utf-8"?>
<!-- Generator: Adobe Illustrator 19.0.0, SVG Export Plug-In . SVG Version: 6.00 Build 0)  -->
<svg version="1.1" id="Layer_1" xmlns="http://www.w3.org/2000/svg" xmlns:xlink="http://www.w3.org/1999/xlink" x="0px" y="0px"
	 viewBox="0 0 210 210" style="enable-background:new 0 0 210 210;" xml:space="preserve">
<style type="text/css">
	.st0{fill:#BDCBD5;}
</style>
<g id="XMLID_1_">
	<g id="XMLID_72_">
		<path id="XMLID_9_" class="st0" d="M68.9,164.8c-1.7,0-3-1.3-3-3V92.7c0-1.7,1.3-3,3-3s3,1.3,3,3v69.2
			C71.9,163.5,70.6,164.8,68.9,164.8z"/>
	</g>
	<g id="XMLID_75_">
		<path id="XMLID_8_" class="st0" d="M103.7,164.8c-1.7,0-3-1.3-3-3V92.7c0-1.7,1.3-3,3-3s3,1.3,3,3v69.2
			C106.7,163.5,105.3,164.8,103.7,164.8z"/>
	</g>
	<g id="XMLID_76_">
		<path id="XMLID_7_" class="st0" d="M138.2,164.8c-1.7,0-3-1.3-3-3V92.7c0-1.7,1.3-3,3-3s3,1.3,3,3v69.2
			C141.2,163.5,139.8,164.8,138.2,164.8z"/>
	</g>
	<g id="XMLID_77_">
		<path id="XMLID_6_" class="st0" d="M162.2,130.3H47.8c-1.7,0-3-1.3-3-3s1.3-3,3-3h114.3c1.7,0,3,1.3,3,3S163.8,130.3,162.2,130.3z
			"/>
	</g>
	<g id="XMLID_78_">
		<path id="XMLID_5_" class="st0" d="M162.2,154.7H47.8c-1.7,0-3-1.3-3-3s1.3-3,3-3h114.3c1.7,0,3,1.3,3,3S163.8,154.7,162.2,154.7z
			"/>
	</g>
	<g id="XMLID_79_">
		<path id="XMLID_4_" class="st0" d="M162.2,105.2H47.8c-1.7,0-3-1.3-3-3s1.3-3,3-3h114.3c1.7,0,3,1.3,3,3S163.8,105.2,162.2,105.2z
			"/>
	</g>
	<path id="XMLID_13_" class="st0" d="M177,40.5h-21v-7.3c0-1.7-1.3-3-3-3h-20.2c-1.7,0-3,1.3-3,3v7.3H82v-7.3c0-1.7-1.3-3-3-3H58.8
		c-1.7,0-3,1.3-3,3v7.3H34.5c-1.7,0-3,1.3-3,3V176c0,1.7,1.3,3,3,3H177c1.7,0,3-1.3,3-3V43.5C180,41.8,178.7,40.5,177,40.5z
		 M135.8,36.2H150v19.2h-14.2V36.2z M61.8,46.5v-6v-4.3H76v4.3v6v8.8H61.8V46.5z M55.8,46.5v11.8c0,1.7,1.3,3,3,3H79
		c1.7,0,3-1.3,3-3V46.5h47.8v11.8c0,1.7,1.3,3,3,3H153c1.7,0,3-1.3,3-3V46.5h18v28H37.5v-28H55.8z M174,173H37.5V80.5H174V173z"/>
</g>
</svg>
