<?xml version="1.0" encoding="utf-8"?>
<!-- Generator: Adobe Illustrator 19.0.0, SVG Export Plug-In . SVG Version: 6.00 Build 0)  -->
<svg version="1.1" id="Layer_3" xmlns="http://www.w3.org/2000/svg" xmlns:xlink="http://www.w3.org/1999/xlink" x="0px" y="0px"
	 viewBox="0 0 210 210" style="enable-background:new 0 0 210 210;" xml:space="preserve">
<style type="text/css">
	.st0{fill:#BDCBD5;}
	.st1{fill:none;stroke:#BDCBD5;stroke-width:7;stroke-linecap:round;stroke-linejoin:round;stroke-miterlimit:10;}
</style>
<g id="XMLID_12_">
	<path id="XMLID_32_" class="st0" d="M105.6,36.3c37.4,0,67.8,30.4,67.8,67.8s-30.4,67.8-67.8,67.8s-67.8-30.4-67.8-67.8
		S68.2,36.3,105.6,36.3 M105.6,29.3c-41.3,0-74.8,33.5-74.8,74.8s33.5,74.8,74.8,74.8s74.8-33.5,74.8-74.8S146.9,29.3,105.6,29.3
		L105.6,29.3z"/>
</g>
<line id="XMLID_18_" class="st1" x1="102.8" y1="69.8" x2="102.8" y2="103.5"/>
<line id="XMLID_22_" class="st1" x1="103.6" y1="104.3" x2="139.1" y2="139.8"/>
</svg>
