<?xml version="1.0" encoding="utf-8"?>
<!-- Generator: Adobe Illustrator 20.1.0, SVG Export Plug-In . SVG Version: 6.00 Build 0)  -->
<svg version="1.1" id="Layer_1" xmlns="http://www.w3.org/2000/svg" xmlns:xlink="http://www.w3.org/1999/xlink" x="0px" y="0px"
	 viewBox="0 0 512 512" style="enable-background:new 0 0 512 512;" xml:space="preserve">
<style type="text/css">
	.st0{fill:none;stroke:url(#SVGID_1_);stroke-width:12;stroke-miterlimit:10;}
	.st1{fill:none;stroke:url(#SVGID_2_);stroke-width:12;stroke-miterlimit:10;}
	.st2{fill:url(#SVGID_3_);}
	.st3{fill:url(#SVGID_4_);}
	.st4{fill:url(#SVGID_5_);}
	.st5{fill:url(#SVGID_6_);}
	.st6{fill:url(#SVGID_7_);}
	.st7{fill:url(#SVGID_8_);}
</style>
<linearGradient id="SVGID_1_" gradientUnits="userSpaceOnUse" x1="256" y1="31.5532" x2="256" y2="260.7743" gradientTransform="matrix(1 0 0 -1 0 514)">
	<stop  offset="0" style="stop-color:#77A41A"/>
	<stop  offset="1" style="stop-color:#A1CD3D"/>
</linearGradient>
<polyline class="st0" points="367.3,256 256,469.5 144.7,256 "/>
<linearGradient id="SVGID_2_" gradientUnits="userSpaceOnUse" x1="256" y1="27.6775" x2="256" y2="484.4468" gradientTransform="matrix(1 0 0 -1 0 514)">
	<stop  offset="0" style="stop-color:#77A41A"/>
	<stop  offset="1" style="stop-color:#A1CD3D"/>
</linearGradient>
<polyline class="st1" points="367.3,256 42.5,469.5 144.7,256 256,42.5 367.3,256 469.5,469.5 144.7,256 "/>
<linearGradient id="SVGID_3_" gradientUnits="userSpaceOnUse" x1="469.4704" y1="4" x2="469.4704" y2="85.0592" gradientTransform="matrix(1 0 0 -1 0 514)">
	<stop  offset="0" style="stop-color:#77A41A"/>
	<stop  offset="1" style="stop-color:#A1CD3D"/>
</linearGradient>
<circle class="st2" cx="469.5" cy="469.5" r="40.5"/>
<linearGradient id="SVGID_4_" gradientUnits="userSpaceOnUse" x1="256" y1="4" x2="256" y2="85.0592" gradientTransform="matrix(1 0 0 -1 0 514)">
	<stop  offset="0" style="stop-color:#77A41A"/>
	<stop  offset="1" style="stop-color:#A1CD3D"/>
</linearGradient>
<circle class="st3" cx="256" cy="469.5" r="40.5"/>
<linearGradient id="SVGID_5_" gradientUnits="userSpaceOnUse" x1="144.6817" y1="217.4704" x2="144.6817" y2="298.5296" gradientTransform="matrix(1 0 0 -1 0 514)">
	<stop  offset="0" style="stop-color:#77A41A"/>
	<stop  offset="1" style="stop-color:#A1CD3D"/>
</linearGradient>
<circle class="st4" cx="144.7" cy="256" r="40.5"/>
<linearGradient id="SVGID_6_" gradientUnits="userSpaceOnUse" x1="256" y1="430.9409" x2="256" y2="512" gradientTransform="matrix(1 0 0 -1 0 514)">
	<stop  offset="0" style="stop-color:#77A41A"/>
	<stop  offset="1" style="stop-color:#A1CD3D"/>
</linearGradient>
<circle class="st5" cx="256" cy="42.5" r="40.5"/>
<linearGradient id="SVGID_7_" gradientUnits="userSpaceOnUse" x1="367.3182" y1="217.4704" x2="367.3182" y2="298.5296" gradientTransform="matrix(1 0 0 -1 0 514)">
	<stop  offset="0" style="stop-color:#77A41A"/>
	<stop  offset="1" style="stop-color:#A1CD3D"/>
</linearGradient>
<circle class="st6" cx="367.3" cy="256" r="40.5"/>
<linearGradient id="SVGID_8_" gradientUnits="userSpaceOnUse" x1="42.5296" y1="4" x2="42.5296" y2="85.0592" gradientTransform="matrix(1 0 0 -1 0 514)">
	<stop  offset="0" style="stop-color:#77A41A"/>
	<stop  offset="1" style="stop-color:#A1CD3D"/>
</linearGradient>
<circle class="st7" cx="42.5" cy="469.5" r="40.5"/>
</svg>
