<?xml version="1.0" encoding="utf-8"?>
<!-- Generator: Adobe Illustrator 20.1.0, SVG Export Plug-In . SVG Version: 6.00 Build 0)  -->
<svg version="1.1" id="Layer_1" xmlns="http://www.w3.org/2000/svg" xmlns:xlink="http://www.w3.org/1999/xlink" x="0px" y="0px"
	 viewBox="0 0 512 496" style="enable-background:new 0 0 512 496;" xml:space="preserve">
<style type="text/css">
	.st0{fill:none;stroke:url(#SVGID_1_);stroke-width:16;stroke-linejoin:round;stroke-miterlimit:10;}
	.st1{fill:none;stroke:url(#SVGID_2_);stroke-width:16;stroke-linejoin:round;stroke-miterlimit:10;}
	.st2{fill:none;stroke:url(#SVGID_3_);stroke-width:16;stroke-linejoin:round;stroke-miterlimit:10;}
	.st3{fill:none;stroke:url(#SVGID_4_);stroke-width:16;stroke-linejoin:round;stroke-miterlimit:10;}
	.st4{fill:none;stroke:url(#SVGID_5_);stroke-width:16;stroke-linejoin:round;stroke-miterlimit:10;}
	.st5{fill:none;stroke:url(#SVGID_6_);stroke-width:16;stroke-linejoin:round;stroke-miterlimit:10;}
	.st6{fill:none;stroke:url(#SVGID_7_);stroke-width:16;stroke-linejoin:round;stroke-miterlimit:10;}
</style>
<linearGradient id="SVGID_1_" gradientUnits="userSpaceOnUse" x1="256" y1="496" x2="256" y2="432">
	<stop  offset="0" style="stop-color:#77A41A"/>
	<stop  offset="1" style="stop-color:#A1CD3D"/>
</linearGradient>
<polygon class="st0" points="472,488 40,488 8,456 8,440 200,440 216,456 296,456 312,440 504,440 504,456 "/>
<linearGradient id="SVGID_2_" gradientUnits="userSpaceOnUse" x1="256" y1="416" x2="256" y2="160">
	<stop  offset="0" style="stop-color:#77A41A"/>
	<stop  offset="1" style="stop-color:#A1CD3D"/>
</linearGradient>
<path class="st1" d="M456,416V192c0-13.3-10.8-24-24-24H80c-13.2,0-24,10.7-24,24v224"/>
<linearGradient id="SVGID_3_" gradientUnits="userSpaceOnUse" x1="256" y1="360" x2="256" y2="248">
	<stop  offset="0" style="stop-color:#77A41A"/>
	<stop  offset="1" style="stop-color:#A1CD3D"/>
</linearGradient>
<polyline class="st2" points="112,304 128,304 160,272 224,352 288,256 352,336 384,304 400,304 "/>
<linearGradient id="SVGID_4_" gradientUnits="userSpaceOnUse" x1="256" y1="144" x2="256" y2="0">
	<stop  offset="0" style="stop-color:#77A41A"/>
	<stop  offset="1" style="stop-color:#A1CD3D"/>
</linearGradient>
<path class="st3" d="M392,144c0-6.7-0.6-13.2-1.6-19.6c-4.4,2.2-9.2,3.6-14.4,3.6c-17.7,0-32-14.3-32-32c0-14.5,9.7-26.6,22.9-30.5
	C358,52.9,347.1,42,334.5,33.1C330.6,46.3,318.5,56,304,56c-17.7,0-32-14.3-32-32c0-5.2,1.4-10.1,3.6-14.4C269.2,8.6,262.7,8,256,8
	s-13.2,0.6-19.6,1.6c2.2,4.4,3.6,9.2,3.6,14.4c0,17.7-14.3,32-32,32c-14.5,0-26.6-9.7-30.5-22.9C164.9,42,154,52.9,145.1,65.5
	c13.2,3.9,22.9,16,22.9,30.5c0,17.7-14.3,32-32,32c-5.2,0-10.1-1.4-14.4-3.6c-0.9,6.4-1.6,12.9-1.6,19.6"/>
<linearGradient id="SVGID_5_" gradientUnits="userSpaceOnUse" x1="256" y1="144" x2="256" y2="112">
	<stop  offset="0" style="stop-color:#77A41A"/>
	<stop  offset="1" style="stop-color:#A1CD3D"/>
</linearGradient>
<path class="st4" d="M232,144c0-13.2,10.8-24,24-24c13.2,0,24,10.8,24,24"/>
<linearGradient id="SVGID_6_" gradientUnits="userSpaceOnUse" x1="256" y1="144" x2="256" y2="72">
	<stop  offset="0" style="stop-color:#77A41A"/>
	<stop  offset="1" style="stop-color:#A1CD3D"/>
</linearGradient>
<path class="st5" d="M192,144c0-35.3,28.7-64,64-64s64,28.7,64,64"/>
<linearGradient id="SVGID_7_" gradientUnits="userSpaceOnUse" x1="256" y1="416" x2="256" y2="192">
	<stop  offset="0" style="stop-color:#77A41A"/>
	<stop  offset="1" style="stop-color:#A1CD3D"/>
</linearGradient>
<rect x="88" y="200" class="st6" width="336" height="208"/>
</svg>
