<?xml version="1.0" encoding="utf-8"?>
<!-- Generator: Adobe Illustrator 20.0.0, SVG Export Plug-In . SVG Version: 6.00 Build 0)  -->
<svg version="1.1" id="Layer_1" xmlns="http://www.w3.org/2000/svg" xmlns:xlink="http://www.w3.org/1999/xlink" x="0px" y="0px"
	 viewBox="0 0 512 512" style="enable-background:new 0 0 512 512;" xml:space="preserve">
<style type="text/css">
	.st0{fill:none;stroke:#3C76F7;stroke-width:14;stroke-miterlimit:10;}
</style>
<ellipse class="st0" cx="256" cy="232" rx="120" ry="32"/>
<path class="st0" d="M400,328h8c53,0,96-43,96-96c0-47.6-32-88-80-88c0-40-24-72-72-72h-8C322.2,32.6,280.2,8,232,8
	c-70.7,0-128,57.3-128,128c-53,0-96,43-96,96s43,96,96,96h8"/>
<path class="st0" d="M152,144c0-48.6,40-88,80-88"/>
<path class="st0" d="M376,264v48c0,17.7-53.7,32-120,32s-120-14.3-120-32v-48"/>
<path class="st0" d="M376,344v48c0,17.7-53.7,32-120,32s-120-14.3-120-32v-48"/>
<path class="st0" d="M376,424v48c0,17.7-53.7,32-120,32s-120-14.3-120-32v-48"/>
<line class="st0" x1="248" y1="304" x2="264" y2="304"/>
<line class="st0" x1="216" y1="304" x2="232" y2="304"/>
<line class="st0" x1="280" y1="304" x2="296" y2="304"/>
<line class="st0" x1="248" y1="384" x2="264" y2="384"/>
<line class="st0" x1="216" y1="384" x2="232" y2="384"/>
<line class="st0" x1="280" y1="384" x2="296" y2="384"/>
<line class="st0" x1="248" y1="464" x2="264" y2="464"/>
<line class="st0" x1="216" y1="464" x2="232" y2="464"/>
<line class="st0" x1="280" y1="464" x2="296" y2="464"/>
</svg>
