<?xml version="1.0" encoding="utf-8"?>
<!-- Generator: Adobe Illustrator 19.2.1, SVG Export Plug-In . SVG Version: 6.00 Build 0)  -->
<svg version="1.1" id="Layer_1" xmlns="http://www.w3.org/2000/svg" xmlns:xlink="http://www.w3.org/1999/xlink" x="0px" y="0px"
	 viewBox="0 0 512 512" style="enable-background:new 0 0 512 512;" xml:space="preserve">
<style type="text/css">
	.st0{fill:none;stroke:#3C76F7;stroke-width:16;stroke-linejoin:round;stroke-miterlimit:10;}
</style>
<circle class="st0" cx="256" cy="256" r="248"/>
<polyline class="st0" points="128,296 128,184 256,264 256,408 152,343 "/>
<polyline class="st0" points="360,343 256,408 256,264 384,184 384,296 "/>
<polyline class="st0" points="280,119 384,184 256,264 128,184 232,119 "/>
<line class="st0" x1="224" y1="280" x2="72" y2="352"/>
<polyline class="st0" points="128,376 72,352 88,296 "/>
<line class="st0" x1="288" y1="280" x2="440" y2="352"/>
<polyline class="st0" points="384,376 440,352 424,296 "/>
<line class="st0" x1="256" y1="224" x2="256" y2="48"/>
<polyline class="st0" points="304,88 256,48 208,88 "/>
<circle class="st0" cx="256" cy="256" r="88"/>
</svg>
