<?xml version="1.0" encoding="utf-8"?>
<!-- Generator: Adobe Illustrator 20.0.0, SVG Export Plug-In . SVG Version: 6.00 Build 0)  -->
<svg version="1.1" id="Layer_1" xmlns="http://www.w3.org/2000/svg" xmlns:xlink="http://www.w3.org/1999/xlink" x="0px" y="0px"
	 viewBox="0 0 512 512" style="enable-background:new 0 0 512 512;" xml:space="preserve">
<style type="text/css">
	.st0{fill:none;stroke:#3C76F7;stroke-width:14;stroke-linejoin:round;stroke-miterlimit:10;}
	.st1{fill:none;stroke:#3C76F7;stroke-width:14;stroke-miterlimit:10;}
</style>
<path class="st0" d="M408,312v112c0,44.2-35.8,80-80,80s-80-35.8-80-80V88c0-44.2-35.8-80-80-80S88,43.8,88,88v120"/>
<line class="st0" x1="88" y1="272" x2="88" y2="304"/>
<line class="st0" x1="8" y1="328" x2="168" y2="328"/>
<path class="st0" d="M8,424c0,44.2,35.8,80,80,80s80-35.8,80-80V280c0-17.7-14.3-32-32-32H40c-17.7,0-32,14.3-32,32V424z"/>
<path class="st0" d="M120,88c0-26.5,21.5-48,48-48s48,21.5,48,48"/>
<path class="st0" d="M376,416c0,26.5-21.5,48-48,48s-48-21.5-48-48"/>
<line class="st0" x1="320" y1="416" x2="336" y2="416"/>
<line class="st0" x1="320" y1="384" x2="336" y2="384"/>
<line class="st0" x1="320" y1="352" x2="336" y2="352"/>
<line class="st0" x1="160" y1="152" x2="176" y2="152"/>
<line class="st0" x1="160" y1="120" x2="176" y2="120"/>
<line class="st0" x1="160" y1="88" x2="176" y2="88"/>
<circle class="st0" cx="408" cy="104" r="64"/>
<polyline class="st0" points="440,80 400,120 376,96 "/>
<path class="st1" d="M408,8c-53,0-96,43-96,96c0,72,96,184,96,184s96-112,96-184C504,51,461,8,408,8z M408,168.8
	c-35.3,0-64-28.7-64-64s28.7-64,64-64s64,28.7,64,64S443.3,168.8,408,168.8z"/>
</svg>
