<?xml version="1.0" encoding="utf-8"?>
<!-- Generator: Adobe Illustrator 20.1.0, SVG Export Plug-In . SVG Version: 6.00 Build 0)  -->
<svg version="1.1" id="Layer_1" xmlns="http://www.w3.org/2000/svg" xmlns:xlink="http://www.w3.org/1999/xlink" x="0px" y="0px"
	 viewBox="0 0 512 512" style="enable-background:new 0 0 512 512;" xml:space="preserve">
<style type="text/css">
	.st0{fill:#3C76F7;stroke:#F37422;stroke-width:6;stroke-miterlimit:10;}
	.st1{fill:#737373;stroke:#F37422;stroke-width:6;stroke-miterlimit:10;}
	.st2{fill:#F37422;}
	.st3{fill:#737373;stroke:#F37422;stroke-width:14;stroke-miterlimit:10;}
	.st4{fill:none;stroke:#F37422;stroke-width:14;stroke-miterlimit:10;}
</style>
<path class="st0" d="M34.5,5.1v51.8V60v3v6.2v1v438.4h443V70.2v-1V63v-3.1v-3.1V5.1H34.5z M41.8,63v-3.1v-3.1l0,0V18.3v-6h6h416.5h6
	v6v38.5l0,0v3.1V63l0,0h-6H47.8H41.8L41.8,63z M470.2,495.3v6h-6H47.8h-6v-6V70.2h428.6v425.1H470.2z"/>
<polygon class="st0" points="47.8,63 464.2,63 470.2,63 470.2,63 41.8,63 41.8,63 "/>
<rect x="74.9" y="34.1" class="st1" width="7.3" height="7.3"/>
<rect x="113.6" y="34.1" class="st1" width="7.3" height="7.3"/>
<rect x="152.1" y="34.1" class="st1" width="7.3" height="7.3"/>
<path class="st2" d="M270,361.7v37.5l-23.3-35c-1.4-2.2-4-3.1-6.3-2.3c-2.4,0.7-4.1,2.9-4.1,5.4v56.3h11.4v-37.5l23.3,35
	c1.4,2,4,3.1,6.5,2.3c2.4-0.7,4.1-2.9,4.1-5.4v-56.3H270z"/>
<polygon class="st2" points="383.5,361.7 381.4,361.7 379.4,361.7 367.9,361.7 366,361.7 364,361.7 351.1,361.7 351.1,373.1 
	364,373.1 366,373.1 367.9,373.1 367.9,423.8 379.4,423.8 379.4,373.1 381.4,373.1 383.5,373.1 396.3,373.1 396.3,361.7 "/>
<path class="st2" d="M305.1,381.5v-8.4h33.8v-11.4h-39.4c-3.2,0-5.7,2.6-5.7,5.7v14.2v1.5v19.5v1.5v14.2c0,3.2,2.6,5.7,5.7,5.7h39.4
	v-11.4h-33.8V404v-1.5v-4.1h2h2H322V387h-12.9h-2h-2v-4.1V381.5z"/>
<rect x="208.6" y="412.4" class="st2" width="11.4" height="11.4"/>
<path class="st2" d="M336.2,287.2c-0.3-0.6-0.8-1.1-1.1-1.7c-0.1-0.2-0.3-0.3-0.5-0.6c1.7-2.5,4.3-5,4.3-13.6c0-4.9-1.9-9.5-5.3-13
	c-3.5-3.5-8-5.4-13-5.4h-21.1c-3.2,0-5.7,2.6-5.7,5.7v25.6l0,0v4.9v2.7v23.1h11.4v-21.3v-2v-1.8h15.4c1.6,0,3.2,0.6,4.3,1.6
	c0.2,0.1,0.3,0.3,0.6,0.5c0.3,0.3,0.7,0.8,0.9,1.1c0.7,1.1,1.1,2.4,1.1,3.7v18.4H339v-18.4C338.8,293.3,337.9,290,336.2,287.2z
	 M320.5,264.3c1.8,0,3.6,0.7,5,2c1.4,1.2,2,3.1,2,4.9c0,4.4-1.2,6.5-2.3,7.6c-1.5-0.5-3.1-0.6-4.6-0.6h-15.4v-13.9H320.5z"/>
<path class="st2" d="M384.6,269.3h11.6c-0.5-4.2-2.3-8-5.2-11c-3.5-3.5-8-5.4-13-5.4h-8.5c-4.9,0-9.5,1.9-13,5.4s-5.3,8-5.3,13v25.4
	c0,4.9,1.9,9.5,5.3,13c3.5,3.5,8,5.3,13,5.3h8.5c4.9,0,9.5-1.9,12.9-5.3c3.5-3.5,5.4-8,5.4-13v-8.8c0-3.2-2.6-5.7-5.7-5.7h-14.8
	v11.4h9.2v3.1c0,1.8-0.7,3.6-2,5c-1.4,1.4-3.1,2-4.9,2h-8.5c-1.8,0-3.6-0.7-4.9-2c-1.4-1.4-2-3.1-2-5v-25.4c0-1.8,0.7-3.6,2-4.9
	c1.4-1.4,3.1-2,4.9-2h8.5c1.8,0,3.6,0.7,5,2C383.7,267.2,384.3,268.1,384.6,269.3z"/>
<path class="st2" d="M276.1,258.3c-3.5-3.5-8-5.4-13-5.4h-8.5c-4.9,0-9.5,1.9-13,5.3c-3.5,3.5-5.4,8-5.4,13v25.4
	c0,4.9,1.9,9.5,5.3,13c3.5,3.5,8,5.3,13,5.3h8.5c4.9,0,9.5-1.9,13-5.3c3.5-3.5,5.3-8,5.3-13v-25.4
	C281.5,266.3,279.6,261.8,276.1,258.3z M270,296.6c0,1.8-0.7,3.6-2,5c-1.2,1.4-3.1,2-4.9,2h-8.5c-1.8,0-3.6-0.7-4.9-2
	c-1.4-1.4-2-3.1-2-4.9v-25.4c0-1.8,0.7-3.6,2-5c0.8-0.8,1.8-1.5,2.9-1.7v-0.3H263c1.9,0,3.6,0.7,5,2c1.2,1.2,2,3.1,2,4.9V296.6
	L270,296.6z"/>
<rect x="208.6" y="303.6" class="st2" width="11.4" height="11.4"/>
<g>
	<path class="st2" d="M329.5,149.5c-3.5-3.5-8-5.3-13-5.3h-8.4c-4.9,0-9.5,1.9-13,5.4s-5.3,8-5.3,13V188c0,4.9,1.9,9.5,5.4,13
		s8,5.3,13,5.3h8.5c4.9,0,9.5-1.9,13-5.3c3.5-3.5,5.3-8,5.3-13v-25.4C335,157.6,333,153,329.5,149.5z M323.5,187.8
		c0,1.8-0.7,3.6-2,4.9c-1.4,1.4-3.1,2-5,2h-8.4c-1.8,0-3.6-0.7-4.9-2c-1.4-1.4-2-3.1-2-5v-25.4c0-1.8,0.7-3.6,2-4.9
		c1.4-1.4,3.1-2,5-2h8.5c1.8,0,3.6,0.7,4.9,2c1.4,1.4,2,3.1,2,5v25.4H323.5z"/>
</g>
<path class="st2" d="M250.7,206.2h8.5c4.9,0,9.5-1.9,12.9-5.3c3.5-3.5,5.4-8,5.4-13v-5.7h-11.3v5.7c0,1.8-0.7,3.6-2,4.9
	c-1.4,1.4-3.1,2-4.9,2h-8.5c-1.8,0-3.6-0.7-4.9-2c-1.4-1.4-2-3.1-2-4.9v-25.4c0-1.8,0.7-3.6,2-4.9c1.4-1.4,3.1-2,4.9-2h8.5
	c1.8,0,3.6,0.7,4.9,2c1.4,1.4,2,3.1,2,5v5.7h11.3v-5.7c0-4.9-1.9-9.5-5.4-13s-8-5.3-13-5.3h-8.5c-4.9,0-9.5,1.9-13,5.3
	c-3.5,3.5-5.3,8-5.3,13V188c0,4.9,1.9,9.5,5.3,13C241.2,204.2,245.8,206.2,250.7,206.2z"/>
<path class="st2" d="M397.1,144.5c-2.3-0.8-4.8-0.1-6.3,1.7L374,166.3l-16.8-20.1c-1.5-1.8-4.1-2.5-6.3-1.7
	c-2.3,0.8-3.7,2.9-3.7,5.3v56.3h11.4v-40.7l11,13.3c1.1,1.2,2.7,2,4.4,2c1.7,0,3.3-0.8,4.4-2l11-13.3v40.7h11.4v-56.3
	C400.8,147.5,399.3,145.3,397.1,144.5z"/>
<rect x="209" y="194.8" class="st2" width="11.3" height="11.4"/>
<rect x="99.6" y="145.7" class="st3" width="57.9" height="57.9"/>
<rect x="104.3" y="150.3" class="st2" width="48.6" height="48.6"/>
<rect x="99.6" y="254.4" class="st4" width="57.9" height="57.9"/>
<rect x="99.6" y="363.3" class="st4" width="57.9" height="57.9"/>
</svg>
